COD;OMM;WIGOS;NOME;CIDADE;UF;LAT;LONG;HP;GEOCODE
82014;82014;;Normandia;NORMANDIA;RR;3,5;-60,17;700,00;1400407
82017;82017;;Oiapoque - Aeroporto;OIAPOQUE;AP;3,84;-51,82;39,00;1600501
82022;82022;;Boa Vista - Aeroporto;BOA VISTA;RR;2,84;-60,68;83,00;1400100
82024;82024;;Boa Vista;BOA VISTA;RR;2,829312;-60,661941;84,18;1400100
82026;82026;;Tiriós (Base Aérea);ÓBIDOS;PA;2,22;-55,93;325,00;1505106
82029;82029;;Amapá;AMAPÁ;AP;2,05;-50,8;0,00;1600105
82030;82030;;Amapá - Aeroporto;AMAPÁ;AP;2,07;-50,85;14,00;1600105
82042;82042;;Caracaraí;CARACARAÍ;RR;1,832636;-61,120871;51,99;1400209
82047;82047;;Esc. Agrotecnica de Manaus;MANAUS;AM;-3,17;-59,73;93,00;1300680
82067;82067;;Iauaretê;IAUARETÊ;AM;0,602154;-69,192801;107,73;1303809
82068;82068;;Iauaretê - Aeroporto;SÃO GABRIEL DA CACHOEIRA;AM;0,61;-69,2;105,00;1303809
82090;82090;;Arq. São Pedro e São Paulo;Arq. São Pedro e São Paulo;RN;0,916877;-29,3459;-388,41;
82091;82091;;Monte Dourado;ALMEIRIM;PA;-0,89;-52,6;206,00;1500503
82092;;;Serra do Navio;SERRA DO NAVIO;AP;0,9;-52,02;163,00;1600055
82093;;;Cupixi;SANTANA;AP;0,62;-51,78;70,00;1600600
82094;82094;;Ponta do Ceu;;AP;0,77;-50,1;4,00;
82095;;;Porto Platon;AMAPA;AP;0,7;-51,45;83,00;1600105
82096;82096;;Canivete;CANIVETE;AP;0,508889;-50,413889;3,00;
82098;82098;;Macapá;MACAPÁ;AP;-0,045128;-51,109907;12,80;1600303
82099;82099;;Macapá - Aeroporto;MACAPÁ;AP;0,05;-51,07;17,00;1600303
82100;82100;;Paricachoeira;SAO GABRIEL DA CACHOEIRA;AM;0,17;-69,93;115,00;1303809
82103;82103;;Taracua;TARAUCÁ;AM;0,07;-68,23;86,00;1303809
82105;;;Rio Icana;SAO GABRIEL DA CACHOEIRA;AM;1,03;-67,53;90,00;1303809
82106;82106;;São Gabriel da Cachoeira (Uaupes);SÃO GABRIEL DA CACHOEIRA;AM;-0,125179;-67,061248;79,71;1303809
82107;82107;;São Gabriel da Cachoeira;SÃO GABRIEL DA CACHOEIRA;AM;-0,13;-66,98;79,00;1303809
82108;;;Santa Izabel do Rio Negro;SANTA ISABEL DO RIO NEGRO;AM;-0,42;-65,03;45,00;1303601
82113;82113;;Barcelos;BARCELOS;AM;-0,974234;-62,928642;30,65;1300409
82141;82141;;Soure;SOURE;PA;-0,727797;-48,515791;12,60;1507904
82143;82143;;Salinópolis;SALINÓPOLIS;PA;-0,6175;-47,355278;61,00;1506203
82144;;;Salinopolis (2);SALINOPOLIS;PA;-0,65;-47,55;14,00;1506203
82145;82145;;Tracuateua;TRACUATEA;PA;-1,063738;-46,865198;24,68;1508035
82167;;;Moura;BARCELOS;AM;-1,45;-61,63;35,00;1300409
82178;82178;;Obidos;ÓBIDOS;PA;-1,904985;-55,523498;54,72;1505106
82181;82181;;Monte Alegre;MONTE ALEGRE;PA;-2,000046;-54,0765;100,52;1504802
82183;;;Arumanduba;ALMEIRIM;PA;-1,53;-52,57;0,00;1500503
82184;82184;;Porto de Moz;PORTO DE MOZ;PA;-1,751055;-52,236186;13,08;1505908
82188;82188;;Breves;BREVES;PA;-1,680277;-50,478034;9,80;1501808
82191;82191;;Belém;BELÉM;PA;-1,435775;-48,437261;7,13;1501402
82193;82193;;Belém - Aeroporto;BELÉM;PA;-1,4;-48,45;17,00;2501906
82194;;;Tracuateua;TRACUATEUA;PA;-1,08;-46,9;36,00;1508035
82198;82198;;Turiaçu;TURIAÇU;MA;-1,661446;-45,372019;34,48;2112407
82212;82212;;Fonte Boa;FONTE BOA;AM;-2,515911;-66,100944;59,34;1301605
82240;82240;;Parintins;PARINTINS;AM;-2,63;-56,73;29,00;1303403
82243;;;Santarem (Taperinha);SANTAREM;PA;-2,42;-54,33;20,00;1506807
82244;82244;;Santarém - Aeroporto;SANTARÉM;PA;-2,42;-54,78;60,00;1506807
82246;82246;;Belterra;BELTERRA;PA;-2,642196;-54,943809;164,30;1501451
82263;82263;;Cametá;CAMETÁ;PA;-2,239655;-49,499818;9,93;1502103
82276;82276;;Alcântara;ALCÂNTARA;MA;-2,32;-44,42;49,00;2100204
82277;82277;;Farol Santana;BARREIRINHAS;MA;-2,270556;-43,623889;57,00;2101707
82279;;;Sao Bento;SAO BENTO;MA;-2,68;-44,72;10,00;2110500
82280;82280;;Sao Luís;SÃO LUÍS;MA;-2,529997;-44,3;32,58;2111300
82281;82281;;Sao Luís - Aeroporto;SÃO LUÍS;MA;-2,6;-44,23;54,00;2111300
82287;82287;;Parnaíba;PARNAÍBA;PI;-3,08668;-41,783139;52,11;2207702
82288;82288;;Parnaíba - Aeroporto;PARNAÍBA;PI;-2,88;-41,72;5,00;2207702
82294;82294;;Acarau;ACARAU;CE;-2,885772;-40,114075;21,52;2300200
82296;82296;;Luzilândia (Lag. do Piaui);LUZILÂNDIA;PI;-3,469652;-42,267946;44,13;2205805
82298;82298;;Esperantina;ESPERANTINA;PI;-3,899365;-42,259483;88,00;2203701
82303;82303;;Sao Paulo de Olivenca;SAO PAULO DE OLIVENCA;AM;-3,47;-68,8;94,00;1303908
82317;82317;;Tefé;TEFÉ;AM;-3,3802778;-64,7252778;56,00;1304203
82318;82318;;Tefé;TEFÉ;AM;-2,37;-64,72;56,00;1304203
82326;82326;;Codajás;CODAJÁS;AM;-3,841165;-62,055377;30,31;1301308
82329;;;Bela Vista;MANACAPURU;AM;-3,3;-60,5;0,00;1302504
82331;82331;;Manaus;MANAUS;AM;-3,10377;-60,015465;48,86;1302603
82332;82332;;Manaus - Aeroporto;MANAUS;AM;-3,13;-59,98;81,00;1302603
82333;82333;;Eduardo Gomes;MANAUS;AM;-3,03;-60,05;85,00;1302603
82335;82335;;Itacoatiara - Aeroporto;ITACOATIARA;AM;-3,13;-58,48;43,00;1301902
82336;82336;;Itacoatiara;ITACOATIARA;AM;-3,136981;-58,442652;19,16;1301902
82353;82353;;Altamira;ALTAMIRA;PA;-3,214284;-52,213044;101,51;1500602
82354;82354;;Altamira;ALTAMIRA;PA;-3,25;-52,25;112,00;1500602
82360;82360;;Tucuruí;TUCURUÍ;PA;-3,77;-49,72;253,00;1508100
82361;82361;;Tucuruí;TUCURUÍ;PA;-3,760131;-49,666581;27,83;1508100
82376;82376;;Zé Doca;ZÉ DOCA;MA;-3,269212;-45,651007;46,71;2114007
82382;82382;;Chapadinha;CHAPADINHA;MA;-3,742684;-43,3521;104,00;2103208
82390;;;Vicosa do Ceara;VICOSA DO CEARA;CE;-3,62;-41,07;719,00;2314102
82392;82392;;Sobral;SOBRAL;CE;-3,748199;-40,345873;91,80;2312908
82396;;;Fortaleza-Ufce;FORTALEZA;CE;-3,73;-38,55;19,00;2304400
82397;82397;;Fortaleza;FORTALEZA;CE;-3,815353;-38,537797;29,89;2304400
82398;82398;;Fortaleza - Aeroporto;FORTALEZA;CE;-3,77;-38,52;25,00;2304400
82400;82400;;Fernando de Noronha;FERNANDO DE NORONHA;PE;-3,85;-32,42;56,00;2605459
82410;82410;;Benjamin Constant;BENJAMIN CONSTANT;AM;-4,378738;-70,030005;78,41;1300607
82411;82411;;Tabatinga;TABATINGA;AM;-4,25;-69,93;81,00;1304062
82418;82418;;Carauari;CARAUARI;AM;-4,95;-66,9;66,00;1301001
82425;82425;;Coari;COARI;AM;-4,08534;-63,145144;34,18;1301209
82444;82444;;Itaituba;ITAITUBA;PA;-4,24;-56;33,00;1503606
82445;82445;;Itaituba;ITAITUBA;PA;-4,276986;-55,993087;24,50;1503606
82460;82460;;Bacabal;BACABAL;MA;-4,218115;-44,775708;26,60;2101202
82474;82474;;Caldeirão;CALDEIRÃO;PI;-4,328706;-41,721691;183,51;2202091
82476;82476;;Caxias;CAXIAS;MA;-4,867346;-43,356647;96,67;2103000
82480;82480;;Piripiri;PIRIPIRI;PI;-4,276047;-41,794568;157,89;2208403
82486;;;Quixada;QUIXADA;CE;-4,97;-39,02;180,00;2311306
82487;82487;;Guaramiranga;GUARAMIRANGA;CE;-4,261362;-38,931073;865,44;2305100
82491;;;Aracati;ARACATI;CE;-4,57;-37,77;13,00;2301109
82493;82493;;Jaguaruana;JAGUARUANA;CE;-4,853511;-37,777189;16,57;2307007
82532;82532;;Manicoré;MANICORÉ;AM;-5,82;-61,28;53,00;1302702
82533;82533;;Manicoré;MANICORÉ;AM;-5,817732;-61,290736;40,10;1302702
82562;82562;;Marabá;MARABÁ;PA;-5,366106;-49,125246;101,66;1504208
82563;82563;;Marabá;MARABÁ;PA;-5,37;-49,14;109,00;1504208
82564;82564;;Imperatriz;IMPERATRIZ;MA;-5,536521;-47,478943;126,33;2105302
82565;82565;;Imperatriz - Aeroporto;IMPERATRIZ;MA;-5,52;-47,46;131,00;2105302
82567;82567;;Parauapebas (Carajás);CARAJÁS;PA;-6,12;-50;621,00;1505536
82568;82568;;Grajau;GRAJAU;MA;-5,8;-46,45;163,00;2104800
82571;82571;;Barra do Corda;BARRA DO CORDA;MA;-5,506482;-45,237186;154,17;2101608
82578;82578;;Teresina;TERESINA;PI;-5,034822;-42,80148;75,73;2211001
82579;82579;;Teresina  Aeroporto;TERESINA;PI;-5,05;-42,82;67,00;2211001
82583;82583;;Crateús;CRATEÚS;CE;-5,190647;-40,673614;299,12;2304103
82586;82586;;Quixeramobim;QUIXERAMOBIM;CE;-5,172978;-39,287347;227,33;2311405
82588;82588;;Morada Nova;MORADA NOVA;CE;-5,136694;-38,356593;45,02;2308708
82590;82590;;Apodi;APODI;RN;-5,626566;-37,815007;131,37;2401008
82591;82591;;Mossoró;MOSSORÓ;RN;-5,213412;-37,312164;37,99;2408003
82592;82592;;Mossoró;MOSSORÓ;RN;-5,18;-37,35;23,00;2408003
82594;82594;;Macau;MACAU;RN;-5,15103;-36,573131;17,34;2407203
82595;82595;;Calcanhar;TOUROS;RN;-5,161111;-35,486667;74,00;2414407
82596;82596;;Ceará-Mirim;CEARÁ-MIRIM;RN;-5,653306;-35,425705;62,20;2402600
82597;;;Macaiba;MACAIBA;RN;-5,82;-35,33;24,00;2407104
82598;82598;;Natal;NATAL;RN;-5,837315;-35,207696;47,68;2408102
82599;82599;;Natal - Aeroporto;NATAL;RN;-5,91;-35,23;52,00;2408102
82601;;;Alagamar Cirne (Macau);MACAU;RN;-5,1;-36,65;3,00;2407203
82605;;;Alto Longa (Piloto do Longa);ALTO LONGA;PI;-5,2;-42,25;150,00;2200301
82610;82610;;Eirunepé;EIRUNEPÉ;AM;-6,661781;-69,867873;123,42;1301407
82640;82640;;Jacareacanga;JACAREACANGA;PA;-6,24;-57,73;99,00;1503754
82659;82659;;Araguaina;ARAGUAINA;TO;-7,103778;-48,20133;231,85;1702109
82668;82668;;São Félix do Xingu;SÃO FÉLIX DO XINGU;PA;-6,630799;-51,976014;195,98;1507300
82669;82669;;Sao Felix do Piaui;SAO FELIX DO PIAUI;PI;-5,8;-42,17;184,00;2209609
82676;82676;;Colinas;COLINAS;MA;-6,033191;-44,233416;175,56;2103505
82678;82678;;Floriano;FLORIANO;PI;-6,761534;-43,003238;126,60;2203909
82683;82683;;Tauá;TAUÁ;CE;-6,006451;-40,299676;401,89;2313302
82684;82684;;Morro dos Cavalos;MORRO DOS CAVALOS;PI;-7,9033333;-42,0508333;219,03;2210805
82686;82686;;Iguatu;IGUATU;CE;-6,396375;-39,268965;221,58;2305506
82689;82689;;São Gonçalo;SÃO GONÇALO;PB;-6,835777;-38,311583;237,04;2516201
82690;82690;;Seridó (Caicó);CAICÓ;RN;-6,467474;-37,084931;171,26;2402006
82691;82691;;Florânia;FLORÂNIA;RN;-6,123783;-36,811966;324,53;2403806
82693;82693;;Cruzeta;CRUZETA;RN;-6,426319;-36,791377;226,33;2403004
82695;82695;;Camaratuba;CAMARATUBA;PB;-6,561813;-35,135316;135,51;2509305
82696;82696;;Areia;AREIA;PB;-6,975688;-35,718147;571,75;2501104
82697;;;Guarabira;GUARABIRA;PB;-6,85;-35,48;101,00;2506301
82698;;;Nova Cruz;NOVA CRUZ;RN;-6,42;-35,4;89,00;2408300
82704;82704;;Cruzeiro do Sul;CRUZEIRO DO SUL;AC;-7,610736;-72,681324;214,19;1200203
82705;82705;;Cruzeiro do Sul;CRUZEIRO DO SUL;AC;-7,58;-72,77;199,00;1200203
82723;82723;;Lábrea;LÁBREA;AM;-7,261388;-64,789998;62,23;1302405
82727;82727;;Humaita;HUMAITA;AM;-7,52;-63,03;50,00;1301704
82741;82741;;Alto Tapajos;JACAREACANGA;PA;-7,35;-57,52;140,00;1503754
82753;82753;;Ouricuri;OURICURI;PE;-7,879308;-40,091977;462,01;2609907
82764;82764;;Carolina;CAROLINA;MA;-7,33;-47,43;172,00;2102804
82765;82765;;Carolina;CAROLINA;MA;-7,337292;-47,459856;182,94;2102804
82768;82768;;Balsas;BALSAS;MA;-7,529423;-46,046321;263,48;2101400
82771;82771;;Urucui;URUCUI;PI;-7,23;-44,55;190,00;2211209
82777;82777;;Campos Sales;CAMPOS SALES;CE;-7,076797;-40,390053;586,06;2302701
82779;;;Umbuzeiro;UMBUZEIRO;PB;-7,7;-35,67;499,00;2517001
82780;82780;;Picos;PICOS;PI;-7,080828;-41,434919;210,07;2208007
82781;;;Nazare da Mata;NAZARE DA MATA;PE;-7,73;-35,25;87,00;2609501
82784;82784;;Barbalha;BARBALHA;CE;-7,300925;-39,271107;409,41;2301901
82785;;;Juazeiro do Norte;JUAZEIRO DO NORTE;CE;-7,2;-39,32;415,00;2307304
82789;82789;;Triunfo;TRIUNFO;PE;-7,829748;-38,122158;1089,94;2615706
82791;82791;;Patos;PATOS;PB;-7,053733;-37,27392;251,65;2510808
82792;82792;;Monteiro;MONTEIRO;PB;-7,894473;-37,124715;606,41;2509701
82795;82795;;Campina Grande;CAMPINA GRANDE;PB;-7,225558;-35,904836;546,27;2504009
82796;82796;;Campina Grande;CAMPINA GRANDE;PB;-7,27;-35,88;500,00;2504009
82797;82797;;Surubim;SURUBIM;PE;-7,839628;-35,801056;421,44;2614501
82798;82798;;João Pessoa;JOÃO PESSOA;PB;-7,095376;-34,84853;9,67;2507507
82799;;;Goiana;GOIANA-PE;PE;-7,55;-34,98;11,00;2606200
82800;82800;;João Pessoa - Aeroporto;JOÃO PESSOA;PB;-7,12;-34,95;65,00;2507507
82807;82807;;Tarauacá;TARAUACÁ;AC;-8,160343;-70,768728;172,27;1200609
82808;82808;;Tarauacá;TARAUACÁ;AC;-8,15;-70,77;188,00;1200609
82816;;;Santa Maria da Boca do Acre;PAUINI;AM;-8,72;-67,38;115,00;1303502
82824;82824;;Porto Velho - Aeroporto;PORTO VELHO;RO;-8,7;-63,9;88,00;1100205
82825;82825;;Porto Velho;PORTO VELHO;RO;-8,7931;-63,8467;86,12;1100205
82861;82861;;Conceição do Araguaia;CONCEIÇÃO DO ARAGUAIA;PA;-8,259237;-49,263816;179,02;1502707
82862;82862;;Conceição do Araguaia;CONCEIÇÃO DO ARAGUAIA;PA;-8,33;-49,3;194,00;1502707
82863;82863;;Pedro Afonso;PEDRO AFONSO;TO;-8,968576;-48,177264;189,53;1716505
82870;82870;;Vale do Gurgueia (Cristiano Castro);ALVORADA DO GURGUEIA;PI;-8,441598;-43,865443;261,26;2200459
82879;82879;;São João do Piaui;SÃO JOÃO DO PIAUI;PI;-8,364996;-42,250372;237,02;2210003
82882;82882;;Paulistana;PAULISTANA;PI;-8,132288;-41,142945;376,00;2207801
82886;82886;;Cabrobó;CABROBÓ;PE;-8,504006;-39,315291;342,78;2603009
82887;;;Floresta;FLORESTA;PE;-8,6;-38,57;309,00;2605707
82890;82890;;Arcoverde;ARCOVERDE;PE;-8,433537;-37,055365;683,91;2601201
82892;82892;;Pesqueira;PESQUEIRA;PE;-8,370701;-36,707812;643,38;2610905
82893;82893;;Garanhuns;GARANHUNS;PE;-8,91095;-36,493381;827,78;2606002
82894;82894;;Paulo Afonso - aeroporto;PAULO AFONSO (AERO);BA;-9,4;-38,25;269,00;2924009
82895;82895;;Caruaru;CARUARU;PE;-8,28;-35,97;537,00;2604106
82896;;;Gravatá;GRAVATA;PE;-8,2;-35,58;0,00;2606408
82897;;;Tapacura;MORENO;PE;-8,17;-35,18;102,00;2609402
82898;;;Olinda;OLINDA;PE;-8,02;-34,85;55,00;2609600
82899;82899;;Recife - Aeroporto;RECIFE;PE;-8,12;-34,92;10,00;2611606
82900;82900;;Recife (Curado);RECIFE;PE;-8,05928;-34,959239;11,30;2611606
82913;;;Sena Madureira;SENA MADUREIRA;AC;-9,07;-68,67;153,00;1200500
82915;82915;;Rio Branco;RIO BRANCO;AC;-9,959222;-67,868965;160,71;1200401
82917;82917;;Rio Branco - Aeroporto;RIO BRANCO;AC;-9,87;-67,9;193,00;1200401
82927;82927;;Cotriguacu;COTRIGUACU;MT;-9,92;-58,27;250,00;5103379
82930;82930;;Cachimbo - aeroporto;NOVO PROGRESSO;PA;-9,33;-54,97;537,00;1505031
82965;82965;;Alta Floresta - Aeroporto;ALTA FLORESTA;MT;-9,85;-56,1;289,00;5100250
82970;82970;;Alto Parnaiba;ALTO PARNAIBA;MA;-9,108225;-45,932008;283,67;2100501
82975;82975;;Bom Jesus do Piaui;BOM JESUS DO PIAUI;PI;-9,066208;-44,365277;330,60;2201903
82976;82976;;Caracol;CARACOL;PI;-9,28588;-43,324438;515,30;2202505
82979;82979;;Remanso;REMANSO;BA;-9,625699;-42,077217;397,39;2926004
82983;82983;;Petrolina;PETROLINA;PE;-9,388474;-40,523388;372,54;2611101
82984;82984;;Petrolina - Aeroporto;PETROLINA;PE;-9,37;-40,55;377,00;2611101
82985;;;Caraiba;CARAIBAS;BA;-9,83;-39,88;440,00;2906899
82986;82986;;Paulo Afonso;PAULO AFONSO;BA;-9,378106;-38,226771;255,04;2924009
82987;;;Petrolandia;PETROLANDIA;PE;-9,07;-38,32;286,00;2611002
82988;;;Mata Grande;MATA GRANDE;AL;-9,12;-37,73;635,00;2705002
82989;82989;;Água Branca;ÁGUA BRANCA;AL;-9,264684;-37,937946;603,42;2700102
82990;82990;;Pao de Açucar;PÃO DE AÇUCAR;AL;-9,749239;-37,430762;20,86;2706406
82991;;;Major Isidoro;MAJOR ISIDORO;AL;-9,55;-37,02;200,00;2704401
82992;82992;;Palmeira dos Índios;PALMEIRA DOS ÍNDIOS;AL;-9,420345;-36,620368;277,98;2706307
82993;82993;;Maceio - Aeroporto;MACEIÓ;AL;-9,52;-35,78;118,00;2704302
82994;82994;;Maceió;MACEIÓ;AL;-9,551168;-35,770195;84,12;2704302
82995;;;Arapiraca;ARAPIRACA;AL;-9,73;-36,77;247,00;2700300
82996;82996;;Porto de Pedras;PORTO DE PEDRAS;AL;-9,162012;-35,299881;42,21;2707404
82997;;;Anadia Limoeiro;ANADIA;AL;-9,63;-36,33;135,00;2700201
82998;;;Pilar (Manguaba);PILAR;AL;-9,58;-35,95;131,00;2706901
83004;83004;;Sao Paulo (Iag);SAO PAULO;SP;-23,65;-46,62;800,00;3550308
83007;83007;;Alto da Boa Vista;RIO DE JANEIRO;RJ;-22,965972;-43,279528;353,81;3304557
83010;83010;;Brasileia;BRASILEIA;AC;-11,02;-68,73;260,00;1200104
83011;83011;;Bacacheri Aeroporto;CURITIBA;PR;-25,4;-49,23;932,00;4106902
83013;83013;;Muniz Freire;MUNIZ FREIRE;ES;-20,465979;-41,412257;577,56;3203700
83015;83015;;Maria da Fé;MARIA DA FÉ;MG;-22,314576;-45,373045;1281,36;3139904
83016;83016;;Guajará-Mirim;GUAJARÁ-MIRIM;RO;-10,78;-65,27;146,00;1100106
83017;;;Itatiaia (Funil);ITATIAIA;RJ;-22,53;-44,57;545,00;3302254
83023;;;Lavras-Esal.;LAVRAS;MG;-21,23;-45;842,00;3138203
83025;;;Sao Mateus do Sul;SAO MATEUS DO SUL;PR;-25,87;-50,38;808,00;4125605
83027;;;Cataguases;CATAGUASES;MG;-21,38;-42,68;167,00;3115300
83031;;;Faz. Modelo de Guaratiba;RIO DE JANEIRO;RJ;-22,98;-43,53;15,00;3304557
83032;83032;;Lambari;LAMBARI;MG;-21,944146;-45,317739;884,56;3137809
83033;83033;;Palmas;PALMAS;TO;-10,190897;-48,301822;291,68;1721000
83034;83034;;Itarana;ITARANA;ES;-19,87423;-40,872959;232,75;3202900
83035;;;Vila Deodoro;GUARULHOS;SP;-23,58;-46,6;789,00;3518800
83036;83036;;Sao Joao de Petropolis;SANTA TERESA;ES;-19,81;-40,67;174,00;3204609
83037;83037;;Coronel Pacheco;CORONEL PACHECO;MG;-21,546686;-43,261045;411,03;3119609
83038;;;Aracruz;ARACRUZ;ES;-19,82;-40,25;65,00;3200607
83039;;;Instituto Agronomico;NOVA UNIAO;MG;-19,9;-43,92;836,00;3136603
83040;;;Jacutinga;JACUTINGA;MG;-22,2;-46,62;853,00;3134905
83041;;;Loanda;LOANDA;PR;-22,95;-53,12;640,00;4113502
83043;83043;;Alfredo Chaves;ALFREDO CHAVES;ES;-20,636524;-40,741817;14,20;3200300
83045;83045;;Venda Nova;VENDA NOVA;ES;-20,38532;-41,189474;720,46;3205069
83046;;;Sao Bento do Sul;SAO BENTO DO SUL;SC;-26,4;-49,38;861,00;4215802
83048;83048;;Rio Bonito;RIO BONITO;RJ;-22,712676;-42,646782;52,92;3304300
83049;83049;;Avelar (P. do Alferes);PATY DO ALFERES;RJ;-22,347429;-43,417749;513,25;3303856
83052;83052;;Santa Monica (Valença);VALENÇA;RJ;-22,361064;-43,698029;368,17;3306107
83054;83054;;Jacarepagua - Aeroporto;RIO DE JANEIRO;RJ;-22,99;-43,37;3,00;3304557
83055;83055;;Pico do Couto;PETRÓPOLIS;RJ;-22,47;-43,3;1,77;3303906
83057;;;Macae-Pesagro;MACAE;RJ;-22,38;-41,77;0,00;3302403
83058;83058;;Sao Roque;SÃO PAULO;SP;-23,6;-47,1;1140,00;3550308
83060;;;Paraguacu Paulista;PARAGUACU PAULISTA;SP;-22,4;-50,57;505,00;3535507
83061;83061;;Ponte Alta;PONTE ALTA;MG;-19,836926;-42,648655;450,00;3121803
83062;;;Palotina;PALOTINA;PR;-24,3;-53,92;310,00;4117909
83063;83063;;Porto Nacional;PORTO NACIONAL;TO;-10,72;-48,4;265,00;1718204
83064;83064;;Porto Nacional;PORTO NACIONAL;TO;-10,710716;-48,406362;243,28;1718204
83065;83065;;Palmas - Aeroporto;PALMAS;TO;-10,28;-48,35;240,00;4117602
83071;;;Sao Domingos;SAO DOMINGOS;SC;-26,55;-52,57;600,00;4216107
83072;;;Santa Barbara;SANTA BARBARA;MG;-20,15;-43,4;721,00;3157203
83074;;;Suzano;SUZANO;SP;-23,53;-46,25;769,00;3552502
83075;83075;;Guarulhos;GUARULHOS;SP;-23,470981;-46,533559;746,51;3518800
83076;83076;;Santa Rita de Cassia (Ibipetuba);SANTA RITA DE CASSIA;BA;-11,002765;-44,52496;450,01;2928406
83077;;;Campo Tenente;CAMPO DO TENENTE;PR;-25,98;-49,68;0,00;4104105
83080;;;Colombo;COLOMBO;PR;-25,33;-49,23;915,00;4105805
83081;;;Mairipora;MAIRIPORA;SP;-23,38;-46,63;800,00;3528502
83083;;;Serra Azul;SERRA AZUL DE MINAS;MG;-20,02;-44,35;765,00;3166501
83084;;;Puc-Sp;SAO PAULO;SP;-23,53;-46,63;742,00;3550308
83086;;;Santa Helena;SANTA HELENA;PR;-24,88;-54,38;240,00;4123501
83087;83087;;Gra. Juriti (Petrópolis);PETRÓPOLIS;RJ;-22,2865;-43,045917;1012,16;3303906
83088;83088;;Senhor do Bonfim;SENHOR DO BONFIM;BA;-10,443072;-40,148244;532,09;2930105
83089;83089;;Maricá;MARICÁ;RJ;-22,920653;-42,83;4,18;3302700
83090;83090;;Monte Santo;MONTE SANTO;BA;-10,442492;-39,330773;465,84;2921500
83095;83095;;Aracaju - Aeroporto;ARACAJU;SE;-10,986363;-37,0733333;8,00;2800308
83096;83096;;Aracaju;ARACAJU;SE;-10,952384;-37,054358;3,68;2800308
83097;83097;;Propriá;PROPRIÁ;SE;-10,21376;-36,842198;18,46;2805703
83098;;;Coruripe;CORURIPE;AL;-10,15;-36,17;56,00;2702306
83103;83103;;Campos dos Goitacazes;CAMPOS DOS GOITACAZES;RJ;-21,7;-41,3;17,00;3301009
83111;;;Volta Redonda;VOLTA REDONDA;RJ;-22,52;-44,1;375,00;3306305
83112;83112;;Juiz de Fora;JUIZ DE FORA;MG;-21,79;-43,39;911,00;3136702
83114;83114;;Iguaba Grande;IGUABA GRANDE;RJ;-22,847008;-42,18567;10,36;3301876
83115;83115;;Santa Cruz - Aeroporto;SANTA CRUZ;RJ;-22,93;-43,72;3,00;2612455
83117;83117;;Ilha Rasa;ILHA RASA;RJ;-23,063889;-43,146111;101,00;
83118;83118;;Barbacena - Aeroporto;BARBACENA;MG;-21,27;-43,75;1126,00;3105608
83160;;;Gurupi;GURUPI;TO;-11,75;-49,08;400,00;1709500
83179;83179;;Barra;BARRA;BA;-11,084858;-43,138998;407,50;2902708
83182;83182;;Irecê;IRECÊ;BA;-11,311252;-41,858654;747,22;2914604
83184;83184;;Morro do Chapéu;MORRO DO CHAPÉU;BA;-11,547494;-41,151165;1001,66;2921708
83186;83186;;Jacobina;JACOBINA;BA;-11,172839;-40,534285;486,37;2917508
83190;83190;;Serrinha;SERRINHA;BA;-11,668056;-39,001944;362,39;2930501
83192;83192;;Cipó;CIPÓ;BA;-11,101477;-38,524157;143,53;2907905
83194;;;Rio Real;RIO REAL;BA;-11,48;-37,93;163,00;2927002
83195;83195;;Itabaianinha;ITABAIANINHA;SE;-11,272334;-37,794973;205,59;2803005
83204;;;Fazenda Ipanema;ITU;SP;-23,42;-47,58;584,00;3523909
83208;83208;;Vilhena - Aeroporto;VILHENA;RO;-12,6941667;-60,1138889;615,00;1100304
83214;83214;;Matupá;MATUPÁ;MT;-10,25;-54,92;285,00;5105606
83218;;;Rio Ferro;FELIZ NATAL;MT;-12,58;-54,75;480,00;5103700
83221;83221;;Feira de Santana;FEIRA DE SANTANA;BA;-12,196156;-38,96735;229,52;2910800
83222;83222;;Cruz das Almas;CRUZ DAS ALMAS;BA;-12,675404;-39,089585;219,69;2909802
83223;;;Sao Francisco do Conde;SAO FRANCISCO DO CONDE;BA;-12,62;-38,67;80,00;2929206
83225;;;Mata de Sao Joao;MATA DE SAO JOAO;BA;-12,53;-38,3;28,00;2921005
83226;83226;;Camaçari;CAMAÇARI;BA;-12,691233;-38,337536;41,17;2905701
83227;;;Itaparica;ITAPARICA;BA;-12,88;-38,68;31,00;2916104
83228;83228;;Peixe;PEIXE;TO;-12,015387;-48,544866;252,24;1716604
83229;83229;;Salvador (Ondina);SALVADOR;BA;-13,005768;-38,505825;47,35;2927408
83230;;;Pitangueiras (Sv-Ba);SALVADOR;BA;-12,97;-38,5;66,00;2927408
83231;83231;;Parana;PARANA-TO;TO;-12,55;-47,83;275,00;1716208
83235;83235;;Taguatinga;TAGUATINGA;TO;-12,402356;-46,438414;604,88;1720903
83236;83236;;Barreiras;BARREIRAS;BA;-12,155843;-45,008269;447,51;2903201
83238;;;Paratinga;PARATINGA;BA;-12,68;-43,2;422,00;2923704
83242;83242;;Lençóis;LENÇÓIS;BA;-12,557854;-41,388808;438,09;2919306
83244;83244;;Itaberaba;ITABERABA;BA;-12,524062;-40,299714;250,11;2914703
83247;;;Sao Gonçalo dos Campos;SAO GONCALO DOS CAMPOS;BA;-12,43;-38,97;235,00;2929305
83248;83248;;Salvador - Aeroporto;SALVADOR;BA;-12,909636;-38,332928;19,00;2927408
83249;83249;;Alagoinhas;ALAGOINHAS;BA;-12,148523;-38,425267;129,78;2900702
83257;;;Porangatu;PORANGATU;GO;-13,45;-49,17;720,00;5218003
83262;;;Utiariti;BRASNORTE;MT;-13,03;-58,28;385,00;5101902
83264;83264;;Gleba Celeste;VERA;MT;-12,288562;-55,294071;384,00;5108501
83265;;;Croslândia;PRIMAVERA DO LESTE;MT;-13,22;-56,27;0,00;5107040
83267;83267;;São José do Rio Claro;SÃO JOSÉ DO RIO CLARO;MT;-13,453982;-56,677323;339,59;5107305
83270;83270;;Canarana;CANARANA;MT;-13,5;-52,5;430,00;5102702
83271;;;Nova Odessa;NOVA ODESSA;SP;-22,7;-47,3;550,00;3533403
83276;;;Juina;JUINA;MT;-11,42;-58,73;200,00;5105150
83286;83286;;Correntina;CORRENTINA;BA;-13,332407;-44,617374;551,69;2909307
83288;83288;;Bom Jesus da Lapa;BOM JESUS DA LAPA;BA;-13,251097;-43,405365;447,75;2903904
83289;83289;;Bom Jesus da Lapa - Aeroporto;BOM JESUS DA LAPA;BA;-13,27;-43,4;443,00;2903904
83292;83292;;Ituaçu;ITUAÇU;BA;-13,812876;-41,299852;534,44;2917201
83295;83295;;Itiruçu (Jaguaquara);ITIRUÇU;BA;-13,527828;-40,119752;757,53;2916906
83297;;;Santo Antonio de Jesus;SANTO ANTONIO DE JESUS;BA;-12,97;-39,27;200,00;2928703
83302;83302;;Alcomat;CAMPOS DE JULIO;MT;-14,25;-59,25;690,00;5102686
83309;83309;;Diamantino;DIAMANTINO;MT;-14,406214;-56,446956;274,02;5103502
83310;;;Rosario do Oeste;ROSARIO OESTE;MT;-14,82;-56,43;136,00;5107701
83319;83319;;Nova Xavantina (Xavantina);NOVA XAVANTINA;MT;-14,697917;-52,350226;305,33;5106257
83332;83332;;Posse;POSSE;GO;-14,08907;-46,36653;830,35;5218300
83334;83334;;Formoso;FORMOSO;MG;-14,949727;-46,235795;854,60;3126208
83337;;;Manga;MANGA;MG;-14,73;-43,97;415,00;3139300
83338;83338;;Espinosa;ESPINOSA;MG;-14,91223;-42,808587;565,52;3124302
83339;83339;;Caetité;CAETITÉ;BA;-14,072843;-42,487337;876,29;2905206
83340;;;Montalvania;MONTALVANIA;MG;-14,37;-44,45;560,00;3142700
83344;83344;;Vitória da Conquista;VITÓRIA DA CONQUISTA;BA;-14,886438;-40,801325;879,47;2933307
83345;83345;;Vitória da Conquista;VITÓRIA DA CONQUISTA;BA;-14,85;-40,85;915,00;2933307
83347;;;Itabuna;ITABUNA;BA;-14,8;-39,3;0,00;2914802
83348;83348;;Ilheus;ILHEUS;BA;-14,8;-39,07;60,00;2913606
83349;83349;;Ilheus - Aeroporto;ILHÉUS;BA;-14,8;-39,03;4,00;2913606
83350;83350;;Goianesia;GOIANESIA;GO;-15,215101;-48,985332;657,79;5208608
83352;;;Mato Grosso (Vila Bela);VILA BELA DA SANTISSIMA TRINDADE;MT;-15,03;-60,05;270,00;5105507
83358;83358;;Poxoréo;POXORÉO;MT;-15,827476;-54,3956;374,35;5107008
83359;83359;;Barra do Garcas;BARRA DO GARÇAS;MT;-15,85;-52,38;350,00;5101803
83360;;;Coxipo da Ponte;CUIABA;MT;-15,6;-56,1;223,00;5103403
83361;83361;;Cuiabá;CUIABÁ;MT;-15,620044;-56,108796;157,70;5103403
83362;83362;;Cuiabá - Aeroporto;CUIABÁ;MT;-15,65;-56,12;187,00;5103403
83363;83363;;São Vicente;SANTO ANTONIO DO LEVERGER;MT;-15,823061;-55,418954;786,99;5107800
83364;83364;;Padre Ricardo Remetter;SANTO ANTONIO DO LEVERGER;MT;-15,776;-56,072;140,00;5107800
83365;83365;;Sangradouro;POXOREO;MT;-15,63;-53,83;555,00;5107008
83367;;;Meruri;GENERAL CARNEIRO;MT;-15,53;-53,08;418,00;5103908
83368;83368;;Aragarças;ARAGARÇAS;GO;-15,902513;-52,245378;327,03;5201702
83369;83369;;Aragarcas;ARAGARÇAS;GO;-15,9;-52,23;0,00;5201702
83372;;;Fazenda Sucupira;BRASILIA;DF;-15,87;-47,95;1,11;5300108
83373;83373;;Roncador;BRASILIA;DF;-15,946272;-47,884259;1104,94;5300108
83374;83374;;Goiás;GOIÁS;GO;-15,939718;-50,141913;508,68;5208905
83375;83375;;Gama;BRASÍLIA;DF;-15,97;-48,05;1260,00;5300108
83376;83376;;Pirenópolis;PIRENÓPOLIS;GO;-15,854721;-48,965994;766,92;5217302
83377;83377;;Brasília;BRASÍLIA;DF;-15,78978;-47,925849;1161,42;5300108
83378;83378;;Brasília - Aeroporto;BRASÍLIA;DF;-15,872928;-47,924084;1061,00;5300108
83379;83379;;Formosa;FORMOSA;GO;-15,54917;-47,338874;938,68;5208004
83380;;;Brasilia - Novacap;BRASILIA;DF;-15,78;-47,93;1,15;5300108
83383;83383;;Buritis;BURITIS;MG;-15,628447;-46,422556;600,00;3109303
83384;83384;;Arinos;ARINOS;MG;-15,915229;-46,10712;523,00;3104502
83385;;;Sao Francisco;SAO FRANCISCO;MG;-15,95;-44,87;446,00;3161106
83386;83386;;Januária;JANUÁRIA;MG;-15,448054;-44,366321;480,00;3135209
83387;;;Porteirinha;PORTEIRINHA;MG;-15,75;-43,03;755,00;3152204
83388;83388;;Monte Azul;MONTE AZUL;MG;-15,160374;-42,866344;623,22;3142908
83389;83389;;Mocambinho;MATIAS CARDOSO;MG;-15,086015;-44,016223;453,62;3140852
83390;;;Itacarambi;ITACARAMBI;MG;-15,1;-44,1;455,00;3132107
83393;83393;;Pedra Azul;PEDRA AZUL;MG;-16,00956;-41,281027;647,97;3148707
83394;;;Serra Das Araras;JANUARIA;MG;-15,25;-45,27;590,00;3135209
83395;83395;;Janaúba;JANAÚBA;MG;-15,802909;-43,297092;534,61;3135100
83398;83398;;Canavieiras;CANAVIEIRAS;BA;-15,673259;-38,961051;4,71;2906303
83401;;;Januaria/Metalur (Ag);JANUARIA;MG;-15,5;-45,17;600,00;3135209
83405;83405;;Caceres;CACERES;MT;-16,049639;-57,680826;118,00;5102504
83408;83408;;Carinhanha;CARINHANHA;BA;-14,297404;-43,771401;455,25;2907103
83409;;;Guiratinga;GUIRATINGA;MT;-16,35;-53,93;750,00;5104203
83410;83410;;Rondonopolis;RONDONOPOLIS;MT;-16,462416;-54,580143;289,88;5107602
83411;83411;;Tabatinga - Aeroporto;TABATINGA;AM;-4,25;-69,93;85,00;1304062
83412;;;Alto Araguaia;ALTO ARAGUAIA;MT;-17,32;-53,2;710,00;5100300
83419;83419;;Anápolis - Aeroporto;ANÁPOLIS;GO;-16,24;-48,97;1137,00;5201108
83422;;;Faz. Capivara (Goianira);SANTO ANTONIO DE GOIAS;GO;-16,47;-49,28;823,00;5219738
83423;83423;;Goiânia;GOIÂNIA;GO;-16,673041;-49,263941;748,53;5208707
83424;83424;;Goiânia - Aeroporto;GOIÂNIA;GO;-16,62;-49,22;746,00;5208707
83427;;;Luziania;LUZIANIA;GO;-16,27;-47,93;958,00;5212501
83428;83428;;Unaí;UNAÍ;MG;-16,366268;-46,889321;595,59;3170404
83432;;;Bonfinopolis;BONFINOPOLIS DE MINAS;MG;-16,57;-45,93;740,00;3108206
83435;;;Sao Romao;SAO ROMAO;MG;-16,37;-45,07;460,00;3164209
83436;83436;;Montes Claros;MONTES CLAROS;MG;-16,71;-43,82;668,00;3143302
83437;83437;;Montes Claros;MONTES CLAROS;MG;-16,686333;-43,843759;645,87;3143302
83438;;;Eng. Dolabela (Bocaiuva);BOCAIUVA;MG;-17,1;-43,8;633,00;3107307
83439;;;Grao Mogol;GRAO MOGOL;MG;-16,58;-42,9;819,00;3127800
83440;;;Minas Novas;MINAS NOVAS;MG;-17,23;-42,58;920,00;3141801
83441;83441;;Salinas;SALINAS;MG;-16,154862;-42,284921;476,07;3157005
83442;83442;;Araçuaí;ARAÇUAÍ;MG;-16,8489;-42,060911;317,67;3103405
83444;;;Jequitinhonha;JEQUITINHONHA;MG;-16,43;-41,02;254,00;3135803
83446;83446;;Guaratinga;GUARATINGA;BA;-16,58081;-39,783182;197,88;2911808
83452;83452;;Juramento;JURAMENTO;MG;-16,775057;-43,667085;655,59;3136801
83460;83460;;Porto Seguro;PORTO SEGURO;BA;-16,44;-39,07;51,00;2925303
83464;83464;;Jataí;JATAÍ;GO;-17,923633;-51,717507;669,84;5211909
83467;83467;;Mineiros;MINEIROS;GO;-17,57;-52,55;800,00;5213103
83470;83470;;Rio Verde;RIO VERDE;GO;-17,785359;-50,964759;780,04;5218805
83473;83473;;Morrinhos;MORRINHOS;GO;-17,72;-49,1;771,00;5213806
83479;83479;;Paracatu;PARACATU;MG;-17,244153;-46,881721;711,41;3147006
83481;83481;;João Pinheiro;JOÃO PINHEIRO;MG;-17,740149;-46,17699;759,62;3136306
83482;;;Araguari;ARAGUARI;MG;-18,63;-48,18;938,00;3103504
83483;83483;;Pirapora;PIRAPORA;MG;-17,349037;-44,921762;509,52;3151206
83485;83485;;Carbonita;CARBONITA;MG;-17,533008;-43,012091;765,37;3113503
83488;83488;;Itamarandiba;ITAMARANDIBA;MG;-17,859776;-42,852647;919,37;3132503
83490;;;Itambacuri;ITAMBACURI;MG;-18,02;-41,02;285,00;3132701
83492;83492;;Teófilo Otoni;TEÓFILO OTONI;MG;-17,860222;-41,507553;349,11;3168606
83495;;;Mucurici;MUCURICI;ES;-18,12;-40,5;290,00;3203601
83497;83497;;Caravelas - Aeroporto;CARAVELAS;BA;-17,65;-39,25;11,00;2906907
83498;83498;;Caravelas;CARAVELAS;BA;-17,739413;-39,258617;6,05;2906907
83499;83499;;Abrolhos;ILHA DE SANTA BÁRBARA;BA;-17,964722;-38,693889;60,00;
83500;83500;;Serra dos Aimores;AIMORÉS;MG;-17,798812;-40,249925;211,92;3166709
83501;;;Nanuque-Alcana;NANUQUE;MG;-17,93;-40,28;92,00;3144300
83512;83512;;Coxim;COXIM;MS;-18,5;-54,77;287,00;5003306
83513;83513;;Nhumirim (Nhecolandia);CORUMBA;MS;-18,988672;-56,622822;102,27;5003207
83514;83514;;Capinópolis;CAPINÓPOLIS;MG;-18,726183;-49,562279;608,98;3112604
83521;83521;;Ituiutaba;ITUIUTABA;MG;-18,952916;-49,525072;540,09;3134202
83522;83522;;Ipameri;IPAMERI;GO;-17,724527;-48,171916;778,14;5210109
83523;83523;;Itumbiara;ITUMBIARA;GO;-18,409777;-49,191905;491,55;5211503
83524;;;Monte Alegre de Minas;MONTE ALEGRE DE MINAS;MG;-18,87;-48,87;756,00;3142809
83525;83525;;Uberlândia;UBERLÂNDIA;MG;-18,88;-48,22;943,00;3170206
83526;83526;;Catalão;CATALÃO;GO;-18,170197;-47,958066;857,98;5205109
83527;83527;;Uberlandia;UBERLÂNDIA;MG;-18,917052;-48,255676;874,60;3170206
83531;83531;;Patos de Minas;PATOS DE MINAS;MG;-18,519644;-46,439205;947,68;3148004
83533;83533;;Bom Despacho;BOM DESPACHO;MG;-19,719515;-45,367565;659,46;3107406
83536;83536;;Curvelo;CURVELO;MG;-18,747435;-44,454654;668,26;3120904
83538;83538;;Diamantina;DIAMANTINA;MG;-18,2387;-43,617059;1318,05;3121605
83539;;;Patrocinio;PATROCINIO;MG;-18,95;-47;933,00;3148103
83541;;;Sao Joao Evangelista;SAO JOAO EVANGELISTA;MG;-18,42;-42,78;662,00;3162807
83542;;;Guanhaes;GUANHAES;MG;-18,77;-42,93;816,00;3128006
83543;83543;;Governador Valadares;GOVERNADOR VALADARES;MG;-18,842608;-41,90357;156,54;3127701
83546;83546;;Ecoporanga;ECOPORANGA;ES;-18,365694;-40,840656;253,95;3202108
83547;;;Nova Venecia;NOVA VENECIA;ES;-18,68;-40,42;180,00;3203908
83548;;;Conceicao da Barra;CONCEICAO DA BARRA;ES;-18,6;-39,73;5,00;3201605
83549;;;Mucurí;MUCURI;BA;-18,12;-39,47;5,00;2922003
83550;83550;;São Mateus;SÃO MATEUS;ES;-18,713936;-39,848764;39,37;3204906
83552;83552;;Corumba;CORUMBA;MS;-19,00461;-57,672338;131,07;5003207
83554;83554;;Corumbá - Aeroporto;CORUMBÁ;MS;-19;-57,67;141,00;5003207
83555;;;Sao Gabriel da Palha;SAO GABRIEL DA PALHA;ES;-19,02;-40,57;120,00;3204708
83557;83557;;Boa Esperança;BOA ESPERANÇA;ES;-18,537145;-40,272283;128,95;3201001
83559;;;Sao Gabriel do Oeste;SAO GABRIEL DO OESTE;MS;-19,42;-54,58;614,00;5007695
83565;83565;;Paranaíba;PARANAÍBA;MS;-19,663702;-51,191465;429,62;5006309
83566;83566;;Confins - Aeroporto;CONFINS;MG;-19,62;-43,97;828,00;3117876
83570;83570;;Pompeu;POMPEU;MG;-19,228937;-45,001336;692,21;3152006
83571;83571;;Carlos Prates - Aeroporto;BELO HORIZONTE;MG;-19,9;-43,98;927,00;3106200
83574;83574;;Frutal;FRUTAL;MG;-20,034803;-48,930435;547,09;3127107
83576;83576;;Uberaba - Aeroporto;UBERABA;MG;-19,75;-47,97;807,00;3170107
83577;83577;;Uberaba;UBERABA;MG;-19,737087;-47,949807;753,41;3170107
83578;;;Mateus Leme;MATEUS LEME;MG;-20,02;-44,35;768,00;3140704
83579;83579;;Araxá;ARAXÁ;MG;-19,60569;-46,94973;1018,28;3104007
83580;;;Belo Horizonte - Lourdes;BELO HORIZONTE;MG;-19,93;-43,93;915,00;3106200
83581;83581;;Florestal;FLORESTAL;MG;-19,885422;-44,416889;753,51;3126000
83582;83582;;Bambuí;BAMBUÍ;MG;-20,031028;-46,008841;684,43;3105103
83583;83583;;Belo Horizonte- Aeroporto;BELO HORIZONTE;MG;-19,85;-43,95;789,00;3106200
83584;;;Serra da Piedade;CAETE;MG;-19,9;-43,67;0,00;3110004
83585;;;Pitangui;PITANGUI;MG;-19,68;-44,77;704,00;3151404
83586;83586;;Sete Lagoas;SETE LAGOAS;MG;-19,48454;-44,173798;753,68;3167202
83587;83587;;Belo Horizonte;BELO HORIZONTE;MG;-19,934382;-43,952292;915,47;3106200
83588;83588;;Lagoa Santa;LAGOA SANTA;MG;-19,65;-43,9;852,00;5212253
83589;83589;;Conceição do Mato Dentro;CONCEIÇÃO DO MATO DENTRO;MG;-19,020355;-43,433948;663,02;3117504
83590;;;Itabira;ITABIRA;MG;-19,62;-43,22;845,00;3131703
83591;83591;;João Monlevade;JOÃO MONLEVADE;MG;-19,823899;-43,14411;860,20;3136207
83592;83592;;Caratinga;CARATINGA;MG;-19,735765;-42,137222;609,56;3113404
83593;;;Acesita;BELO ORIENTE;MG;-19,52;-42,62;263,00;3106309
83594;83594;;Usiminas;USIMINAS;MG;-19,498382;-42,541609;298,00;3131307
83595;83595;;Aimores;AIMORES;MG;-19,494872;-41,077647;79,93;3101102
83596;83596;;Marilândia (Colatina);MARILÂNDIA;ES;-19,407166;-40,539809;93,37;3203353
83597;83597;;Linhares;LINHARES;ES;-19,416256;-40,073235;18,00;3203205
83599;83599;;Moela (Ilha);GUARUJÁ;SP;-24,047778;-46,263333;110,00;3518701
83602;;;Contagem;CONTAGEM;MG;-19,9;-44,1;961,00;3118601
83605;;;Mina Aguas Claras;NOVA UNIAO;MG;-19,93;-43,93;1,06;3136603
83608;;;Aquidauana;AQUIDAUANA;MS;-20,47;-55,8;207,00;5001102
83609;83609;;Santa Fe do Sul;SANTA FE DO SUL;SP;-20,201081;-50,920372;413,88;3546603
83611;83611;;Campo Grande;CAMPO GRANDE;MS;-20,447252;-54,722641;528,43;5002704
83612;83612;;Campo Grande - Aeroporto;CAMPO GRANDE;MS;-20,47;-54,67;559,00;5002704
83613;;;Coronel Fabriciano;CORONEL FABRICIANO;MG;-19,5;-42,63;210,00;3119401
83615;;;Agua Clara;AGUA CLARA;MS;-22,45;-52,97;316,00;5000203
83616;83616;;Presidente Prudente;PRESIDENTE PRUDENTE;SP;-22,1;-51,25;450,00;3541406
83617;83617;;Urubupungá;CASTILHO;SP;-20,77;-51,55;356,00;3511003
83618;83618;;Tres Lagoas;TRES LAGOAS;MS;-20,794867;-51,713519;323,75;5008305
83620;;;Pereira Barreto;PEREIRA BARRETO;SP;-20,63;-51,1;400,00;3537404
83621;;;Andradina;ANDRADINA;SP;-20,92;-51,38;379,00;3502101
83623;83623;;Votuporanga;VOTUPORANGA;SP;-20,439704;-49,983642;510,41;3557105
83625;;;Barretos;BARRETOS;SP;-20,55;-48,57;541,00;3505500
83626;;;Colina;COLINA;SP;-20,72;-48,55;588,00;3512001
83627;;;Bebedouro;BEBEDOURO;SP;-20,95;-48,48;550,00;3506102
83629;83629;;Usina Junqueira;RIFAINA;SP;-19,992565;-47,76581;507,41;3543600
83630;83630;;Franca;FRANCA;SP;-20,584314;-47,382427;1003,55;3516200
83631;83631;;Sao Jose do Paraiso;SAO SEBASTIAO DO PARAISO;MG;-20,909923;-47,114243;820,00;3164704
83632;83632;;Ibirité;IBIRITÉ;MG;-20,016563;-44,084716;822,08;3129806
83635;83635;;Divinópolis;DIVINÓPOLIS;MG;-20,173283;-44,874742;787,42;3122306
83636;;;Bonsucesso;RITAPOLIS;MG;-21,03;-44,78;940,00;3156106
83637;83637;;Oliveira;OLIVEIRA;MG;-20,699773;-44,819903;991,23;3145604
83638;;;Ouro Branco;OURO BRANCO;MG;-20,5;-43,7;1,07;3145901
83639;83639;;Caparaó;CAPARAÓ;MG;-20,526119;-41,90913;836,25;3112109
83640;;;Cachoeira do Campo;MARIANA;MG;-20,35;-43,67;1,10;3140001
83641;;;Ouro Preto;OURO PRETO;MG;-20,38;-43,5;1,14;3146107
83642;83642;;Viçosa;VIÇOSA;MG;-20,762613;-42,864023;697,53;3171303
83643;;;Ponte Nova;PONTE NOVA;MG;-20,38;-42,87;402,00;3152105
83644;83644;;Poços de Caldas - Aeroporto;POÇOS DE CALDAS;MG;-21,83;-46,55;1,26;3151800
83645;;;Alegre;ALEGRE;ES;-20,76;-41,49;150,00;3200201
83646;83646;;Cachoeiro do Itapemirim;CACHOEIRO DE ITAPEMIRIM;ES;-20,85;-41,1;77,00;3201209
83647;83647;;Santa Teresa;SANTA TERESA;ES;-19,936468;-40,592526;644,50;3204609
83648;83648;;Vitória;VITÓRIA;ES;-20,315924;-40,317254;18,06;3205309
83649;83649;;Vitoria - Aeroporto;VITÓRIA;ES;-20,25;-40,28;3,00;3205309
83650;83650;;Trindade  (Ilha);TRINDADE (ILHA);RJ;-20,505556;-29,308611;5,00;
83651;;;Sorocaba;SOROCABA;SP;-23,48;-47,45;583,00;3552205
83652;83652;;Ribeirão Preto - Aeroporto;RIBEIRÃO PRETO;SP;-21,13;-47,77;549,00;3543402
83653;;;Manhuacu;MANHUACU;MG;-20,27;-42,05;611,00;3139409
83654;83654;;Porto Murtinho;PORTO MURTINHO;MS;-21,72;-57,88;96,00;5006903
83657;;;Fazenda Monte Alegre;MONTE ALEGRE DE MINAS;MG;-21,32;-46,37;823,00;3142809
83659;83659;;Dourados;DOURADOS;MS;-22,23;-54,98;452,00;5003702
83660;83660;;Marambaia;RIO DE JANEIRO;RJ;-23,05;-43,6;16,00;3304557
83661;;;Cornelio Procopio;CORNELIO PROCOPIO;PR;-23,15;-50,6;656,00;4106407
83663;83663;;Ponta da Armacao;;RJ;-22,88;-43,03;2,00;
83664;;;Pindorama;PINDORAMA;SP;-21,17;-48,9;562,00;3538105
83665;;;Santa Sofia;MONTE ALTO;SP;-21,43;-48,82;759,00;3531308
83666;;;Tamoio;MOTUCA;SP;-21,78;-48,17;780,00;3532058
83667;;;Sertaozinho;SERTAOZINHO;SP;-21,13;-47,98;548,00;3551702
83668;83668;;Ribeirao Preto;RIBEIRAO PRETO;SP;-21,18;-47,72;621,00;3543402
83669;83669;;São Simão;SÃO SIMÃO;SP;-21,461019;-47,579512;620,02;3550902
83670;;;Santa Rita;SANTA RITA DO PASSA QUATRO;SP;-21,67;-47,5;715,00;3547502
83671;83671;;Pirassununga - Aeroporto;PIRASSUNUNGA;SP;-21,98;-47,34;598,00;3539301
83672;83672;;Aracatuba;ARACATUBA;SP;-21,2;-50,43;397,00;3502804
83674;83674;;Lins;LINS;SP;-21,669223;-49,732678;469,08;3527108
83676;83676;;Catanduva;CATANDUVA;SP;-21,122377;-48,947513;570,34;3511102
83678;;;Jaboticabal;JABOTICABAL;SP;-21,25;-48,3;595,00;3524303
83679;;;Ribeirao Preto;RIBEIRAO PRETO;SP;-21,18;-47,8;529,00;3543402
83680;;;Mococa;MOCOCA;SP;-21,47;-47;665,00;3530508
83681;83681;;Caldas (P. de Caldas);POCOS DE CALDAS;MG;-21,918139;-46,382977;1077,08;3151800
83682;;;Muzambinho;MUZAMBINHO;MG;-21,37;-46,53;1,03;3144102
83683;83683;;Machado;MACHADO;MG;-21,681466;-45,940819;892,44;3139003
83684;;;Tres Coracoes;TRES CORACOES;MG;-21,7;-45,25;893,00;3169307
83685;;;Cambuquira;CAMBUQUIRA;MG;-21,85;-45,3;950,00;3110707
83686;83686;;Caxambu;CAXAMBU;MG;-21,989629;-44,938583;958,00;3115508
83687;83687;;Lavras;LAVRAS;MG;-21,22613;-44,979666;916,19;3138203
83688;83688;;Sao Joao Del-Rei;SAO JOAO DEL REI;MG;-21,3;-44,27;991,00;3162500
83689;83689;;Barbacena;BARBACENA;MG;-21,23962;-43,781458;1128,08;3105608
83690;;;Santos Dumont;SANTOS DUMONT;MG;-21,45;-43,55;908,00;3160702
83691;;;Uba;UBA;MG;-21,12;-42,95;349,00;3169901
83692;83692;;Juiz de Fora;JUIZ DE FORA;MG;-21,76999;-43,364328;936,90;3136702
83693;;;Leopoldina;LEOPOLDINA;MG;-21,53;-42,63;268,00;3138401
83694;;;Muriae;MURIAE;MG;-21,13;-42,33;270,00;3143906
83695;83695;;Itaperuna;ITAPERUNA;RJ;-21,204406;-41,905635;118,25;3302205
83696;83696;;Santa Maria Madalena;SANTA MARIA MADALENA;RJ;-21,959948;-42,011762;622,44;3304607
83697;;;Sao Fidelis;SAO FIDELIS;RJ;-21,62;-41,77;74,00;3304805
83698;83698;;Campos;CAMPOS DOS GOYTACAZES;RJ;-21,742586;-41,332829;15,19;3301009
83699;;;Barra do Itabapoana;SAO FRANCISCO DE ITABAPOANA;RJ;-21,3;-40,98;4,00;3304755
83700;83700;;São Tomé;SÃO TOMÉ;RJ;-22,041944;-41,052778;49,00;4126108
83701;;;Bela Vista;BELA VISTA;MS;-22,1;-56,53;161,00;5002100
83702;83702;;Ponta Pora;PONTA PORA;MS;-22,55246;-55,716317;668,00;5006606
83703;83703;;Ponta Porã;PONTA PORÃ;MS;-22,55;-55,7;657,00;5006606
83704;83704;;Ivinhema;IVINHEMA;MS;-22,300371;-53,822894;377,40;5004700
83705;;;Campos do Jordao;CAMPOS DO JORDAO;SP;-22,73;-45,58;1,58;3509700
83706;;;Pindamonhangaba;PINDAMONHANGABA;SP;-22,97;-45,48;570,00;3538006
83707;;;Pindamonhangaba;PINDAMONHANGABA;SP;-22,92;-45,5;560,00;3538006
83708;83708;;Guaratinguetá;GUARATINGUETÁ;SP;-22,79;-45,2;537,00;3518404
83709;;;Piquete;PIQUETE;SP;-22,6;-45,17;646,00;3538501
83710;;;Campos da Bocaina;CUNHA;SP;-22,72;-44,53;1,47;3513603
83711;;;Bandeirantes;POPULINA;SP;-22,6;-44,47;544,00;3540408
83712;;;Bananal;BANANAL;SP;-22,7;-44,32;560,00;3504909
83713;;;Sao Jose do Barreiro;SAO JOSE DO BARREIRO;SP;-22,63;-44,65;509,00;3549607
83714;83714;;Campos do Jordão;CAMPOS DO JORDÃO;SP;-22,750179;-45,603923;1662,56;3509700
83715;;;Cachoeira da Graca;MAIRIPORA;SP;-23,6;-46,93;875,00;3528502
83716;83716;;Presidente Prudente;PRESIDENTE PRUDENTE;SP;-22,119874;-51,408624;431,97;3541406
83717;;;Assis (Pedrinhas);ASSIS;SP;-22,65;-50,42;350,00;3504008
83718;83718;;Cordeiro;CORDEIRO;RJ;-22,022238;-42,364439;516,72;3301504
83719;83719;;Cabo Frio (Alcalis);ARRAIAL DO CABO;RJ;-22,98;-42,03;7,00;3300258
83720;;;Piracicaba;PIRACICABA;SP;-22,72;-47,63;573,00;3538709
83721;83721;;Campinas - Aeroporto;CAMPINAS;SP;-23;-47,13;661,00;3509502
83722;83722;;Bauru - Aeroporto;BAURU;SP;-22,34;-49,05;615,00;3506003
83723;;;Jau;JAU;SP;-22,28;-48,57;580,00;3525300
83724;;;Botucatu;BOTUCATU;SP;-22,87;-48,45;825,00;3507506
83725;;;Brotas;BROTAS;SP;-22,27;-48,12;664,00;3507902
83726;83726;;São Carlos;SÃO CARLOS;SP;-21,980244;-47,883925;859,77;3548906
83727;;;Limeira;LIMEIRA;SP;-22,62;-47,53;542,00;3526902
83728;;;Limeira;LIMEIRA;SP;-22,57;-47,42;689,00;3526902
83729;83729;;Campinas;CAMPINAS;SP;-22,9;-47,08;663,00;3509502
83730;;;Monte Alegre do Sul;MONTE ALEGRE DO SUL;SP;-22,68;-46,72;777,00;3531209
83731;;;Pinhal;PINHALZINHO;SP;-22,17;-46,73;920,00;3538204
83732;83732;;Ouro Fino;OURO FINO;MG;-22,28;-46,37;925,00;3146008
83733;;;Campo da Fe (Virginia);VIRGINIA;MG;-22,33;-45,08;1,64;3171709
83734;;;Cruzeiro;CRUZEIRO;SP;-22,57;-44,95;514,00;3513405
83735;;;Itajuba;ITAJUBA;MG;-22,42;-45,45;840,00;3132404
83736;83736;;São Lourenço;SÃO LOURENÇO;MG;-22,126273;-45,043327;930,65;3163706
83737;83737;;Passa Quatro;PASSA QUATRO;MG;-22,382805;-44,966902;919,55;3147600
83738;83738;;Resende;RESENDE;RJ;-22,45091;-44,44479;438,86;3304201
83739;;;Resende (Escola Militar);RESENDE;RJ;-22,48;-44,43;439,00;3304201
83740;;;Observatorio Km-47;SEROPEDICA;RJ;-22,77;-43,68;44,00;3305554
83741;83741;;Ecologia Agricola;SEROPEDICA;RJ;-22,757848;-43,685017;34,52;3305554
83742;83742;;Vassouras;VASSOURAS;RJ;-22,4;-43,67;437,00;3306206
83743;83743;;Rio de Janeiro;RIO DE JANEIRO;RJ;-22,895545;-43,184758;17,76;3304557
83744;83744;;Ilha Rasa;TERESÓPOLIS;RJ;-22,417251;-42,972458;879,69;3305802
83745;83745;;Nova Friburgo;NOVA FRIBURGO;RJ;-22,25;-42,52;856,00;3303401
83746;83746;;Galeao - Aeroporto;RIO DE JANEIRO;RJ;-22,8;-43,25;9,00;3304557
83747;;;Cabo Frio;CABO FRIO;RJ;-22,87;-42,02;2,00;3300704
83748;83748;;Afonsos - Aeroporto;RIO DE JANEIRO;RJ;-22,88;-43,38;34,00;3304557
83749;83749;;Macaé;MACAÉ;RJ;-22,34;-41,75;5,00;3302403
83750;;;Alto do Itatiaia;ITATIAIA;RJ;-22,42;-44,83;2,19;3302254
83752;;;Barreirinha;RESENDE;RJ;-22,45;-44,83;756,00;3304201
83753;;;Volta Redonda;VOLTA REDONDA;RJ;-22,52;-44,1;417,00;3306305
83754;;;Pinheiral;PINHEIRAL;RJ;-22,52;-44;385,00;3303955
83755;83755;;Rio de Janeiro;RIO DE JANEIRO;RJ;-22,9;-43,15;3,00;3304557
83756;;;Servico Geografico Rio (M. Conceicao);RIO DE JANEIRO;RJ;-22,9;-48,18;48,00;3304557
83757;83757;;Pirai;PIRAI;RJ;-22,635766;-43,900654;382,80;3304003
83758;;;Ilha Guaiba;MANGARATIBA;RJ;-23;-44,03;64,00;3302601
83759;83759;;São Pedro da Aldeia;SÃO PEDRO DA ALDEIA;RJ;-22,8166667;-42,0925;19,00;3305208
83760;;;Coop. Agricola de Cotia;COTIA;SP;-23,58;-46,88;838,00;3513009
83762;;;Rio Douro;DUQUE DE CAXIAS;RJ;-22,62;-43,47;127,00;3301702
83763;;;Tingua;NOVA IGUACU;RJ;-22,58;-43,35;125,00;3303500
83764;;;Xerem;DUQUE DE CAXIAS;RJ;-22,58;-43,5;143,00;3301702
83765;;;Araras;PETROPOLIS;RJ;-22,52;-43,18;820,00;3303906
83766;83766;;Londrina;LONDRINA;PR;-23,325517;-51,141767;566,46;4113700
83767;83767;;Maringá;MARINGÁ;PR;-23,4794444;-52,0122222;545,00;4115200
83768;83768;;Londrina - Aeroporto;LONDRINA;PR;-23,32;-51,14;569,00;4113700
83769;83769;;Jacarezinho;JACAREZINHO;PR;-23,15;-49,97;470,00;4111803
83770;;;Fazenda Ipanema;ITU;SP;-23,42;-47,58;584,00;3523909
83771;;;Barao de Antonina;BARAO DE ANTONINA;SP;-23,62;-49,57;560,00;3505005
83772;;;Mogi Das Cruzes;MOJI DAS CRUZES;SP;-23,52;-46,22;775,00;3530607
83773;83773;;Avare;AVARE;SP;-23,083579;-48,911718;831,96;3504503
83774;83774;;Itapeva;ITAPEVA;SP;-23,95;-48,88;707,00;3522406
83775;83775;;Guaira;JACAREZINHO;PR;-24,08;-54,25;230,00;4111803
83776;;;Itapetininga;ITAPETININGA;SP;-23,58;-48,05;644,00;3522307
83777;;;Tiete;TIETE;SP;-23,12;-47,72;538,00;3554508
83778;83778;;Guarulhos - Aeroporto;GARULHOS (AERO);SP;-23,44;-46,47;750,00;3518800
83779;83779;;Campo de Marte - Aeroporto;CAMPO DE MARTE (AERO);SP;-23,51;-46,63;722,00;3550308
83780;83780;;São Paulo - Aeroporto;SÃO PAULO;SP;-23,62;-46,65;803,00;3550308
83781;83781;;São Paulo (Mirante de Santana);SÃO PAULO;SP;-23,496371;-46,620093;785,16;3550308
83782;83782;;Santos;SANTOS;SP;-23,93;-46,33;13,00;3548500
83783;83783;;Campo Mourão;CAMPO MOURÃO;PR;-24,085619;-52,38653;602,17;4104303
83784;83784;;Taubate;TAUBATE;SP;-23,0388889;-45,5158333;581,00;3554102
83785;;;Sao Sebastiao;SAO SEBASTIAO;SP;-23,82;-45,42;642,00;3550704
83786;83786;;Ubatuba;UBATUBA;SP;-23,416697;-45,114373;19,55;3555406
83787;83787;;Nova Iguacu;NOVA IGUACU;RJ;-22,77;-43,45;20,00;3303500
83788;83788;;Angra dos Reis;ANGRA DOS REIS;RJ;-23,015972;-44,329675;17,04;3300100
83789;83789;;Santa Cruz;RIO DE JANEIRO;RJ;-22,922004;-43,687034;44,64;3304557
83790;;;Bangu;RIO DE JANEIRO;RJ;-22,87;-43,45;40,00;3304557
83791;;;Penha;RIO DE JANEIRO;RJ;-22,82;-43,22;65,00;3304557
83792;;;Engenho de Dentro;RIO DE JANEIRO;RJ;-22,88;-43,3;30,00;3304557
83793;;;Jacarepagua;RIO DE JANEIRO;RJ;-22,99;-43,37;12,00;3304557
83796;;;Jardim Botanico;RIO DE JANEIRO;RJ;-22,97;-43,22;5,00;3304557
83798;;;Santa Teresa;RIO DE JANEIRO;RJ;-22,92;-43,18;180,00;3304557
83799;;;Pao de Acucar;RIO DE JANEIRO;RJ;-22,97;-43,25;400,00;3304557
83801;83801;;Realengo;RIO DE JANEIRO;RJ;-22,871313;-43,424929;32,10;3304557
83802;;;Sao Bento (Duque de Caxias);DUQUE DE CAXIAS;RJ;-22,73;-43,3;6,00;3301702
83803;;;Niteroi;NITEROI;RJ;-22,9;-43,12;14,00;3303302
83804;;;Petropolis;PETROPOLIS;RJ;-22,52;-43,18;895,00;3303906
83805;83805;;Santo Antônio de Padua;SANTO ANTÔNIO DE PADUA;RJ;-21,53713;-42,160925;91,90;3304706
83806;83806;;Teresópolis - P. Nacional;TERESÓPOLIS;RJ;-22,45;-42,93;959,00;3305802
83807;83807;;Carmo;CARMO;RJ;-21,936021;-42,605975;346,61;3301207
83809;;;Sao Jose dos Campos;SAO JOSE DOS CAMPOS;SP;-23,22;-45,85;643,00;3549904
83810;;;Santa Branca;SANTA BRANCA;SP;-23,45;-45,87;700,00;3546009
83811;83811;;Ivaí;IVAÍ;PR;-25,010781;-50,853718;803,87;4111407
83812;;;Tatui;TATUI;SP;-23,35;-47,85;590,00;3554003
83813;83813;;Castro;CASTRO;PR;-24,786984;-49,999158;994,68;4104907
83814;83814;;Jaguariaiva;JAGUARIAIVA;PR;-24,25;-49,7;923,00;4112009
83815;;;Laranjeiras;RIO DE JANEIRO;RJ;-22,92;-43,18;16,00;3304557
83816;;;Tatui (Iac);TATUI;SP;-23,37;-47,87;600,00;3554003
83817;;;Piacaguera;MOJI DAS CRUZES;SP;-23,83;-46,37;348,00;3530607
83818;83818;;Santos - Aeroporto;SANTOS;SP;-23,92;-46,28;3,00;3548500
83819;;;Sao Bernardo do Campo;SAO BERNARDO DO CAMPO;SP;-23,72;-46,53;794,00;3548708
83821;83821;;Iguape;IGUAPE;SP;-24,671656;-47,545896;2,70;3520301
83822;;;Itanhaem;ITANHAEM;SP;-24,18;-46,78;3,00;3522109
83823;;;Docas de Santo (Itapema);SANTOS;SC;-23,92;-46,42;3,00;3548500
83824;83824;;Itu;ITU;SP;-23,264627;-47,299742;616,00;3523909
83825;83825;;Ilha do Mel;PARANAGUÁ;PR;-25,494722;-48,326389;4,00;4118204
83826;;;Foz do Iguacu;FOZ DO IGUACU;PR;-25,55;-54,57;154,00;4108304
83827;83827;;Foz Iguacu - Aeroporto;FOZ DO IGUAÇU;PR;-25,6;-54,48;239,00;4108304
83828;83828;;Toledo;TOLEDO;PR;-24,4;-53,73;574,00;4127700
83829;83829;;São José dos Campos;SÃO JOSÉ DOS CAMPOS;SP;-23,22;-45,87;646,00;3549904
83830;;;Cascavel;CASCAVEL;PR;-24,93;-53,43;760,00;4104808
83834;;;Guarapuava;GUARAPUAVA;PR;-25,4;-51,47;1,13;4109401
83836;83836;;Irati;IRATI;PR;-25,502846;-50,637609;881,69;4110706
83837;83837;;Ponta Grossa;PONTA GROSSA;PR;-25,1;-50,17;868,00;4119905
83839;;;Campo Largo;CAMPO LARGO;PR;-25,47;-49,43;922,00;4104204
83840;83840;;Curitiba - Aeroporto;CURITIBA (AERO);PR;-25,52;-49,17;930,00;4106902
83841;;;Bacacheri;CURITIBA;PR;-25,42;-49,28;931,00;4106902
83842;83842;;Curitiba;CURITIBA;PR;-25,448605;-49,230797;922,88;4106902
83843;;;Santo Amaro;SAO PAULO;SP;-23,38;-46,63;746,00;3550308
83844;83844;;Paranaguá;PARANAGUÁ;PR;-25,536172;-48,528229;10,49;4118204
83845;;;Cananeia;CANANEIA;SP;-25,02;-47,93;5,00;3509908
83846;;;Jambeiro;JAMBEIRO;SP;-23,25;-45,7;780,00;3524907
83847;;;Paraibuna;PARAIBUNA;SP;-23,42;-45,65;649,00;3535606
83848;;;Bairro Alto;SAO LUIS DO PARAITINGA;SP;-23,47;-45,3;705,00;3550001
83849;;;Cunha;CUNHA;SP;-23,12;-45,13;967,00;3513603
83850;;;Boraceia;BORACEIA;SP;-23,77;-45,8;870,00;3507308
83851;83851;;Sorocaba;SOROCABA;SP;-23,479915;-47,426676;597,58;3552205
83852;;;Ubatuba;UBATUBA;SP;-23,43;-45,1;6,00;3555406
83854;;;Dionísio Serqueira;DIONISIO CERQUEIRA;SC;-26,25;-53,62;0,00;4205001
83855;;;Faculdade de Higiene (Sp);SAO PAULO;SP;-22,57;-46,63;816,00;3550308
83856;;;Sao Paulo - Horto Florestal;SAO PAULO;SP;-23,45;-46,65;775,00;3550308
83857;83857;;Tremembe;TREMEMBE;SP;-22,97;-45,55;546,00;3554805
83858;;;Xanxere;XANXERE;SC;-26,85;-52,4;841,00;4219507
83859;;;Tupi;TUPI PAULISTA;SP;-22,72;-47,55;550,00;3555109
83860;83860;;Palmas;PALMAS.;PR;-26,48;-51,98;1090,00;4117602
83862;;;Sao Miguel do Oeste;;SC;-26,73;-53,58;938,00;
83864;83864;;Porto Uniao;PORTO UNIAO;SC;-26,23;-51,07;778,00;4213609
83865;;;Irineopolis;IRINEOPOLIS;SC;-26,25;-50,8;777,00;4207908
83867;83867;;Rio Negro;RIO NEGRO;PR;-26,1;-49,8;824,00;4122305
83869;;;Campo Alegre;CAMPO ALEGRE;SC;-26,13;-49,25;819,00;4203303
83870;;;Timbo;TIMBO;SC;-26,82;-49,27;70,00;4218202
83871;;;Blumenau;BLUMENAU;SC;-26,92;-49,05;13,00;4202404
83872;83872;;Indaial;INDAIAL;SC;-26,913734;-49,267974;72,28;4207502
83873;;;Fraiburgo;FRAIBURGO;SC;-27,05;-50,93;1,14;4205506
83874;83874;;Sao Francisco do Sul;SAO FRANCISCO DO SUL;SC;-26,25;-48,65;45,00;4216206
83875;;;Jaguara do Sul;JARAGUA DO SUL;SC;-26,47;-49,08;37,00;4208906
83876;;;Santa Rosa;SANTA ROSA;RS;-27,87;-54,43;360,00;4317202
83877;;;Rio do Sul;RIO DO SUL;SC;-27,2;-49,67;330,00;4214805
83878;;;Tres de Maio;TRES DE MAIO;RS;-27,78;-54,23;403,00;4321808
83879;;;Tres Passos;TRES PASSOS;RS;-27,45;-53,93;450,00;4321907
83880;;;Palmeira Das Missoes;PALMEIRA DAS MISSOES;RS;-27,88;-53,43;634,00;4313706
83881;83881;;Iraí;IRAí;RS;-27,189451;-53,253338;255,39;4310504
83882;;;Concordia;CONCORDIA;SC;-27,18;-52,05;530,00;4204301
83883;83883;;Chapecó;CHAPECÓ;SC;-27,135665;-52,662931;654,00;4204202
83885;;;Marcelino Ramos;MARCELINO RAMOS;RS;-27,45;-51,9;414,00;4311908
83886;;;Herval do Oeste (H. Novo);;SC;-27,17;-51,45;523,00;
83887;83887;;Campos Novos;CAMPOS NOVOS;SC;-27,383818;-51,216128;962,86;4203600
83889;;;Eamsc;;SC;-27,57;-48,57;0,00;
83890;;;Curitibanos;CURITIBANOS;SC;-27,25;-50,58;850,00;4204806
83891;83891;;Lages;LAGES;SC;-27,802108;-50,335567;952,73;4209300
83892;;;Porto Lucena;PORTO LUCENA;RS;-27,85;-55,02;100,00;4315008
83893;;;Campo Belo Sul;CAMPO BELO DO SUL;SC;-27,88;-50,7;900,00;4203402
83895;83895;;Arvoredo;ARVOREDO;SC;-27,295833;-48,356389;90,00;4201653
83896;;;Brusque;BRUSQUE;SC;-27,1;-48,93;46,00;4202909
83897;83897;;Florianópolis;SÃO JOSÉ;SC;-27,602545;-48,620276;4,64;4216602
83898;;;Camboriu;CAMBORIU;SC;-27;-48,63;8,00;4203204
83899;83899;;Florianópolis - Aeroporto;FLORIANÓPOLIS;SC;-27,67;-48,55;6,00;4205407
83901;;;Sao Borja;SAO BORJA;RS;-28,65;-56;96,00;4318002
83904;83904;;Joaçaba;JOAÇABA;SC;-27,169273;-51,558963;767,63;4209003
83905;83905;;Joinville;JOINVILLE;SC;-26,22;-48,8;4,00;4209102
83907;83907;;São Luiz Gonzaga;SÃO LUIZ GONZAGA;RS;-28,417102;-54,962402;245,49;4318903
83909;;;Santo Angelo;SANTO ANGELO;RS;-28,3;-54,25;284,00;4317509
83910;;;Panambi;PANAMBI;RS;-28,28;-53,48;470,00;4313904
83912;83912;;Cruz Alta;CRUZ ALTA;RS;-28,626012;-53,613875;475,52;4306106
83914;83914;;Passo Fundo;PASSO FUNDO;RS;-28,2452778;-52,3286111;724,00;4314100
83915;;;Guapore;GUAPORE;RS;-28,92;-51,9;471,00;4309407
83916;83916;;Lagoa Vermelha;LAGOA VERMELHA;RS;-28,222366;-51,512824;833,73;4311304
83917;;;Antonio Prado;ANTONIO PRADO;RS;-28,82;-51,28;700,00;4300802
83918;83918;;Vacaria;VACARIA;RS;-28,55;-50,7;954,00;4322509
83919;83919;;Bom Jesus;BOM JESUS;RS;-28,669487;-50,441863;1048,59;4302303
83920;83920;;São Joaquim;SÃO JOAQUIM;SC;-28,275639;-49,93464;1400,07;4216503
83921;;;Ararangua;ARARANGUA;SC;-28,88;-49,52;12,00;4201406
83922;;;Orleans;ORLEANS;SC;-28,33;-49,33;155,00;4211702
83923;83923;;Urussanga;URUSSANGA;SC;-28,532537;-49,31521;40,50;4219002
83924;83924;;Laguna;LAGUNA;SC;-28,48;-48,8;30,00;4209409
83925;83925;;Santa Marta;SANTA MARTA;SC;-28,603889;-48,812778;74,00;4209409
83926;83926;;Navegantes;NAVEGANTES;SC;-26,87;-48,63;5,00;4211306
83927;83927;;Uruguaiana;URUGUAIANA;RS;-29,839929;-57,081896;74,41;4322400
83928;83928;;Uruguaiana;URUGUAIANA;RS;-29,77;-57,03;78,00;4322400
83929;;;Itaqui;ITAQUI;RS;-29,12;-56,53;76,00;4310603
83931;83931;;Alegrete;ALEGRETE;RS;-29,68;-55,52;120,00;4300406
83932;83932;;Ibiruba;IBIRUBA;RS;-28,653476;-53,111882;455,28;4310009
83933;;;Santiago;SANTIAGO;RS;-29,18;-54,88;439,00;4317400
83935;;;Julio de Castilho;JULIO DE CASTILHOS;RS;-29,23;-53,68;516,00;4311205
83936;83936;;Santa Maria;SANTA MARIA;RS;-29,724796;-53,720465;103,10;4316907
83937;83937;;Santa Maria;SANTA MARIA;RS;-29,7;-53,68;88,00;4316907
83938;;;Soledade;SOLEDADE;RS;-28,83;-52,52;720,00;4320800
83939;;;Santa Cruz do Sul;SANTA CRUZ DO SUL;RS;-29,72;-52,42;52,00;4316808
83940;;;Taquari;TAQUARI;RS;-29,8;-51,82;76,00;4321303
83941;83941;;Bento Goncalves;BENTO GONCALVES;RS;-29,164588;-51,534104;624,10;4302105
83942;83942;;Caxias do Sul;CAXIAS DO SUL;RS;-29,196242;-51,186449;750,16;4305108
83943;;;Taquara;TAQUARA;RS;-29,75;-50,75;35,00;4321204
83944;;;Canela;CANELA;RS;-29,37;-50,8;830,00;4304408
83945;;;Sao Francisco de Paula;SAO FRANCISCO DE PAULA;RS;-29,33;-50,52;922,00;4318200
83946;83946;;Cambará do Sul;CAMBARÁ DO SUL;RS;-29,049139;-50,149631;1015,97;4303608
83948;83948;;Torres;TORRES;RS;-29,350339;-49,733293;8,47;4321501
83950;;;Lajeado;LAJEADO;RS;-29,43;-51,95;66,00;4311403
83951;;;Novo Hamburgo;NOVO HAMBURGO;RS;-29,97;-51,13;35,00;4313409
83952;83952;;Canoas;CANOAS;RS;-29,93;-51,13;8,00;4304606
83953;83953;;Santana do Livramento;SANTANA DO LIVRAMENTO;RS;-30,842617;-55,613073;328,22;4317103
83954;83954;;Triunfo;TRIUNFO.;RS;-29,869757;-51,379201;23,60;4322004
83955;;;Cacequi;CACEQUI;RS;-29,88;-54,78;125,00;4302907
83956;;;Dom Pedrito;DOM PEDRITO;RS;-30,98;-54,67;140,00;4306601
83957;;;Sao Gabriel;SAO GABRIEL;RS;-30,33;-54,32;124,00;4318309
83959;;;Caçapava do Sul;CACAPAVA DO SUL;RS;-30,52;-53,48;450,00;4302808
83960;;;Morro de Santa Tereza;PORTO ALEGRE;RS;-30,07;-51,22;72,00;4314902
83961;83961;;Campo Bom;CAMPO BOM;RS;-29,677684;-51,049914;28,96;4303905
83963;;;Cachoeira do Sul;CACHOEIRA DO SUL;RS;-30,03;-52,88;72,00;4303004
83964;83964;;Encruzilhada do Sul;ENCRUZILHADA DO SUL;RS;-30,543113;-52,524705;428,52;4306908
83966;;;Tapes;TAPES;RS;-30,83;-51,58;5,00;4321105
83967;83967;;Porto Alegre;PORTO ALEGRE;RS;-30,053539;-51,174765;41,14;4314902
83968;;;Viamao;VIAMAO;RS;-30,08;-50,78;48,00;4323002
83970;83970;;Mostardas;MOSTARDAS;RS;-31,248889;-50,908056;39,00;4312500
83971;83971;;Porto Alegre - Aeroporto;Porto Alegre;RS;-29,99;-51,17;3,00;4314902
83972;83972;;Teutônia;TEUTONIA;RS;-29,448748;-51,799035;64,45;4321451
83976;;;Santana da Boa Vista;SANTANA DA BOA VISTA;RS;-30,87;-53,12;340,00;4317004
83978;83978;;Camaquã;CAMAQUÃ;RS;-30,807955;-51,834243;92,29;4303509
83980;83980;;Bagé;BAGÉ;RS;-31,305661;-54,119352;245,66;4301602
83981;83981;;Bagé - Aeroporto;BAGÉ;RS;-31,39;-54,1;183,00;4301602
83983;;;Piratini;PIRATINI;RS;-31,43;-53,1;345,00;4314605
83984;83984;;Pelotas - Aeroporto;PELOTAS;RS;-31,72;-52,32;18,00;4314407
83985;83985;;Pelotas;PELOTAS;RS;-31,802527;-52,406868;12,01;4314407
83992;;;Jaguarao;JAGUARAO;RS;-32,55;-53,38;50,00;4311007
83994;;;Barra do Rio Grande;RIO GRANDE;RS;-32,15;-52,1;2,00;4315602
83995;83995;;Rio Grande;RIO GRANDE;RS;-32,078809;-52,167725;4,89;4315602
83997;83997;;Santa Vitoria do Palmar;SANTA VITORIA DO PALMAR;RS;-33,531712;-53,350204;25,00;4317301
83998;83998;;Chuí;CHUÍ;RS;-33,742778;-53,374722;43,00;4305439
A001;86715;;Brasília;BRASÍLIA;DF;-15,789343;-47,925756;1160,96;5300108
A002;86734;;Goiania;GOIÂNIA;GO;-16,642841;-49,220222;727,30;
A003;86755;;Morrinhos;MORRINHOS;GO;-17,745066;-49,101698;751,09;2308906
A004;86690;;Niquelandia;NIQUELÂNDIA;GO;-14,469358;-48,485756;663,53;
A008;86714;;Faculdade da Terra;BRASILIA;DF;-15,907513;-48,119977;1144,20;
A009;86607;;Palmas;PALMAS;TO;-10,190744;-48,301811;291,87;1721000
A010;86650;;Paranã;PARANÃ;TO;-12,614893;-47,871917;284,96;1716208
A011;86773;;São Simão;SÃO SIMÃO;GO;-18,969142;-50,633449;492,45;
A012;86736;;Luziânia;LUZIÂNIA;GO;-16,260542;-47,966962;1000,82;
A013;86709;;Aragarças;ARAGARÇAS;GO;-15,902658;-52,245172;327,35;
A014;86712;;Goiás;GOIÁS;GO;-15,939729;-50,141433;512,86;
A015;86689;;Itapaci;ITAPACI;GO;-14,979792;-49,539977;551,16;
A016;86752;;Jatai;JATAI;GO;-17,923622;-51,717467;670,08;
A017;86692;;Posse;POSSE;GO;-14,08921;-46,366497;830,00;
A018;86649;;Peixe;PEIXE;TO;-12,015377;-48,544517;250,87;1716604
A019;86630;;Gurupi;GURUPI;TO;-11,745782;-49,049703;279,07;1709500
A020;81941;;Pedro Afonso;PEDRO AFONSO;TO;-8,968677;-48,177259;189,71;1716505
A021;81900;;Araguaina;ARAGUAINA;TO;-7,103954;-48,201231;230,76;1702109
A022;86713;;Goianesia;GOIANÉSIA;GO;-15,220199;-48,990107;667,01;
A023;86730;;Caiaponia;CAIAPONIA;GO;-16,966841;-51,817567;740,10;
A024;86691;;Alto Paraiso de Goias;ALTO PARAISO DE GOIAS;GO;-14,133074;-47,523258;1264,70;
A025;86753;;Rio Verde;RIO VERDE;GO;-17,785303;-50,964869;780,11;
A026;86751;;Mineiros;MINEIROS;GO;-17,569319;-52,596483;712,83;
A027;86732;;Parauna;PARAUNA;GO;-16,962536;-50,42545;678,74;
A028;86731;;Ipora;IPORA;GO;-16,423059;-51,148801;610,41;
A032;86670;;Monte Alegre de Goiás;MONTE ALEGRE DE GOIÁS;GO;-13,253521;-46,890326;551,33;
A033;86756;;Pires do Rio;PIRES DO RIO;GO;-17,304153;-48,284131;757,27;
A034;86777;;Catalão;CATALÃO;GO;-18,154779;-47,927614;900,72;
A035;86774;;Itumbiara;ITUMBIARA;GO;-18,409761;-49,192061;491,17;
A036;86737;;Cristalina;CRISTALINA;GO;-16,784896;-47,612966;1211,08;
A037;86735;;Silvânia;SILVANIA;GO;-16,679786;-48,618171;952,00;
A038;86632;;Dianópolis;DIANÓPOLIS;TO;-11,594448;-46,847209;727,87;1707009
A039;86629;;Formoso do Araguaia;FORMOSO DO ARAGUAIA;TO;-11,887377;-49,608215;215,20;1708205
A040;86608;;Mateiros;MATEIROS;TO;-10,434441;-45,921941;791,00;1712702
A041;81983;;Marianópolis do Tocantins;MARIANÓPOLIS DO TOCANTINS;TO;-9,576389;-49,72333;186,69;1712504
A043;81902;;Campos Lindos;CAMPOS LINDOS;TO;-8,154665;-46,639323;426,56;1703842
A044;81821;;Araguatins;ARAGUATINS;TO;-5,643725;-48,111839;130,71;1702208
A045;86716;;Aguas Emendadas;BRASILIA;DF;-15,596491;-47,625801;1030,36;
A046;86711;;Gama (Ponte Alta);Brasilia;GO;-15,935139;-48,137377;990,00;5300108
A048;;;Santa Fé do Araguaia;SANTA FÉ DO ARAGUAIA;TO;-7,124191;-48,781267;171,00;1718865
A050;;;Rio Sono;RIO SONO;TO;-9,793363;-47,132732;291,00;1718758
A051;86603;;Pium;PIUM;TO;-10,476944;-49,629475;161,00;1717503
A052;86631;;Santa Rosa do Tocantins;SANTA ROSA DO TOCANTINS;TO;-11,429018;-48,184889;306,00;1718907
A053;86627;;Almas;ALMAS;TO;-11,284098;-47,212125;503,00;1700400
A054;86648;;Araguaçu;ARAGUAÇU;TO;-12,5922;-49,5287;231,00;1702000
A101;81730;;Manaus;MANAUS;AM;-3,103682;-60,015461;48,79;1302603
A102;81963;;Parque Estadual Chandless;Parque Estadual Chandless;AC;-9,358353;-69,926257;184,51;1200435
A104;81965;;Rio Branco;RIO BRANCO;AC;-9,957844;-68,165169;223,52;1200401
A108;81881;;Cruzeiro do Sul;CRUZEIRO DO SUL;AC;-7,610773;-72,681333;220,00;1200203
A109;81843;;Eirunepé;EIRUNEPÉ;AM;-6,650301;-69,86861;121,54;1301407
A110;81927;;Boca do Acre;BOCA DO ACRE;AM;-8,776804;-67,332557;111,98;1300706
A111;81888;;Lábrea;LÁBREA;AM;-7,260681;-64,788501;61,91;1302405
A112;81890;;Humaitá;HUMAITÁ;AM;-7,55252;-63,071343;53,56;1301704
A113;81893;;Apui;APUI;AM;-7,205475;-59,888561;156,97;1300144
A117;81770;;Coari;COARI;AM;-4,097483;-63,145322;33,84;1301209
A119;81729;;Manacapuru;MANACAPURU;AM;-3,294638;-60,628402;36,57;1302504
A120;81732;;Autazes;AUTAZES;AM;-3,583333;-59,12944;19,90;1300300
A121;81733;;Itacoatiara;ITACOATIARA;AM;-3,133333;-58,48278;41,54;1301902
A122;81734;;Maués;MAUÉS;AM;-3,39901;-57,673772;25,49;1302900
A123;81703;;Parintins;PARINTINS;AM;-2,639152;-56,756177;18,72;1303403
A124;81702;;Urucara;URUCARA;AM;-2,534749;-57,758099;18,49;1304302
A125;81700;;Rio Urubu;RIO URUBU;AM;-2,633654;-59,600582;112,84;1303536
A126;81699;;Presidente Figueiredo;PRESIDENTE FIGUEIREDO;AM;-2,056558;-60,025756;60,99;1303536
A127;81698;;Novo Airão;NOVO AIRÃO;AM;-2,628982;-60,941108;37,59;1303205
A128;81648;;Barcelos;BARCELOS;AM;-0,987292;-62,924251;29,88;1300409
A133;81810;;Manicore;MANICORÉ;AM;-5,788533;-61,288276;40,64;1302702
A134;81643;;São Gabriel da Cachoeira;SÃO GABRIEL DA CACHOEIRA;AM;-0,125207;-67,061246;79,67;1303809
A135;81615;;Boa Vista;BOA VISTA;RR;2,816897;-60,690821;82,35;1400100
A136;81921;;Porto Walter;PORTO WALTER;AC;-8,267197;-72,747838;205,35;1200393
A137;81922;;Marechal Thaumaturgo;MARECHAL THAUMATURGO;AC;-8,950008;-72,786778;220,98;1200351
A138;81924;;Feijo;FEIJO;AC;-8,142654;-70,343594;157,17;1200302
A140;86620;;Epitaciolandia;EPITACIOLANDIA;AC;-11,023752;-68,73518;224,50;1200252
A201;81680;;Belém;BELEM;PA;-1,411228;-48,439512;21,17;1501402
A202;81682;;Castanhal;CASTANHAL;PA;-1,300875;-47,947967;47,13;1502400
A203;81715;;São Luis;SÃO LUIS;MA;-2,526771;-44,213577;54,80;2111300
A204;81903;;Balsas;BALSAS;MA;-7,455609;-46,027546;271,03;2101400
A205;81901;;Carolina;CAROLINA;MA;-7,337269;-47,459839;182,88;2102804
A206;81749;;Chapadinha;CHAPADINHA;MA;-3,742674;-43,352084;104,00;2103208
A207;81823;;Grajau;GRAJAU;MA;-5,816085;-46,1622;232,29;2104800
A208;81899;;Floresta do Araguaia;FLORESTA DO ARAGUAIA;PA;-7,56176;-49,69884;188,09;1503044
A209;81739;;Medicilandia;MEDICILANDIA;PA;-3,510943;-52,96345;251,68;1504455
A210;81742;;Pacajás;PACAJAS;PA;-3,843701;-50,638098;89,02;1505486
A211;81737;;Placas;PLACAS;PA;-3,86404;-54,216416;100,45;1505650
A212;81745;;Paragominas;PARAGOMINAS;PA;-3,009932;-47,343121;84,89;1505502
A213;81711;;Tomé Açu;TOMÉ AÇU;PA;-2,592606;-48,360585;42,95;1508001
A214;81786;;Rondon do Para;RONDON DO PARA;PA;-4,78447;-48,071055;229,28;1506187
A215;81660;;Salinópolis;SALINOPOLIS;PA;-0,618884;-47,356596;23,18;1506203
A217;81716;;Farol Santana;HUMBERTO DE CAMPOS;MA;-2,270811;-43,624043;9,87;2105005
A218;81717;;Farol Preguiças;BARREIRINHA;MA;-2,592341;-42,707553;4,62;2101707
A219;81687;;Turiaçu;TURIAÇU;MA;-1,661224;-45,372571;35,86;2112407
A220;81790;;Bacabal;BACABAL;MA;-4,243056;-44,794993;22,33;2101202
A221;81825;;Barra do Corda;BARRA DO CORDA;MA;-5,506782;-45,237053;154,19;2101608
A222;81866;;Colinas;COLINAS;MA;-6,033167;-44,233402;175,37;2103505
A223;81985;;Alto Parnaiba;ALTO PARNAIBA;MA;-9,108199;-45,932016;283,69;2100501
A224;81863;;Estreito;ESTREITO;MA;-6,653272;-47,418241;182,96;2104057
A225;81822;;Imperatriz;IMPERATRIZ;MA;-5,555723;-47,459794;117,96;2105302
A226;81685;;Bragança;BRAGANÇA;PA;-1,047258;-46,78579;41,00;1501709
A227;81658;;Soure;SOURE;PA;-0,727827;-48,515795;12,54;1507904
A229;81743;;Tucurui;TUCURUI;PA;-3,82276;-49,674956;137,94;1508100
A230;81860;;Serra dos Carajas;SERRA DOS CARAJAS;PA;-6,077427;-50,142265;707,00;1505536
A231;81778;;Itaituba;ITAITUBA;PA;-4,276978;-55,993087;24,46;1503606
A232;81675;;Óbidos;ÓBIDOS;PA;-1,880789;-55,519856;89,64;1505106
A233;81982;;Santana do Araguaia;SANTANA DO ARAGUAIA;PA;-9,338611;-50,35028;176,75;1506708
A234;81859;;Tucumã;TUCUMÃ;PA;-6,743208;-51,141899;320,93;1508084
A235;81784;;Novo Repartimento;NOVO REPARTIMENTO;PA;-4,243989;-49,939308;100,76;1505064
A236;81710;;Cametá;CAMETÁ;PA;-2,239653;-49,499827;9,92;1502103
A237;81792;;Caxias;CAXIAS;MA;-4,821352;-43,343659;84,85;2103000
A238;81788;;Buriticupu;BURITICUPU;MA;-4,320597;-46,449503;174,91;2102325
A239;81706;;Monte Alegre;MONTE ALEGRE;PA;-2,000054;-54,076479;100,53;1504802
A240;81820;;Marabá;MARABA;PA;-5,366447;-49,051166;116,58;1504208
A241;81940;;Conceição do Araguaia;CONCEIÇÃO DO ARAGUAIA;PA;-8,30361;-49,28277;175,74;1502707
A242;81609;;Oiapoque;OIAPOQUE;AP;3,813583;-51,8625;15,14;1600501
A243;81628;;Tartarugalzinho;TARTARUGALZINHO;AP;1,496667;-50,9167;21,00;1600709
A244;81637;;Porto Grande;PORTO GRANDE;AP;0,7027778;-51,42778;74,09;1600535
A246;81855;;Mina Palito;ITAITUBA;PA;-6,320067;-55,787783;259,88;1500602
A247;81896;;Xinguara;XINGUARA;PA;-7,110518;-49,926072;245,00;1500602
A248;81684;;Capitão Poço;CAPITÃO POÇO;PA;-1,734766;-47,0575;79,10;1502301
A249;81638;;Macapá;MACAPÁ;AP;0,03502;-51,088763;16,62;1600303
A250;81707;;Santarém;SANTARÉM;PA;-2,502572;-54,720279;137,00;1506807
A301;81958;;Recife;RECIFE;PE;-8,05928;-34,959239;11,30;2611606
A302;81639;;São Pedro e São Paulo;Arquipélago São Pedro e São Paulo;PE;0,916877;-29,345904;-388,38;2408102
A303;81998;;Maceio;MACEIO;AL;-9,551168;-35,770195;84,12;2700508
A304;81839;;Natal;NATAL;RN;-5,837187;-35,207921;47,46;2408102
A305;81758;;Fortaleza;FORTALEZA;CE;-3,815701;-38,537792;29,55;2304400
A306;81754;;Sobral;SOBRAL;CE;-3,748177;-40,34572;92,07;2312908
A307;81991;;Petrolina;PETROLINA;PE;-9,388323;-40,523262;372,72;2611101
A308;81752;;Parnaíba;PARNAIBA;PI;-3,086656;-41,783139;52,11;2207702
A309;81953;;Arco Verde;ARCO VERDE;PE;-8,433544;-37,055477;683,95;2601201
A310;81877;;Areia;AREIA;PB;-6,975451;-35,718128;573,45;2501104
A311;81868;;Floriano;FLORIANO;PI;-6,761438;-43,003396;126,39;2203909
A312;81827;;Teresina;TERESINA;PI;-5,034769;-42,801341;75,23;2211001
A313;81916;;Campina Grande;CAMPINA GRANDE;PB;-7,225574;-35,904831;546,17;2504009
A314;81797;;Guaramiranga;GUARAMIRANGA;CE;-4,261351;-38,931068;865,53;2305100
A315;81911;;Barbalha;BARBALHA;CE;-7,300925;-39,271107;409,41;2301901
A316;81875;;Caicó;CAICO;RN;-6,467474;-37,084931;171,26;2402006
A317;81836;;Macau;MACAU;RN;-5,151035;-36,573142;17,37;2407203
A318;81834;;Mossoro;MOSSORO;RN;-4,904087;-37,366943;29,44;2408003
A319;81873;;Iguatu;IGUATU;CE;-6,396375;-39,268954;221,56;2305506
A320;81918;;João Pessoa;JOÃO PESSOA;PB;-7,165409;-34,815627;33,50;2507507
A321;81913;;Patos;PATOS;PB;-7,079836;-37,272817;263,66;2510808
A322;81955;;Garanhuns;GARANHUS;PE;-8,91095;-36,493381;827,78;2606002
A323;81994;;Pão de Açucar;PÃO DE AÇUCAR;AL;-9,74922;-37,430765;20,83;2706406
A324;81872;;Tauá;TAUÁ;CE;-6,017474;-40,281321;410,87;2313302
A325;81831;;Quixeramobim;QUIXERAMOBIM;CE;-5,174568;-39,289393;221,04;2311405
A326;81987;;Bom Jesus do Piaui;BOM JESUS DO PIAUI;PI;-9,083251;-44,32647;296,00;2201903
A327;81995;;Palmeira dos Indios;PALMEIRA DOS INDIOS;AL;-9,420334;-36,620371;278,01;2700805
A328;81917;;Surubim;SURUBIM;PE;-7,839628;-35,801056;421,44;2614501
A329;81951;;Cabrobó;CABROBO;PE;-8,504;-39,31528;342,74;2603009
A330;81950;;Paulistana;PAULISTANA;PI;-8,132288;-41,142945;376,00;2207801
A331;81848;;São João do Piaui;SÃO JOAO DO PIAUI;PI;-8,364977;-42,250369;236,99;2210003
A332;81832;;Morada Nova;MORADA NOVA;CE;-5,136689;-38,35659;45,03;2308708
A333;81774;;São Gonçalo;SOUZA;PB;-6,835777;-38,311583;237,04;2516201
A334;81914;;Monteiro;MONTEIRO;PB;-7,894465;-37,124704;606,39;2509701
A335;81794;;Piripiri;PIRIPIRI;PI;-4,276047;-41,794568;157,89;2208403
A336;81846;;Alvorada do Gurgeia;ALVORADA DO GURGEIA;PI;-8,441598;-43,865443;261,26;2202307
A337;81988;;Caracol;CARACOL;PI;-9,28588;-43,324438;515,30;2202505
A338;81751;;Esperantina;ESPERANTINA;PI;-3,899365;-42,259483;88,00;2203701
A339;81798;;Jaguaruana;JAGUARUANA;CE;-4,853511;-37,777189;16,57;2307007
A340;81835;;Apodi;APODI;RN;-5,626559;-37,814991;131,41;2401008
A341;81956;;Caruaru;CARUARU;PE;-8,236069;-35,98555;570,05;2604106
A342;81830;;Crateús;CRATEÚS;CE;-5,186636;-40,672128;298,19;2304103
A343;81908;;Picos;PICOS;PI;-7,071016;-41,404042;232,91;2208007
A344;81838;;Calcanhar;CALCANHAR;RN;-5,159925;-35,487616;9,82;2414407
A345;81989;;São Raimundo Nonato;SÃO RAIMUNDO NONATO;PI;-9,033211;-42,701112;383,13;2210607
A346;81905;;Uruçui;URUÇUI;PI;-7,44142;-44,345055;398,83;2211209
A347;81909;;Campos Sales;CAMPOS SALES;CE;-7,07773;-40,362678;577,95;2302701
A348;81915;;Cabaceiras;CABACEIRAS;PB;-7,483206;-36,286469;391,96;2503100
A349;81954;;Ibimirim;IBIMIRIM;PE;-8,509552;-37,711591;434,23;2606606
A350;81912;;Serra Talhada;SERRA TALHADA;PE;-7,954277;-38,295082;499,02;2613909
A351;81952;;Floresta;FLORESTA;PE;-8,598785;-38,584062;327,42;2605707
A352;81878;;Camaratuba;CAMARATUBA;PB;-6,561813;-35,135316;135,51;2509305
A353;81996;;Arapiraca;ARAPIRACA;AL;-9,804551;-36,619198;236,84;2700300
A354;81869;;Oeiras;OEIRAS;PI;-6,974135;-42,146831;154,03;2207009
A355;86619;;Coruripe;CORURIPE;AL;-10,128482;-36,286348;82,39;2702306
A356;81997;;São Luis do Quitunde;SÃO LUIS DO QUITUNDE;AL;-9,287481;-35,565878;13,69;2707404
A357;81957;;Palmares;PALMARES;PE;-8,666667;-35,567921;164,01;2610004
A358;81833;;Jaguaribe;JAGUARIBE;CE;-5,905589;-38,627792;149,31;2306900
A359;81756;;Itapipoca;ITAPIPOCA;CE;-3,484298;-39,588715;104,49;2306405
A360;81755;;Acarau;ACARAU;CE;-3,121067;-40,087288;67,15;2300200
A361;81829;;Castelo do Piaui;CASTELO DO PIAUI;PI;-5,349228;-41,512274;268,75;2202604
A362;81828;;São Pedro do Piaui;SAO PEDRO DO PIAUI;PI;-5,911033;-42,718729;295,81;2210508
A363;81870;;Valença do Piaui;VALENÇA DO PIAUI;PI;-6,399274;-41,739953;313,39;2211308
A364;81986;;Gilbués;GILBUÉS;PI;-9,875196;-45,345805;425,10;2204402
A365;81847;;Canto do Buriti;CANTO DO BURITI;PI;-8,117939;-42,975721;312,07;2202307
A366;81910;;Ouricuri;OURICURI;PE;-7,885833;-40,102683;457,85;2609907
A367;81876;;Santa Cruz;SANTA CRUZ;RN;-6,227922;-36,026587;227,49;2411205
A401;86678;;Salvador;SALVADOR;BA;-13,005515;-38,50576;47,56;2927408
A402;86652;;Barreiras;BARREIRAS;BA;-12,124715;-45,027049;474,17;2903201
A403;86659;;Arembepe;Camaçari;BA;-12,762552;-38,16906;4,87;2910057
A404;86651;;Luis Eduardo Magalhaes;LUIS EDUARDO MAGALHÃES;BA;-12,152394;-45,829745;760,68;2903201
A405;86764;;Caravelas;CARAVELAS;BA;-17,739413;-39,258617;6,05;2906907
A406;86657;;Cruz das Almas;CRUZ DAS ALMAS;BA;-12,675422;-39,08958;219,76;2909802
A407;86674;;Itiruçu;ITIRUÇU;BA;-13,527828;-40,119752;757,42;2916906
A408;86656;;Itaberaba;Itaberaba;BA;-12,524062;-40,299714;250,11;2914703
A409;86616;;Aracaju;ARACAJU;SE;-10,952413;-37,05433;3,72;2800308
A410;86699;;Ilheus;ILHEUS;BA;-14,658803;-39,181438;80,21;2913606
A411;81993;;Paulo Afonso;PAULO AFONSO;BA;-9,378106;-38,226771;255,04;2924009
A412;86655;;Macajuba;MACAJUBA;BA;-12,131694;-40,354222;338,85;2919603
A413;86658;;Feira de Santana;FEIRA DE SANTANA;BA;-12,1962;-38,967384;229,64;2910800
A414;86697;;Vitoria da Conquista;VITORIA DA CONQUISTA;BA;-14,886428;-40,80133;879,38;2933307
A415;86633;;Santa Rita de Cássia;SANTA RITA DE CASSIA;BA;-11,002768;-44,524965;450,01;2928406
A416;86671;;Correntina;CORRENTINA;BA;-13,332386;-44,617376;551,71;2909307
A417;86638;;Itabaianinha;ITABAIANINHA;SE;-11,2725;-37,795;204,80;2803005
A418;86672;;Bom Jesus da Lapa;BOM JESUS DA LAPA;BA;-13,251094;-43,405365;447,75;2903904
A419;86614;;Poço Verde;POÇO VERDE;SE;-10,73802;-38,108389;367,01;2805505
A420;86615;;Carira;CARIRA;SE;-10,399719;-37,747503;289,92;2801405
A421;86618;;Brejo Grande;BREJO GRANDE;SE;-10,473959;-36,482051;6,11;2800704
A422;86765;;Abrolhos;ABROLHOS;BA;-17,963016;-38,703288;20,93;2906907
A423;81990;;Remanso;REMANSO;BA;-9,625693;-42,077214;397,40;2926004
A424;86635;;Irecê;IRECÊ;BA;-11,328998;-41,864504;768,42;2914604
A425;86654;;Lençois;LENÇOIS;BA;-12,557854;-41,388808;438,09;2900702
A426;86694;;Guanambi;GUANAMBI;BA;-14,2081235;-42,749647;552,23;2911709
A427;86745;;Porto Seguro;PORTO SEGURO;BA;-16,388977;-39,182389;86,36;2925303
A428;86611;;Senhor do Bonfim;SENHOR DO BONFIM;BA;-10,443072;-40,148244;532,09;2930105
A429;86634;;Barra;BARRA;BA;-11,084858;-43,138998;407,50;2902708
A430;86673;;Piatã;PIATÃ;BA;-13,155681;-41,774125;1283,95;2924306
A431;86639;;Conde;CONDE;BA;-12,035833;-37,683889;31,90;2908606
A432;86609;;Buritirama;BURITIRAMA;BA;-10,722925;-43,651203;506,06;2904753
A433;86696;;Brumado;BRUMADO;BA;-14,181886;-41,672281;473,37;2904605
A434;86675;;Amargosa;AMARGOSA;BA;-13,009468;-39,616881;397,80;2901007
A435;81992;;Uaua;UAUA;BA;-9,833617;-39,495631;450,60;2932002
A436;86612;;Queimadas;QUEIMADAS;BA;-10,984645;-39,617009;310,11;2925808
A437;86724;;Una;UNA;BA;-15,280215;-39,09127;74,08;2932507
A438;86677;;Marau;MARAU;BA;-13,90694;-38,97222;6,24;2920700
A439;86653;;Ibotirama;IBOTIRAMA;BA;-12,19306;-43,21342;425,12;2913200
A440;86636;;Jacobina;JACOBINA;BA;-11,205136;-40,464979;440,78;2917508
A441;86637;;Serrinha;SERRINHA;BA;-11,664586;-39,022946;337,79;2930501
A442;86613;;Euclides da Cunha;EUCLIDES DA CUNHA;BA;-10,537233;-38,996605;431,96;2910701
A443;86610;;Delfino;DELFINO;BA;-10,45492;-41,206996;646,24;2932457
A444;86676;;Valença;VALENÇA;BA;-13,34361;-39,12667;93,12;2932903
A445;86698;;Ipiau;IPIAU;BA;-14,171304;-39,692502;132,11;2913903
A446;86723;;Itapetinga;ITAPETINGA;BA;-15,24462;-40,22955;271,48;2916401
A447;86744;;Belmonte;BELMONTE;BA;-16,088049;-39,215389;89,67;2903409
A448;81984;;Curaçá;CURAÇÁ;BA;-9,0013;-39,9124;370,00;2909901
A449;86604;;Pilão Arcado;PILÃO ARCADO;BA;-10,002261;-42,473641;400,00;2924405
A450;86605;;Jeremoabo;JEREMOABO;BA;-10,080722;-38,345961;261,00;2918100
A452;86623;;Formosa do Rio Preto;FORMOSA DO RIO PRETO;BA;-11,0521639;-45,2007694;488,00;2911105
A454;86679;;Macaúbas;MACAÚBAS;BA;-13,038906;-42,61725;574,00;2919801
A455;86760;;Itamaraju;ITAMARAJU;BA;-17,436667;-39,550861;110,00;2915601
A502;86850;;Barbacena;BARBACENA;MG;-21,228373;-43,767703;1168,76;
A505;86796;;Araxá;ARAXÁ;MG;-19,605696;-46,949617;1018,32;
A506;86740;;Montes Claros;MONTES CLAROS;MG;-16,686316;-43,843763;645,87;
A507;86776;;Uberlandia;UBERLANDIA;MG;-18,917072;-48,255657;874,77;
A508;86743;;Almenara;ALMENARA;MG;-16,166773;-40,687756;189,11;
A509;86870;;Monte Verde;CAMANDUCAIA;MG;-22,861604;-46,043365;1544,89;3110509
A510;86824;;Viçosa;VIÇOSA;MG;-20,762607;-42,864013;697,64;3171303
A511;86801;;Timoteo;TIMOTEO;MG;-19,573824;-42,622413;493,42;
A512;86775;;Ituiutaba;ITUIUTABA;MG;-18,952907;-49,525072;540,08;
A513;86823;;Ouro Branco;OURO BRANCO;MG;-20,556592;-43,75622;1048,20;3145901
A514;86849;;São João Del-Rei;SÃO JOÃO DEL-REI;MG;-21,106502;-44,250928;929,88;
A515;86848;;Varginha;VARGINHA;MG;-21,566513;-45,4043;949,78;3170701
A516;86819;;Passos;PASSOS;MG;-20,745237;-46,633916;781,70;3147907
A517;86852;;Muriae;MURIAE;MG;-21,104867;-42,375904;282,79;
A518;86851;;Juiz de Fora;JUIZ DE FORA;MG;-21,769965;-43,364329;936,88;3136702
A519;86793;;Campina Verde;CAMPINA VERDE;MG;-19,53921;-49,518133;559,07;
A520;86794;;Conceição das Alagoas;CONCEIÇÃO DAS ALAGOAS;MG;-19,98586;-48,151574;572,54;
A521;86800;;Belo Horizonte - Pampulha;Belo Horizonte;MG;-19,883945;-43,969397;854,02;
A522;86763;;Serra dos Aimorés;SERRA DOS AIMORES;MG;-17,798799;-40,249933;211,97;
A523;86778;;Patrocionio;PATROCINIO;MG;-18,996684;-46,985935;978,11;
A524;86820;;Formiga;FORMIGA;MG;-20,45493;-45,453825;878,14;
A525;86795;;Sacramento;SACRAMENTO;MG;-19,875271;-47,434102;913,12;
A526;86693;;Montalvania;MONTALVANIA;MG;-14,408228;-44,404123;519,52;
A527;86762;;Teofilo Otoni;TEOFILO OTONI;MG;-17,89284;-41,515423;467,17;
A528;86779;;Tres Marias;TRES MARIAS;MG;-18,200855;-45,459836;931,01;
A529;86873;;Passa Quatro;PASSA QUATRO;MG;-22,395799;-44,961909;1017,10;3147600
A530;86846;;Caldas;CALDAS;MG;-21,918066;-46,382996;1077,34;
A531;86871;;Maria da Fé;MARIA DA FÉ;MG;-22,314567;-45,373049;1281,43;3139904
A532;86783;;Governador Valadares;GOVERNADOR VALADARES;MG;-18,830354;-41,977007;198,24;
A533;86782;;Guanhães;GUANHÃES;MG;-18,786842;-42,942921;852,68;
A534;86803;;Aimorés;AIMORÉS;MG;-19,532768;-41,090801;287,74;
A535;86798;;Florestal;FLORESTAL;MG;-19,885398;-44,416883;753,50;
A536;86797;;Dores do Indaiá;DORES DO INDAIA;MG;-19,481935;-45,593932;721,09;
A537;86781;;Diamantina;DIAMANTINA;MG;-18,231052;-43,648269;1359,25;
A538;86780;;Curvelo;CURVELO;MG;-18,747711;-44,453785;669,48;
A539;86720;;Mocambinho;PORTEIRINHA;MG;-15,085958;-44,016036;454,00;
A540;86784;;Mantena;MANTENA;MG;-18,78062;-40,986505;254,91;
A541;86761;;Capelinha;CAPELINHA;MG;-17,705504;-42,389256;932,06;
A542;86738;;Unai;UNAI;MG;-16,554101;-46,881935;640,85;
A543;86695;;Espinosa;ESPINOSA;MG;-14,912284;-42,808473;565,36;
A544;86718;;Buritis;BURITÍS;MG;-15,524262;-46,435536;894,00;
A545;86759;;Pirapora;PIRAPORA;MG;-17,258064;-44,8356;505,32;
A546;86757;;Guarda-Mor;GUARDA-MOR;MG;-17,561349;-47,199251;997,01;
A547;86739;;São Romão;SÃO ROMÃO;MG;-16,362747;-45,123801;490,29;
A548;86719;;Chapada Gaucha;CHAPADA GAUCHA;MG;-15,300159;-45,617431;873,20;
A549;86722;;Águas Vermelhas;ÁGUAS VERMELHAS;MG;-15,751536;-41,457787;754,07;
A550;86742;;Itaobim;ITAOBIM;MG;-16,575667;-41,485588;271,63;
A551;86721;;Rio Pardo de Minas;RIO PARDO DE MINAS;MG;-15,723139;-42,43575;850,06;
A552;86741;;Salinas;SALINAS;MG;-16,160327;-42,310266;487,14;
A553;86758;;João Pinheiro;JOÃO PINHEIRO;MG;-17,78477;-46,119394;877,05;
A554;86802;;Caratinga;CARATINGA;MG;-19,735757;-42,137146;609,25;
A555;86821;;Ibirité (Rola Moça);IBIRITÉ (ROLA MOÇA);MG;-20,031457;-44,011249;1198,82;
A556;86825;;Manhuaçu;MANHUAÇU;MG;-20,263378;-42,182817;819,47;
A557;86822;;Coronel Pacheco;CORONEL PACHECO;MG;-21,546728;-43,261029;411,14;3119609
A559;86710;;Januária;JANUÁRIA;MG;-15,44808917;-44,36631333;468,00;3135209
A560;86788;;Pompéu;POMPÉU;MG;-19,239555;-45,008187;705,00;3152006
A561;86611;;São Sebastião do Paraiso;SÃO SEBASTIÃO DO PARAISO;MG;-20,909892;-47,114259;845,00;3164704
A569;86790;;Sete Lagoas;SETE LAGOAS;MG;-19,455288;-44,17338;719,00;3167202
A601;86878;;Seropédica-Ecologia Agrícola;SEROPÉDICA;RJ;-22,757868;-43,684843;34,64;
A602;86914;;Rio de Janeiro-Marambaia;MARAMBAIA;RJ;-23,050334;-43,595685;9,16;
A603;86877;;Duque de Caxias - Xerem;DUQUE DE CAXIAS;RJ;-22,589806;-43,282233;24,35;
A604;86854;;Cambuci;CAMBUCI;RJ;-21,587729;-41,958327;59,94;
A605;86883;;Niterói;NITEROI;RJ;-22,90643;-43,133437;10,58;
A606;86892;;Arraial do Cabo;ARRAIAL DO CABO;RJ;-22,975468;-42,02145;3,34;
A607;86855;;Campos;CAMPOS;RJ;-21,714767;-41,344017;16,67;
A608;86891;;Macaé;MACAÉ;RJ;-22,376318;-41,812053;24,61;
A609;86874;;Resende;RESENDE;RJ;-22,450924;-44,444786;438,83;
A610;86876;;Petropolis - Pico do Couto;PETROPOLIS - PICO DO COUTO;RJ;-22,464889;-43,291505;1758,22;
A611;86875;;Valença;VALENÇA;RJ;-22,358094;-43,695656;367,21;
A612;86830;;Vitória;VITORIA;ES;-20,271094;-40,306069;9,00;
A613;86804;;Santa Teresa;SANTA TERESA;ES;-19,988388;-40,579572;975,92;
A614;86805;;Linhares;LINHARES;ES;-19,356923;-40,06868;37,82;
A615;86829;;Alfredo Chaves;ALFREDO CHAVES;ES;-20,636526;-40,741818;14,19;
A616;86786;;São Mateus;SÃO MATEUS;ES;-18,676198;-39,864051;28,66;
A617;86828;;Alegre;ALEGRE;ES;-20,750412;-41,488852;128,68;
A618;86888;;Teresópolis - Parque Nacional;TERESÓPOLIS;RJ;-22,448922;-42,987146;991,44;
A619;86913;;Parati;PARATI;RJ;-23,22354;-44,726863;3,00;
A620;86890;;Campos - São Tomé;CAMPOS DOS GOYTACAZES;RJ;-22,041647;-41,051871;7,18;
A621;86879;;Rio de Janeiro - Vila Militar;RIO DE JANEIRO;RJ;-22,861322;-43,41141;30,43;
A622;86853;;Presidente Kennedy;PRESIDENTE KENNEDY;ES;-21,100805;-41,039395;69,12;
A623;86785;;Nova Venecia;NOVA VENECIA;ES;-18,695265;-40,390572;156,02;
A624;86889;;Nova Friburgo-Salinas;NOVA FRIBURGO;RJ;-22,334839;-42,676932;1065,08;
A625;;;Três Rios;TRÊS RIOS;RJ;-22,098391;-43,208574;305,00;3306008
A626;;;Rio Claro (Passa Três);RIO CLARO (PASSA TRÊS);RJ;-22,65358;-44,040916;516,00;3543907
A652;86887;;Rio de Janeiro-Forte de Copacabana;RIO DE JANEIRO;RJ;-22,988286;-43,190436;25,59;
A654;86884;;Rio de Janeiro-Jacarepaguá;RIO DE JANEIRO;RJ;-22,986979;-43,370102;3,91;
A657;86827;;Afonso Cláudio;AFONSO CLÁUDIO;ES;-20,104194;-41,106861;507,48;
A659;86893;;Silva Jardim;SILVA JARDIM;RJ;-22,645911;-42,415775;19,00;3305604
A667;86885;;Saquarema-Sampaio Correia;SAQUAREMA;RJ;-22,871321;-42,609219;26,00;3305505
A701;86910;;São Paulo-Mirante de Santana;SÃO PAULO;SP;-23,496294;-46,620088;785,64;
A702;86810;;Campo Grande;CAMPO GRANDE;MS;-20,447195;-54,722615;528,47;
A703;86857;;Ponta Porã;PONTA PORÃ;MS;-22,552448;-55,716317;668,00;
A704;86813;;Tres Lagoas;TRÊS LAGOAS;MS;-20,79;-51,7122;328,94;
A705;86865;;Bauru;BAURU;SP;-22,358052;-49,028877;636,17;
A706;86872;;Campos do Jordão;CAMPOS DO JORDÃO;SP;-22,750231;-45,603836;1662,95;
A707;86863;;Presidente Prudente;PRESIDENTE PRUDENTE;SP;-22,119867;-51,408637;431,92;
A708;86818;;Franca;FRANCA;SP;-20,584475;-47,382549;1002,74;
A709;86860;;Ivinhema;IVINHEMA;MS;-22,300421;-53,822895;377,36;
A710;86792;;Paranaíba;PARANAIBA;MS;-19,695517;-51,181769;408,06;
A711;86845;;São Carlos;SAO CARLOS;SP;-21,980353;-47,883927;859,29;
A712;86923;;Iguape;IGUAPE;SP;-24,671654;-47,545896;2,70;
A713;86907;;Sorocaba;SOROCABA;SP;-23,426035;-47,585552;609,33;
A714;86905;;Itapeva;ITAPEVA;SP;-23,981918;-48,885818;743,33;
A715;86906;;São Miguel Arcanjo;SÃO MIGUEL ARCANJO;SP;-23,852022;-48,164817;675,68;
A716;86866;;Ourinhos;OURINHOS;SP;-22,949;-49,894546;443,49;
A717;86768;;Nhumirim;CORUMBA;MS;-18,988681;-56,622868;102,26;
A718;86864;;Rancharia;RANCHARIA;SP;-22,372832;-50,97471;398,75;
A719;86808;;Aquidauana;AQUIDAUANA;MS;-20,47542;-55,784006;151,35;
A720;86770;;Coxim;COXIM;MS;-18,512146;-54,736116;251,48;
A721;86858;;Dourados;DOURADOS;MS;-22,19392;-54,911355;463,30;
A722;86807;;Miranda;MIRANDA;MS;-20,39553;-56,431736;132,49;
A723;86833;;Porto Murtinho;PORTO MURTINHO;MS;-21,70585;-57,886546;78,56;
A724;86767;;Corumbá;CORUMBA;MS;-18,99667;-57,6375;111,73;
A725;86904;;Avaré;AVARÉ;SP;-23,101749;-48,940997;776,36;
A726;86868;;Piracicaba;PIRACICABA;SP;-22,703132;-47,623317;566,46;
A727;86840;;Lins;LINS;SP;-21,666045;-49,734854;460,65;
A728;86911;;Taubaté;TAUBATE;SP;-23,041668;-45,520841;582,26;
A729;86815;;Votuporanga;VOTUPORANGA;SP;-20,403221;-49,966031;510,37;
A730;86772;;Chapadão do Sul;CHAPADÃO DO SUL;MS;-18,802187;-52,60262;820,82;
A731;86834;;Maracajú;MARACAJU;MS;-21,609036;-55,177531;388,94;
A732;86789;;São Gabriel do Oeste;SÃO GABRIEL DO OESTE;MS;-19,42032;-54,553088;646,00;
A733;86814;;Jales;JALES;SP;-20,165025;-50,595134;460,44;
A734;86838;;Valparaiso;VALPARAISO;SP;-21,319138;-50,930158;381,90;
A735;86839;;José Bonifácio;JOSE BONIFACIO;SP;-21,085675;-49,920388;408,35;
A736;86841;;Ariranha;ARIRANHA;SP;-21,132937;-48,840426;525,44;
A737;86843;;Ibitinga;IBITINGA;SP;-21,855567;-48,799717;496,75;
A738;86844;;Casa Branca;CASA BRANCA;SP;-21,78056;-47,07528;734,15;
A739;86869;;Itapira;ITAPIRA;SP;-22,415062;-46,805292;634,89;
A740;86912;;São Luis do Paraitinga;SÃO LUIS DO PARAITINGA;SP;-23,228362;-45,417055;862,30;
A741;86867;;Barra Bonita;BARRA BONITA;SP;-22,471205;-48,557573;533,68;
A742;86791;;Cassilandia;CASSILANDIA;MS;-19,122471;-51,720732;494,72;
A743;86836;;Rio Brilhante;RIO BRILHANTE;MS;-21,77494;-54,528108;324,31;
A745;86924;;Moela;MOELA;SP;-24,047845;-46,26334;32,47;
A746;86922;;Barra do Turvo;BARRA DO TURVO;SP;-24,962819;-48,416379;659,89;
A747;86842;;Pradópolis;PRADOPOLIS;SP;-21,338432;-48,114007;540,41;
A748;86816;;Barretos;BARRETOS;SP;-20,559175;-48,544997;534,36;
A749;86859;;Juti;JUTI;MS;-22,85721;-54,605634;375,18;
A750;86894;;Amambai;AMAMBAI;MS;-23,00253;-55,329357;433,59;
A751;86895;;Sete Quedas;SETE QUEDAS;MS;-23,966893;-55,024227;398,40;
A752;86896;;Itaquirai;ITAQUIRAI;MS;-23,449501;-54,181858;337,82;
A753;86817;;Ituverava;ITUVERAVA;SP;-20,35976;-47,77522;610,58;
A754;86809;;Sidrolandia;SIDROLANDIA;MS;-20,981637;-54,97187;471,43;
A755;86908;;Barueri;BARUERI;SP;-23,52389;-46,86945;776,50;
A756;86812;;Agua Clara;AGUA CLARA;MS;-20,44444;-52,87583;323,63;
A757;86856;;Bela Vista;BELA VISTA;MS;-22,101536;-56,540763;206,09;
A758;86835;;Jardim;JARDIM;MS;-21,478529;-56,137717;252,47;
A759;86837;;Bataguassu;BATAGUASSU;MS;-21,750123;-52,471294;392,13;
A760;86771;;Costa Rica;COSTA RICA;MS;-18,492665;-53,171261;727,34;
A761;86769;;Sonora;SONORA;MS;-17,635277;-54,76047;495,25;
A801;86988;;Porto Alegre;PORTO ALEGRE;RS;-30,053536;-51,174766;41,18;
A802;86995;;Rio Grande;RIO GRANDE;RS;-32,07878;-52,167738;4,92;
A803;86977;;Santa Maria;SANTA MARIA;RS;-29,72496;-53,720469;103,10;
A804;86983;;Santana do Livramento;SANTANA DO LIVRAMENTO;RS;-30,750669;-55,401431;196,00;4317103
A805;86952;;Santo Augusto;SANTO AUGUSTO;RS;-27,854345;-53,791179;489,67;
A806;86958;;Florianopolis-São José;FLORIANOPOLIS;SC;-27,60253;-48,620096;4,87;
A807;86933;;Curitiba;CURITIBA;PR;-25,448688;-49,230602;922,91;
A808;86981;;Torres;TORRES;RS;-29,350359;-49,733263;8,44;
A809;86973;;Uruguaiana;URUGUAIANA;RS;-29,83987;-57,081899;74,29;
A810;86950;;Santa Rosa;SANTA ROSA;RS;-27,890463;-54,480014;272,84;
A811;86993;;Canguçu;CANGUÇU;RS;-31,403299;-52,700699;446,81;
A812;86986;;Caçapava do Sul;CAÇAPAVA DO SUL;RS;-30,545317;-53,46705;420,82;
A813;86978;;Rio Pardo;RIO PARDO;RS;-29,872113;-52,38198;106,99;
A814;86970;;Urussanga;URUSSANGA;SC;-28,532557;-49,315205;40,56;
A815;86969;;São Joaquim;SÃO JOAQUIM;SC;-28,27564;-49,934617;1400,06;
A816;86938;;Novo Horizonte;NOVO HORIZONTE;SC;-26,406499;-52,850366;943,57;
A817;86946;;Indaial;INDAIAL;SC;-26,913704;-49,267978;72,24;
A818;86930;;Ivai;IVAI;PR;-25,010757;-50,853853;803,58;
A819;86921;;Castro;CASTRO;PR;-24,786954;-49,999266;993,60;
A820;86916;;Marechal Candido Rondon;MARECHAL CANDIDO RONDON;PR;-24,533303;-54,019248;392,07;
A821;86903;;Joaquim Távora;JOAQUIM TÁVORA;PR;-23,505266;-49,946387;512,67;
A822;86919;;Nova Tebas;NOVA TEBAS;PR;-24,437346;-51,96302;656,24;
A823;86929;;Inácio Martins;INÁCIO MARTINS;PR;-25,567879;-51,077946;1208,85;
A824;86897;;Icaraima;ICARAIMA;PR;-23,39038;-53,635933;381,29;
A825;86917;;Goioere;GOIOÊRE;PR;-24,15846;-53,030594;452,34;
A826;86975;;Alegrete;ALEGRETE;RS;-29,709083;-55,525486;120,88;
A827;86992;;Bagé;BAGÉ;RS;-31,3478;-54,0133;226,19;
A828;86954;;Erechim;ERECHIM;RS;-27,65771;-52,305805;777,08;
A829;86967;;São José dos Ausentes;SAO JOSE DOS AUSENTES;RS;-28,748634;-50,05788;1228,59;
A830;86960;;São Borja;SÃO BORJA;RS;-28,650092;-56,016291;81,08;
A831;86982;;Quarai;QUARAI;RS;-30,368578;-56,437115;113,05;
A832;86984;;São Gabriel;SÃO GABRIEL;RS;-30,34145;-54,310917;114,89;
A833;86976;;Santiago;SANTIAGO;RS;-29,191599;-54,885653;390,03;
A834;86990;;Tramandai;TRAMANDAI;RS;-30,010268;-50,135887;4,56;
A835;86899;;Maringá;MARINGA;PR;-23,405357;-51,932828;548,51;
A836;86996;;Jaguarão;JAGUARÃO;RS;-32,534825;-53,37586;31,48;
A837;86964;;Soledade;SOLEDADE;RS;-28,859211;-52,542387;660,44;
A838;86989;;Camaquã;CAMAQUÃ;RS;-30,807953;-51,83424;92,30;
A839;86963;;Passo Fundo;PASSO FUNDO;RS;-28,226805;-52,403582;680,67;
A840;86979;;Bento Gonçalves;BENTO GONÇALVES;RS;-29,164581;-51,534202;623,27;
A841;86955;;Joaçaba;JOAÇABA;SC;-27,169268;-51,558963;767,63;
A842;86901;;Nova Fátima;NOVA FÁTIMA;PR;-23,415284;-50,577744;664,31;
A843;86927;;Dois Vizinhos;DOIS VIZINHOS;PR;-25,699063;-53,095273;545,95;
A844;86965;;Lagoa Vemelha;LAGOA VERMELHA;RS;-28,222381;-51,512845;833,83;
A845;86968;;Morro da Igreja (Bom Jardim da Serra);BOM JARDIM DA SERRA;SC;-28,126992;-49,47961;1790,38;
A846;86925;;Foz do Iguaçu;FOZ DO IGUAÇU;PR;-25,601834;-54,483065;235,09;
A847;86935;;Ilha do Mel;ILHA DO MEL;PR;-25,494522;-48,326041;4,01;
A848;86936;;Dionisio Cerqueira;DIONISIO CERQUEIRA;SC;-26,286562;-53,633114;807,54;
A849;86861;;Diamante do Norte;DIAMANTE DO NORTE;PR;-22,639366;-52,890156;368,22;
A850;86862;;Paranapoema;PARANAPOEMA;PR;-22,658273;-52,134526;308,70;
A851;86947;;Itapoá;ITAPOÁ;SC;-26,081303;-48,641774;6,18;
A852;86961;;São Luiz Gonzaga;SÃO LUIZ GONZAGA;RS;-28,417113;-54,962403;245,50;
A853;86962;;Cruz Alta;CRUZ ALTA;RS;-28,60344;-53,673597;426,69;
A854;86951;;Frederico Westphalen;FREDERICO WESTPHALEN;RS;-27,395686;-53,429421;489,42;
A855;86926;;Planalto;PLANALTO;PR;-25,721863;-53,74792;399,10;
A856;86953;;Palmeira das Missões;PALMEIRA DAS MISSÕES;RS;-27,920379;-53,318049;614,11;
A857;86937;;São Miguel do Oeste;SÃO MIGUEL DO OESTE;SC;-26,776699;-53,504541;654,51;
A858;86940;;Xanxerê;XANXERÊ;SC;-26,938666;-52,39809;878,74;
A859;86943;;Caçador;CAÇADOR;SC;-26,819156;-50,98552;944,26;
A860;86956;;Curitibanos;CURITIBANOS;SC;-27,288624;-50,604283;978,10;
A861;86944;;Rio do Campo;RIO DO CAMPO;SC;-26,937526;-50,145445;591,67;
A862;86945;;Rio Negrinho;RIO NEGRINHO;SC;-26,248411;-49,580624;856,89;
A863;86957;;Ituporanga;ITUPORANGA;SC;-27,41841;-49,646874;479,79;
A864;86942;;Major Vieira;MAJOR VIEIRA;SC;-26,393664;-50,363211;799,58;
A865;86932;;Lages;LAGES;SC;-27,802228;-50,335457;952,70;
A866;86972;;Santa Marta;SANTA MARTA;SC;-28,604414;-48,813313;34,36;
A867;86971;;Ararangua;ARARANGUA;SC;-28,931353;-49,49792;2,00;
A868;86948;;Itajai;ITAJAI;SC;-26,950924;-48,762031;9,76;
A869;86898;;Cidade Gaucha;CIDADE GAUCHA;PR;-23,359156;-52,931912;365,79;
A870;86959;;Rancho Queimado;RANCHO QUEIMADO;SC;-27,678507;-49,042027;881,00;4214300
A871;86902;;Japira;JAPIRA;PR;-23,773341;-50,18057;692,88;
A872;86920;;Ventania;VENTANIA;PR;-24,280394;-50,21015;1093,41;
A873;86934;;Morretes;MORRETES;PR;-25,508935;-48,808681;50,31;
A874;86931;;São Mateus do Sul;SÃO MATEUS DO SUL;PR;-25,835604;-50,368994;780,21;
A875;86941;;General Carneiro;GENERAL CARNEIRO;PR;-26,398473;-51,35367;1009,01;
A876;86939;;Clevelandia;CLEVELANDIA;PR;-26,4172;-52,348741;966,06;
A878;86994;;Mostardas;MOSTARDAS;RS;-31,248279;-50,906279;3,82;
A879;86980;;Canela;CANELA;RS;-29,368788;-50,827231;830,93;
A880;86966;;Vacaria;VACARIA;RS;-28,513602;-50,882738;969,89;
A881;86985;;Dom Pedrito;DOM PEDRITO;RS;-30,992475;-54,81527;156,73;
A882;86987;;Teutonia;TEUTONIA;RS;-29,450334;-51,824283;80,41;
A883;86974;;Ibirubá;IBIRUBA;RS;-28,653458;-53,111881;455,27;
A884;86991;;Campo Bom;CAMPO BOM;RS;-29,674293;-51,064042;23,35;
A886;;;Tupanciretã;TUPANCIRETÃ;RS;-29,0893814;-53,82665025;462,00;4322202
A889;;;São Vicente do Sul;SÃO VICENTE DO SUL;RS;-29,702111;-54,694319;134,00;4319802
A894;;;Serafina Corrêa;SERAFINA CORRÊA;RS;-28,704806;-51,870751;545,00;4320404
A899;86998;;Chui;CHUI;RS;-33,742297;-53,372218;7,41;
A901;86705;;Cuiabá;CUIABÁ;MT;-15,559295;-56,062951;241,56;
A902;86682;;Tangará da Serra;TANGARÁ DA SERRA;MT;-14,650117;-57,431556;440,01;
A903;86664;;Sao Jose do Rio Claro;SÃO JOSÉ DO RIO CLARO;MT;-13,453981;-56,677323;339,59;
A904;86645;;Sorriso;SORRISO;MT;-12,555107;-55,722863;379,31;
A905;86662;;Campo Novo dos Parecis;CAMPO NOVO DOS PARECIS;MT;-13,785907;-57,838485;525,41;
A906;81979;;Guarantã do Norte;GUARANTÃ DO NORTE;MT;-9,952594;-54,897834;283,58;5104104
A907;86728;;Rondonópolis;RONDONOPOLIS;MT;-16,462419;-54,580151;289,88;
A908;86686;;Agua Boa;AGUA BOA;MT;-14,016496;-52,21169;440,00;
A909;86749;;Alto Araguaia;ALTO ARAGUAIA;MT;-17,339359;-53,224449;753,28;
A910;81976;;Apiacás;APIACÁS;MT;-9,563392;-57,393578;217,75;
A912;86707;;Campo Verde;CAMPO VERDE;MT;-15,531431;-55,135649;748,27;
A913;86661;;Comodoro;COMODORO;MT;-13,708046;-59,762385;576,87;
A914;86625;;Juara;JUARA;MT;-11,280158;-57,526641;263,43;
A915;86684;;Paranatinga;PARANATINGA;MT;-14,421327;-54,035536;476,91;
A916;86647;;Querência;QUERÊNCIA;MT;-12,627315;-52,220891;360,59;
A917;86626;;Sinop;SINOP;MT;-11,982245;-55,565993;366,57;
A918;86606;;Confresa;CONFRESA;MT;-10,639518;-51,571456;233,28;
A919;81975;;Cotriguaçu;COTRIGUAÇU;MT;-9,906296;-58,572235;265,00;
A920;86624;;Juina;JUINA;MT;-11,375126;-58,774785;365,39;
A921;86628;;São Félix do Araguaia;SÃO FELIX DO ARAGUAIA;MT;-11,619023;-50,727856;201,37;
A922;86701;;Vila Bela da Santissima Trindade;VILA BELA S. TRINDADE;MT;-15,062696;-59,872921;213,00;
A924;81977;;Alta Floresta;Alta Floresta;MT;-10,077262;-56,179221;291,85;
A925;81932;;Porto Velho;PORTO VELHO;RO;-8,793662;-63,845931;86,70;1100205
A926;81978;;Carlinda;CARLINDA;MT;-9,970586;-55,827543;293,71;
A927;86643;;Novo Mundo;NOVO MUNDO;MT;-12,521901;-58,231401;426,20;
A928;86663;;Nova Maringá;NOVA MARINGÁ;MT;-13,038642;-57,092201;334,36;
A929;86665;;Nova Ubiratã;NOVA UBIRATÃ;MT;-13,411105;-54,752144;466,48;
A930;86666;;Gaucha do Norte;GAUCHA DO NORTE;MT;-13,184857;-53,257366;375,87;
A931;86685;;Santo Antonio do Leste;SANTO ANTONIO DO LESTE;MT;-14,927883;-53,883643;664,21;
A932;86729;;Guiratinga;GUIRATINGA;MT;-16,341587;-53,766089;525,43;
A933;86748;;Itiquira;ITIQUIRA;MT;-17,175051;-54,50169;593,12;
A934;86750;;Alto Taquari;ALTO TAQUARI;MT;-17,841011;-53,289474;862,42;
A935;86704;;Porto Estrela;PORTO ESTRELA;MT;-15,324728;-57,225845;147,75;
A936;86703;;Salto do Céu;SALTO DO CÉU;MT;-15,124811;-58,127092;300,83;
A937;86702;;Pontes de Lacerda;PONTES DE LACERDA;MT;-15,234582;-59,346215;272,53;
A938;86642;;Vilhena;VILHENA;RO;-12,734862;-60,157784;583,30;1100304
A939;86622;;Cacoal;CACOAL;RO;-11,445837;-61,434146;183,53;1100049
A940;81970;;Ariquemes;ARIQUEMES;RO;-9,949001;-62,961873;128,44;1100023
A941;86726;;Cáceres;CÁCERES;MT;-16,07474;-57,693047;123,53;
B803;;;Campina da Lagoa;CAMPINA DA LAGOA;PR;-24,570861;-52,800256;598,00;4103909
B804;;;Laranjeiras do Sul;LARANJEIRAS DO SUL;PR;-25,368944;-52,391944;835,00;4113304
B806;86928;;Colombo;COLOMBO;PR;-25,322464;-49,157733;950,00;4105805
C891;89079;;Projeto Criosfera;Projeto CRIOSFERA;AA;-84;-79,4942;1285,00;
F501;86799;;Belo Horizonte - Cercadinho;BELO HORIZONTE;MG;-19,980034;-43,958651;1199,55;
I891;89252;;Comandante Ferraz;COMANDANTE FERRAZ;  ;-62,0853;-58,3925;18,00;
U360;;;Salto;SALTO;UY;-31,438889;-57,980833;41,00;
U460;;;Paso de los Toros;PASO DE LOS TOROS;UY;-32,7989694;-56,5290528;75,48;
U560;86560;;Colonia;COLONIA;UY;-34,451;-57,7675;21,80;
U565;86565;;Rocha;ROCHA;UY;-34,4936;-54,3124;18,16;
