SXBZ96 SSIM 100000
CD_ESTACAO,DATA,VL_LAT,VL_LONG,I005,I005_3,I005_5,I005_10,I005_16,I005_30,I005_90
82106,2016-03-09 0000,-.12,-67.06,74.1,74.1,77.9,115.4,132.1,223.2,
82108,2016-03-09 0000,-.42,-65.03,,,,,,,
82141,2016-03-09 0000,-.73,-48.52,15.2,101.7,109.9,126.2,226.7,424.8,771.3
82167,2016-03-09 0000,-1.45,-61.63,,,,,,,
82184,2016-03-09 0000,-1.73,-52.23,10.1,55.8,57.6,126.1,165.4,238.3,422.7
82188,2016-03-09 0000,-1.68,-50.48,20.4,82.8,91.6,185,281,443,990.3
82191,2016-03-09 0000,-1.43,-48.43,2.6,51.4,126.7,202.1,374.1,613,1274
82194,2016-03-09 0000,-1.08,-46.9,,,,,,,
82212,2016-03-09 0000,-2.53,-66.17,15.8,,,,,,
82243,2016-03-09 0000,-2.42,-54.33,,,,,,,
82246,2016-03-09 0000,-2.63,-54.95,9,9,9,25.1,38.7,52.8,122
82263,2016-03-09 0000,-2.25,-49.5,13.2,105,131.8,256.9,281.5,474.1,887.9
82279,2016-03-09 0000,-2.68,-44.72,,,,,,,
82280,2016-03-09 0000,-2.53,-44.22,21.2,39.4,83.3,94,154.8,216.7,452.6
82303,2016-03-09 0000,-3.47,-68.8,,,,,,,
82326,2016-03-09 0000,-3.84,-62.06,27.4,77.1,85.1,170.9,215.5,344.5,
82331,2016-03-09 0000,-3.1,-60.02,.5,2.5,3.1,42.2,134.6,226.9,505.6
82336,2016-03-09 0000,-3.13,-58.43,0,6.2,10.8,50.4,193.8,349.4,
82353,2016-03-09 0000,-3.22,-52.22,39.9,200.5,208.1,323.7,380.5,493.4,821.4
82361,2016-03-09 0000,-3.77,-49.67,3,43.8,95.8,186,212.4,292.8,786.4
82376,2016-03-09 0000,-3.27,-45.65,23.8,32.2,46.3,112.1,203.9,275.7,447.1
82382,2016-03-09 0000,-3.75,-43.35,2.8,2.8,4.2,20.6,189.3,234.6,536.4
82727,2016-03-09 0000,-7.52,-63.03,,,,,,,
82741,2016-03-09 0000,-7.35,-57.52,,,,,,,
82768,2016-03-09 0000,-7.53,-46.03,0,4.4,31.6,31.6,36.8,,
82816,2016-03-09 0000,-8.72,-67.38,,,,,,,
82825,2016-03-09 0000,-8.77,-63.92,,,,,,,
82861,2016-03-09 0000,-8.27,-49.27,14.7,47,75,92.8,113,132.8,637.9
82863,2016-03-09 0000,-8.97,-48.18,51.6,74.7,96.3,108.7,113.7,121.3,810.6
82927,2016-03-09 0000,-9.91,-58.57,,,,,,,
82970,2016-03-09 0000,-9.1,-45.93,12.7,17.4,53.4,53.4,60.4,73.7,630.6
83319,2016-03-09 0000,-14.7,-52.35,0,1.4,107,114.2,114.2,122.6,
83010,2016-03-09 0000,-11.02,-68.73,,,,,,,
83064,2016-03-09 0000,-10.72,-48.42,10.5,27.6,28.2,42.2,49.9,68.5,590.9
83214,2016-03-09 0000,-10.25,-54.92,12.8,31.8,58.2,105.2,175.2,193.8,
83218,2016-03-09 0000,-12.58,-54.75,,,,,,,
83228,2016-03-09 0000,-12.02,-48.35,7.4,14.2,15.1,29.9,34.8,74.1,570.8
83231,2016-03-09 0000,-12.55,-47.83,,,,,,,
83257,2016-03-09 0000,-13.45,-49.17,,,,,,,
83262,2016-03-09 0000,-13.03,-58.28,,,,,,,
83264,2016-03-09 0000,-12.29,-55.29,,,,,,,
83270,2016-03-09 0000,-13.47,-52.5,11.5,43.7,51.7,77.8,91,175.3,
83276,2016-03-09 0000,-11.42,-58.73,,,,,,,
83302,2016-03-09 0000,-14.25,-59.25,,,,,,,
83309,2016-03-09 0000,-14.4,-56.45,18.3,18.3,63.4,128.3,143.8,202.8,663.2
83310,2016-03-09 0000,-14.82,-56.43,,,,,,,
A726,2016-03-09 0000,-22.7,-47.62,0,.2,8.8,30.8,73.6,191,693
83332,2016-03-09 0000,-14.1,-46.37,0,14,38.7,38.7,55.8,86.9,408.1
83352,2016-03-09 0000,-15.03,-60.05,,,,,,,
83358,2016-03-09 0000,-15.83,-54.38,0,13,17.8,24.6,38.6,187.6,
83360,2016-03-09 0000,-15.6,-56.1,,,,,,,
83361,2016-03-09 0000,-15.62,-56.11,19.5,40.2,40.6,66.7,91.8,,
83364,2016-03-09 0000,-15.78,-56.07,0,56.1,64.7,83.3,149.6,215.9,657.5
83365,2016-03-09 0000,-15.63,-53.83,,,,,,,
83367,2016-03-09 0000,-15.53,-53.08,,,,,,,
83368,2016-03-09 0000,-15.9,-52.23,0,15.1,24.5,55.7,90.3,209.1,696.6
83372,2016-03-09 0000,-15.87,-47.95,,,,,,,
82014,2016-03-09 0000,3.5,-60.17,,,,,,,
82017,2016-03-09 0000,3.84,-51.83,,,,,,,
82026,2016-03-09 0000,2.22,-55.95,,,,,,,
82047,2016-03-09 0000,-3.17,-59.73,,,,,,,
82067,2016-03-09 0000,.61,-69.18,,,,,,,
82092,2016-03-09 0000,.9,-52.02,,,,,,,
82093,2016-03-09 0000,.62,-51.78,,,,,,,
82095,2016-03-09 0000,.7,-51.45,,,,,,,
82098,2016-03-09 0000,-.05,-51.12,4.6,42.6,43,79.1,197.5,408.1,748.3
82100,2016-03-09 0000,.17,-69.93,,,,,,,
82105,2016-03-09 0000,1.03,-67.53,,,,,,,
82418,2016-03-09 0000,-4.95,-66.9,,,,,,,
82445,2016-03-09 0000,-4.28,-55.98,.4,,,,,,
82460,2016-03-09 0000,-4.22,-44.77,.6,11.2,14.2,20.8,52,148.2,506.5
82476,2016-03-09 0000,-4.87,-43.35,13.4,42.2,44.8,,,,
82533,2016-03-09 0000,-5.82,-61.3,10,21.4,52,131.4,170.2,284.6,
82562,2016-03-09 0000,-5.37,-49.13,0,138.5,148.2,153.6,158.5,167.7,653.8
82571,2016-03-09 0000,-5.5,-45.23,11.4,19.2,59.4,59.4,65.5,78.5,423.7
82610,2016-03-09 0000,-6.67,-69.87,0,113.2,120.2,211.4,273.4,395.2,
82659,2016-03-09 0000,-7.2,-48.2,0,9.5,52.6,73.2,127,162.5,599.4
S832,2016-03-09 0000,-24.92,-54.31,,,,,,,
S833,2016-03-09 0000,-25.35,-54.25,,,,,,,
S834,2016-03-09 0000,-24.33,-50.62,,,,,,,
S835,2016-03-09 0000,-24.78,-53.72,,,,,,,
S836,2016-03-09 0000,-23.73,-53.28,,,,,,,
S837,2016-03-09 0000,-26.23,-51.07,,,,,,,
83035,2016-03-09 0000,-23.58,-46.6,,,,,,,
83060,2016-03-09 0000,-22.4,-50.57,,,,,,,
83074,2016-03-09 0000,-23.53,-46.25,,,,,,,
83081,2016-03-09 0000,-23.38,-46.63,,,,,,,
83204,2016-03-09 0000,-23.42,-47.58,,,,,,,
83271,2016-03-09 0000,-22.7,-47.3,,,,,,,
83512,2016-03-09 0000,-18.5,-54.77,,,,,,,
83608,2016-03-09 0000,-20.47,-55.8,,,,,,,
83611,2016-03-09 0000,-20.45,-54.62,,,,,,,
A724,2016-03-09 0000,-19,-57.64,,,,,,,
83539,2016-03-09 0000,-18.95,-47,,,,,,,
A552,2016-03-09 0000,-16.16,-42.31,0,.4,4.6,4.6,4.6,9.4,397.4
A539,2016-03-09 0000,-15.09,-44.02,0,15.6,18,18,18,21.6,434.2
A218,2016-03-09 0000,-2.59,-42.71,,,,,,,
83620,2016-03-09 0000,-20.63,-51.1,,,,,,,
83625,2016-03-09 0000,-20.55,-48.57,,,,,,,
83626,2016-03-09 0000,-20.72,-48.55,,,,,,,
83627,2016-03-09 0000,-20.95,-48.48,,,,,,,
83629,2016-03-09 0000,-20,-47.77,,,,,,,
83630,2016-03-09 0000,-20.58,-47.37,0,56.7,102.6,208.2,235,309.2,980
83651,2016-03-09 0000,-23.48,-47.45,,,,,,,
83654,2016-03-09 0000,-21.72,-57.88,,,,,,,
83659,2016-03-09 0000,-22.23,-54.98,,,,,,,
83665,2016-03-09 0000,-21.43,-48.82,,,,,,,
83666,2016-03-09 0000,-21.78,-48.17,,,,,,,
83669,2016-03-09 0000,-21.48,-47.55,.6,.6,42.6,52.1,63.3,255.8,807.6
83670,2016-03-09 0000,-21.67,-47.5,,,,,,,
83409,2016-03-09 0000,-16.35,-53.93,,,,,,,
83242,2016-03-09 0000,-12.56,-41.39,0,0,.5,.5,.5,.6,607.6
A307,2016-03-09 0000,-9.39,-40.49,0,0,.4,.4,.4,12.2,321
83672,2016-03-09 0000,-21.2,-50.43,,,,,,,
83674,2016-03-09 0000,-21.8,-49.75,,,,,,,
83701,2016-03-09 0000,-22.1,-56.53,,,,,,,
83702,2016-03-09 0000,-22.55,-55.72,,,,,,,
83705,2016-03-09 0000,-22.73,-45.58,,,,,,,
83709,2016-03-09 0000,-22.6,-45.17,,,,,,,
83710,2016-03-09 0000,-22.72,-44.53,,,,,,,
83711,2016-03-09 0000,-22.6,-44.47,,,,,,,
83712,2016-03-09 0000,-22.7,-44.32,,,,,,,
83713,2016-03-09 0000,-22.63,-44.65,,,,,,,
A859,2016-03-09 0000,-26.82,-50.99,0,0,0,0,0,1.6,176.8
A860,2016-03-09 0000,-27.29,-50.6,45.2,45.4,47.6,146.2,176,238.4,593.4
83522,2016-03-09 0000,-17.72,-48.17,6.9,7.1,56.7,119.6,125.3,276.3,736
A861,2016-03-09 0000,-26.94,-50.15,6.4,6.6,28,132.2,205.6,388.6,929.2
83714,2016-03-09 0000,-22.75,-45.6,25.1,25.4,,,,,
83715,2016-03-09 0000,-23.6,-46.93,,,,,,,
83717,2016-03-09 0000,-22.65,-50.42,,,,,,,
83720,2016-03-09 0000,-22.72,-47.63,,,,,,,
83722,2016-03-09 0000,-22.34,-49.05,0,0,0,47,94,,
83724,2016-03-09 0000,-22.87,-48.45,,,,,,,
83725,2016-03-09 0000,-22.27,-48.12,,,,,,,
83726,2016-03-09 0000,-21.97,-47.87,,,,,,,
83731,2016-03-09 0000,-22.17,-46.73,,,,,,,
83734,2016-03-09 0000,-22.57,-44.95,,,,,,,
83770,2016-03-09 0000,-23.42,-47.58,,,,,,,
83771,2016-03-09 0000,-23.62,-49.57,,,,,,,
83772,2016-03-09 0000,-23.52,-46.22,,,,,,,
83774,2016-03-09 0000,-23.95,-48.88,,,,,,,
83776,2016-03-09 0000,-23.58,-48.05,,,,,,,
83782,2016-03-09 0000,-23.93,-46.33,,,,,,,
83784,2016-03-09 0000,-23.03,-45.55,,,,,,,
83786,2016-03-09 0000,-23.45,-45.07,,,,,,,
83809,2016-03-09 0000,-23.22,-45.85,,,,,,,
83810,2016-03-09 0000,-23.45,-45.87,,,,,,,
83812,2016-03-09 0000,-23.35,-47.85,,,,,,,
83817,2016-03-09 0000,-23.83,-46.37,,,,,,,
83819,2016-03-09 0000,-23.72,-46.53,,,,,,,
83821,2016-03-09 0000,-24.72,-47.55,,,,,,,
82676,2016-03-09 0000,-6.03,-44.25,30,48,110,110,121.4,169.4,360
A719,2016-03-09 0000,-20.48,-55.78,0,.4,.6,45,106,181.4,697.6
A720,2016-03-09 0000,-18.51,-54.74,,,,,,,
83526,2016-03-09 0000,-18.18,-47.95,1.8,1.8,8.3,101.2,146.1,353,792.2
83016,2016-03-09 0000,-10.79,-65.28,,,,,,,
83033,2016-03-09 0000,-10.19,-48.3,12.9,15.2,21.2,23.5,24.1,30.4,578.4
82979,2016-03-09 0000,-9.63,-42.1,0,0,7.3,7.3,7.3,52.3,450.8
82985,2016-03-09 0000,-9.83,-39.88,,,,,,,
83076,2016-03-09 0000,-11.02,-44.52,0,0,9,9,9,16.8,874.4
83088,2016-03-09 0000,-10.47,-40.18,,,,,,,
83090,2016-03-09 0000,-10.44,-39.33,0,0,0,.2,.2,17,252.2
83097,2016-03-09 0000,-10.21,-36.84,17.4,17.4,19.6,26,26.7,47.3,156.1
83182,2016-03-09 0000,-11.3,-41.87,0,0,9.2,9.2,9.2,10.6,341.3
83190,2016-03-09 0000,-11.63,-38.97,0,0,0,0,5.6,44.9,312
83192,2016-03-09 0000,-11.08,-38.52,0,0,0,0,1.2,12.2,196.2
83194,2016-03-09 0000,-11.48,-37.93,,,,,,,
83195,2016-03-09 0000,-11.27,-37.79,.3,1.3,1.3,19.4,20.6,50.4,309.8
83221,2016-03-09 0000,-12.2,-38.97,0,0,0,0,0,,
83223,2016-03-09 0000,-12.62,-38.67,,,,,,,
83225,2016-03-09 0000,-12.53,-38.3,,,,,,,
83226,2016-03-09 0000,-12.67,-38.32,,,,,,,
83227,2016-03-09 0000,-12.88,-38.68,,,,,,,
83230,2016-03-09 0000,-12.97,-38.5,,,,,,,
83238,2016-03-09 0000,-12.68,-43.2,,,,,,,
S825,2016-03-09 0000,-23.08,-52.43,,,,,,,
83247,2016-03-09 0000,-12.43,-38.97,,,,,,,
83249,2016-03-09 0000,-12.15,-38.43,0,.8,.8,1.9,1.9,12.7,149.8
83292,2016-03-09 0000,-13.81,-41.3,0,0,0,0,0,0,
83297,2016-03-09 0000,-12.97,-39.27,,,,,,,
83339,2016-03-09 0000,-14.07,-42.48,0,0,0,0,0,14,438.6
83344,2016-03-09 0000,-14.88,-40.8,0,0,0,3,3,4.3,220.3
83348,2016-03-09 0000,-14.8,-39.07,,,,,,,
83373,2016-03-09 0000,-15.93,-47.88,,,,,,,
A722,2016-03-09 0000,-20.38,-56.42,0,1.6,4.2,31.6,64.4,140.4,656.4
S826,2016-03-09 0000,-26.12,-52.68,,,,,,,
S827,2016-03-09 0000,-25.42,-49.13,,,,,,,
S829,2016-03-09 0000,-25.22,-50.02,,,,,,,
S830,2016-03-09 0000,-25.52,-53.48,,,,,,,
S831,2016-03-09 0000,-25.52,-53.02,,,,,,,
82287,2016-03-09 0000,-3.08,-41.77,6.6,6.6,6.9,18.2,42,68.5,
82294,2016-03-09 0000,-2.88,-40.13,,,,,,,
82390,2016-03-09 0000,-3.62,-41.07,,,,,,,
82396,2016-03-09 0000,-3.73,-38.55,,,,,,,
A441,2016-03-09 0000,-11.66,-39.02,0,0,0,0,14.2,55.6,301
82590,2016-03-09 0000,-5.62,-37.82,0,0,13.4,28.9,32,45.4,
82591,2016-03-09 0000,-5.2,-37.3,,,,,,,
82597,2016-03-09 0000,-5.82,-35.33,,,,,,,
A012,2016-03-09 0000,-16.27,-47.97,55.8,57.8,67.4,89,131.8,195.2,778.2
A407,2016-03-09 0000,-13.53,-40.12,0,.2,.6,1,2.4,17.2,220.4
82605,2016-03-09 0000,-5.2,-42.25,,,,,,,
82669,2016-03-09 0000,-5.8,-42.17,,,,,,,
A934,2016-03-09 0000,-17.82,-53.29,9.6,18.2,111.6,113.8,138.4,277.6,1019.2
83574,2016-03-09 0000,-20.03,-48.93,,,,,,,
A512,2016-03-09 0000,-18.95,-49.52,,,,,,,
82785,2016-03-09 0000,-7.2,-39.32,,,,,,,
82792,2016-03-09 0000,-7.88,-37.07,0,0,19,28,42.4,55.2,
82798,2016-03-09 0000,-7.1,-34.87,0,.4,.6,13.5,25.3,103.3,
82799,2016-03-09 0000,-7.55,-34.98,,,,,,,
A825,2016-03-09 0000,-24.16,-53.03,,,,,,,
S823,2016-03-09 0000,-24.88,-52.22,,,,,,,
S824,2016-03-09 0000,-24.3,-53.92,,,,,,,
A871,2016-03-09 0000,-23.77,-50.18,0,0,0,1.2,85.4,185,651.4
82870,2016-03-09 0000,-8.42,-43.72,,,,,,,
82882,2016-03-09 0000,-8.13,-41.13,0,0,12,12,12,14,
82886,2016-03-09 0000,-8.52,-39.33,0,0,0,0,0,38.2,
82887,2016-03-09 0000,-8.6,-38.57,,,,,,,
82890,2016-03-09 0000,-8.43,-37.05,0,0,0,0,26.6,68.6,
82683,2016-03-09 0000,-6,-40.42,23.8,23.8,24.2,24.2,24.2,41.9,
82684,2016-03-09 0000,-7.85,-41.9,,,,,,,
82689,2016-03-09 0000,-6.75,-38.22,1.8,15.9,15.9,16.1,32.2,,
A752,2016-03-09 0000,-23.45,-54.18,0,.6,1.8,6.8,72.4,111.6,503
82696,2016-03-09 0000,-6.97,-35.68,0,0,3.4,25.1,34.4,50,
82697,2016-03-09 0000,-6.85,-35.48,,,,,,,
82698,2016-03-09 0000,-6.42,-35.4,,,,,,,
82753,2016-03-09 0000,-7.9,-40.05,0,0,1.4,1.4,1.4,1.9,
82771,2016-03-09 0000,-7.23,-44.55,,,,,,,
82779,2016-03-09 0000,-7.7,-35.67,,,,,,,
82781,2016-03-09 0000,-7.73,-35.25,,,,,,,
83822,2016-03-09 0000,-24.18,-46.78,,,,,,,
83823,2016-03-09 0000,-23.92,-46.42,,,,,,,
83376,2016-03-09 0000,-15.85,-48.97,5.5,35.1,58,136.2,164.9,255,990.2
83379,2016-03-09 0000,-15.55,-47.34,0,1.3,1.3,21,21,101.1,590.9
83380,2016-03-09 0000,-15.78,-47.93,,,,,,,
83412,2016-03-09 0000,-17.32,-53.2,,,,,,,
83423,2016-03-09 0000,-16.67,-49.25,.2,15.3,18.3,85.6,87.7,191.2,852
83427,2016-03-09 0000,-16.27,-47.93,,,,,,,
83467,2016-03-09 0000,-17.57,-52.55,,,,,,,
83615,2016-03-09 0000,-20.43,-52.87,,,,,,,
83621,2016-03-09 0000,-20.92,-51.38,,,,,,,
83664,2016-03-09 0000,-21.17,-48.9,,,,,,,
83667,2016-03-09 0000,-21.13,-47.98,,,,,,,
83668,2016-03-09 0000,-21.18,-47.72,,,,,,,
83678,2016-03-09 0000,-21.25,-48.3,,,,,,,
83679,2016-03-09 0000,-21.18,-47.8,,,,,,,
83680,2016-03-09 0000,-21.47,-47,,,,,,,
83707,2016-03-09 0000,-22.92,-45.5,,,,,,,
83723,2016-03-09 0000,-22.28,-48.57,,,,,,,
83728,2016-03-09 0000,-22.57,-47.42,,,,,,,
83729,2016-03-09 0000,-22.9,-47.08,,,,,,,
83730,2016-03-09 0000,-22.68,-46.72,,,,,,,
83777,2016-03-09 0000,-23.12,-47.72,,,,,,,
83740,2016-03-09 0000,-22.77,-43.68,,,,,,,
83768,2016-03-09 0000,-23.33,-51.14,,,,,,,
83818,2016-03-09 0000,-23.93,-46.3,,,,,,,
83827,2016-03-09 0000,-25.6,-54.48,14,,,,,,
83840,2016-03-09 0000,-25.53,-49.18,5,5,5,,,,
83875,2016-03-09 0000,-26.47,-49.08,,,,,,,
83877,2016-03-09 0000,-27.2,-49.67,,,,,,,
83878,2016-03-09 0000,-27.78,-54.23,,,,,,,
83879,2016-03-09 0000,-27.45,-53.93,,,,,,,
83882,2016-03-09 0000,-27.18,-52.05,,,,,,,
83893,2016-03-09 0000,-27.88,-50.7,,,,,,,
83895,2016-03-09 0000,-27.3,-48.35,,,,,,,
83899,2016-03-09 0000,-27.67,-48.55,,,,,,,
83917,2016-03-09 0000,-28.82,-51.28,,,,,,,
83928,2016-03-09 0000,-29.78,-57.04,0,0,0,27,32,,
83935,2016-03-09 0000,-29.23,-53.68,,,,,,,
83937,2016-03-09 0000,-29.71,-53.69,4,4,19,35.5,39.7,,
83960,2016-03-09 0000,-30.07,-51.22,,,,,,,
83970,2016-03-09 0000,-31.25,-50.9,,,,,,,
83971,2016-03-09 0000,-29.99,-51.17,8,8,8,,,,
83976,2016-03-09 0000,-30.87,-53.12,,,,,,,
83981,2016-03-09 0000,-31.39,-54.11,,,,,,,
83998,2016-03-09 0000,-33.75,-53.37,,,,,,,
83599,2016-03-09 0000,-24.05,-46.27,,,,,,,
82276,2016-03-09 0000,-2.37,-44.39,,,,,,,
83816,2016-03-09 0000,-23.37,-47.87,,,,,,,
83760,2016-03-09 0000,-23.58,-46.88,,,,,,,
82022,2016-03-09 0000,2.84,-60.69,0,0,0,.4,3.4,,
A810,2016-03-09 0000,-27.89,-54.48,24.4,24.4,24.4,46.8,69,147.4,864
A823,2016-03-09 0000,-25.57,-51.09,52.4,52.4,52.4,80.4,193,304,739.8
82296,2016-03-09 0000,-3.42,-42.28,,,,,,,
82400,2016-03-09 0000,-3.85,-32.42,0,3,32,67,129,,
82474,2016-03-09 0000,-4.28,-41.8,,,,,,,
82486,2016-03-09 0000,-4.97,-39.02,,,,,,,
82491,2016-03-09 0000,-4.57,-37.77,,,,,,,
82578,2016-03-09 0000,-5.08,-42.82,,,,,,,
S821,2016-03-09 0000,-23.45,-51.98,,,,,,,
S822,2016-03-09 0000,-26.47,-51.97,,,,,,,
82895,2016-03-09 0000,-8.28,-35.97,,,,,,,
82897,2016-03-09 0000,-8.17,-35.18,,,,,,,
82898,2016-03-09 0000,-8.02,-34.85,,,,,,,
82975,2016-03-09 0000,-9.14,-44.32,0,0,12,12,21,39.4,
82987,2016-03-09 0000,-9.07,-38.32,,,,,,,
82988,2016-03-09 0000,-9.12,-37.73,,,,,,,
83536,2016-03-09 0000,-18.75,-44.45,,,,,,,
A015,2016-03-09 0000,-14.98,-49.54,.2,24,60.6,69,71,123.6,
A402,2016-03-09 0000,-12.15,-45.02,0,0,39.2,39.2,39.2,45.4,662.4
A619,2016-03-09 0000,-23.22,-44.73,0,9.6,10.6,135.4,160.4,426.2,928
83824,2016-03-09 0000,-23.27,-47.28,,,,,,,
83843,2016-03-09 0000,-23.38,-46.63,,,,,,,
83845,2016-03-09 0000,-25.02,-47.93,,,,,,,
83846,2016-03-09 0000,-23.25,-45.7,,,,,,,
83847,2016-03-09 0000,-23.42,-45.65,,,,,,,
83848,2016-03-09 0000,-23.47,-45.3,,,,,,,
83849,2016-03-09 0000,-23.12,-45.13,,,,,,,
83850,2016-03-09 0000,-23.77,-45.8,,,,,,,
83852,2016-03-09 0000,-23.43,-45.1,,,,,,,
83854,2016-03-09 0000,-26.25,-53.62,,,,,,,
83855,2016-03-09 0000,-22.57,-46.63,,,,,,,
83856,2016-03-09 0000,-23.45,-46.65,,,,,,,
83857,2016-03-09 0000,-22.97,-45.55,,,,,,,
83859,2016-03-09 0000,-22.72,-47.55,,,,,,,
83785,2016-03-09 0000,-23.82,-45.42,,,,,,,
83721,2016-03-09 0000,-23,-47.13,.4,3.5,10.1,83.1,,,
83559,2016-03-09 0000,-19.42,-54.58,,,,,,,
83075,2016-03-09 0000,-23.43,-46.47,,,,,,,
83084,2016-03-09 0000,-23.53,-46.63,,,,,,,
83513,2016-03-09 0000,-18.99,-56.62,,,,,,,
83017,2016-03-09 0000,-22.53,-44.57,,,,,,,
83023,2016-03-09 0000,-21.23,-45,,,,,,,
83025,2016-03-09 0000,-25.87,-50.38,,,,,,,
83027,2016-03-09 0000,-21.38,-42.68,,,,,,,
83031,2016-03-09 0000,-22.98,-43.53,,,,,,,
83034,2016-03-09 0000,-19.87,-40.87,,,,,,,
83452,2016-03-09 0000,-16.77,-43.67,,,,,,,
83531,2016-03-09 0000,-18.52,-46.44,0,41.3,58,77.7,77.7,141.7,687
83533,2016-03-09 0000,-19.72,-45.37,,,,,,,
83541,2016-03-09 0000,-18.42,-42.78,,,,,,,
83542,2016-03-09 0000,-18.77,-42.93,,,,,,,
83543,2016-03-09 0000,-18.85,-41.93,,,,,,,
83546,2016-03-09 0000,-18.35,-40.83,,,,,,,
83547,2016-03-09 0000,-18.68,-40.42,,,,,,,
83548,2016-03-09 0000,-18.6,-39.73,,,,,,,
A615,2016-03-09 0000,-20.64,-40.74,0,0,40.8,44.8,51,68.6,320
A616,2016-03-09 0000,-18.71,-39.85,0,2.8,2.8,3.8,4,9.6,205.6
83555,2016-03-09 0000,-19.02,-40.57,,,,,,,
83557,2016-03-09 0000,-18.54,-40.27,,,,,,,
83570,2016-03-09 0000,-19.23,-45,,,,,,,
83578,2016-03-09 0000,-20.02,-44.35,,,,,,,
83579,2016-03-09 0000,-19.61,-46.95,0,30,75.3,89.8,108.3,165.7,781.1
83580,2016-03-09 0000,-19.93,-43.93,,,,,,,
83581,2016-03-09 0000,-19.89,-44.42,,,,,,,
83583,2016-03-09 0000,-19.85,-43.95,0,0,,,,,
83585,2016-03-09 0000,-19.68,-44.77,,,,,,,
83586,2016-03-09 0000,-19.49,-44.17,0,2.8,61.9,70.2,103,119.2,556.2
83587,2016-03-09 0000,-19.93,-43.95,0,1.8,24.8,72.5,135.8,239.7,648.1
83588,2016-03-09 0000,-19.66,-43.9,.1,2.1,35.1,35.1,63.1,,
83590,2016-03-09 0000,-19.62,-43.22,,,,,,,
83591,2016-03-09 0000,-19.82,-43.14,,,,,,,
83592,2016-03-09 0000,-19.74,-42.14,0,11.9,90.7,97.7,103.2,107.8,412.1
83593,2016-03-09 0000,-19.52,-42.62,,,,,,,
83594,2016-03-09 0000,-19.48,-42.53,,,,,,,
83595,2016-03-09 0000,-19.49,-41.08,,,,,,,
83596,2016-03-09 0000,-19.41,-40.54,,,,,,,
83602,2016-03-09 0000,-19.9,-44.1,,,,,,,
83605,2016-03-09 0000,-19.93,-43.93,,,,,,,
83086,2016-03-09 0000,-24.88,-54.38,,,,,,,
83613,2016-03-09 0000,-19.5,-42.63,,,,,,,
83631,2016-03-09 0000,-20.92,-47.12,,,,,,,
83632,2016-03-09 0000,-20.02,-44.08,,,,,,,
83636,2016-03-09 0000,-21.03,-44.78,,,,,,,
83638,2016-03-09 0000,-20.5,-43.7,,,,,,,
83639,2016-03-09 0000,-20.52,-41.9,0,0,30.2,52.4,52.6,89.1,336.7
83640,2016-03-09 0000,-20.35,-43.67,,,,,,,
83641,2016-03-09 0000,-20.38,-43.5,,,,,,,
A617,2016-03-09 0000,-20.75,-41.49,0,0,20,33.2,33.2,62.4,290.8
83642,2016-03-09 0000,-20.76,-42.86,0,0,10.4,23.4,25,74.4,509.5
83643,2016-03-09 0000,-20.38,-42.87,,,,,,,
83464,2016-03-09 0000,-17.92,-51.72,0,40.5,90.9,187.1,187.2,305.2,756.2
83479,2016-03-09 0000,-17.24,-46.88,.6,22.3,88.1,90.1,90.1,136.1,
83482,2016-03-09 0000,-18.63,-48.18,,,,,,,
83483,2016-03-09 0000,-17.35,-44.92,0,19.9,,,,,
83485,2016-03-09 0000,-17.53,-43,,,,,,,
83488,2016-03-09 0000,-17.86,-42.85,0,26.9,52.6,52.6,53,80.3,579.1
83490,2016-03-09 0000,-18.02,-41.02,,,,,,,
83495,2016-03-09 0000,-18.12,-40.5,,,,,,,
83500,2016-03-09 0000,-17.78,-40.25,,,,,,,
83501,2016-03-09 0000,-17.93,-40.28,,,,,,,
83514,2016-03-09 0000,-18.73,-49.56,0,28.9,32.7,56.1,60.1,128.2,710.5
83521,2016-03-09 0000,-18.95,-49.52,,,,,,,
83523,2016-03-09 0000,-18.42,-49.22,,,,,,,
83524,2016-03-09 0000,-18.87,-48.87,,,,,,,
83527,2016-03-09 0000,-18.92,-48.26,,,,,,,
83036,2016-03-09 0000,-19.81,-40.67,,,,,,,
83037,2016-03-09 0000,-21.57,-43.25,,,,,,,
83038,2016-03-09 0000,-19.82,-40.25,,,,,,,
83039,2016-03-09 0000,-19.9,-43.92,,,,,,,
83040,2016-03-09 0000,-22.2,-46.62,,,,,,,
83041,2016-03-09 0000,-22.95,-53.12,,,,,,,
A612,2016-03-09 0000,-20.27,-40.3,0,0,16.6,16.6,16.6,28.6,298.6
83043,2016-03-09 0000,-20.63,-40.73,,,,,,,
83045,2016-03-09 0000,-20.38,-41.18,,,,,,,
83046,2016-03-09 0000,-26.4,-49.38,,,,,,,
83048,2016-03-09 0000,-22.71,-42.65,,,,,,,
83049,2016-03-09 0000,-22.35,-43.42,,,,,,,
83052,2016-03-09 0000,-22.35,-43.7,,,,,,,
83054,2016-03-09 0000,-22.99,-43.37,0,.9,.9,,,,
83057,2016-03-09 0000,-22.38,-41.77,,,,,,,
83058,2016-03-09 0000,-23.6,-47.1,,,,,,,
83061,2016-03-09 0000,-19.83,-42.63,,,,,,,
83062,2016-03-09 0000,-24.3,-53.92,,,,,,,
83609,2016-03-09 0000,-20.2,-50.92,,,,,,,
83071,2016-03-09 0000,-26.55,-52.57,,,,,,,
83072,2016-03-09 0000,-20.15,-43.4,,,,,,,
A835,2016-03-09 0000,-23.41,-51.92,0,0,0,7,42,229.6,677.8
83077,2016-03-09 0000,-25.98,-49.68,,,,,,,
83080,2016-03-09 0000,-25.33,-49.23,,,,,,,
83083,2016-03-09 0000,-20.02,-44.35,,,,,,,
83087,2016-03-09 0000,-22.28,-43.03,,,,,,,
83089,2016-03-09 0000,-22.92,-42.83,,,,,,,
83098,2016-03-09 0000,-10.15,-36.17,,,,,,,
83111,2016-03-09 0000,-22.52,-44.1,,,,,,,
83114,2016-03-09 0000,-22.83,-42.18,,,,,,,
83160,2016-03-09 0000,-11.75,-49.08,,,,,,,
83208,2016-03-09 0000,-12.7,-60.09,,,,,,,
83334,2016-03-09 0000,-14.95,-46.24,0,31.4,77,95.8,98.4,180.2,645.5
83337,2016-03-09 0000,-14.73,-43.97,,,,,,,
83340,2016-03-09 0000,-14.37,-44.45,,,,,,,
83350,2016-03-09 0000,-15.22,-49,,,,,,,
83383,2016-03-09 0000,-15.62,-46.42,,,,,,,
83384,2016-03-09 0000,-15.92,-46.11,1.3,89.4,134.3,134.6,134.6,184.2,643.6
83385,2016-03-09 0000,-15.95,-44.87,,,,,,,
83386,2016-03-09 0000,-15.45,-44,0,.9,50.4,50.4,50.4,59.3,520
83388,2016-03-09 0000,-15.16,-42.87,,,,,,,
83394,2016-03-09 0000,-15.25,-45.27,,,,,,,
83395,2016-03-09 0000,-15.8,-43.3,0,2.8,2.8,2.8,2.8,4.5,394.5
83401,2016-03-09 0000,-15.5,-45.17,,,,,,,
83419,2016-03-09 0000,-16.24,-48.97,0,10,27,65.6,66,,
83428,2016-03-09 0000,-16.37,-46.89,1,3.5,20.5,57.2,57.2,64.8,598.6
83432,2016-03-09 0000,-16.57,-45.93,,,,,,,
83435,2016-03-09 0000,-16.37,-45.07,,,,,,,
83437,2016-03-09 0000,-16.69,-43.84,0,15.8,20,20,20,26.6,522.3
83438,2016-03-09 0000,-17.1,-43.8,,,,,,,
83439,2016-03-09 0000,-16.58,-42.9,,,,,,,
83440,2016-03-09 0000,-17.23,-42.58,,,,,,,
83441,2016-03-09 0000,-16.15,-42.29,0,.3,.3,.3,.3,5.4,356.8
83442,2016-03-09 0000,-16.83,-42.05,0,0,0,0,4.3,14,437.6
83444,2016-03-09 0000,-16.43,-41.02,,,,,,,
83796,2016-03-09 0000,-22.97,-43.22,,,,,,,
83798,2016-03-09 0000,-22.92,-43.18,,,,,,,
83799,2016-03-09 0000,-22.97,-43.25,,,,,,,
83801,2016-03-09 0000,-22.87,-43.44,,,,,,,
83802,2016-03-09 0000,-22.73,-43.3,,,,,,,
83803,2016-03-09 0000,-22.9,-43.12,,,,,,,
83804,2016-03-09 0000,-22.52,-43.18,,,,,,,
83805,2016-03-09 0000,-21.54,-42.16,,,,,,,
83806,2016-03-09 0000,-22.45,-42.93,,,,,,,
83807,2016-03-09 0000,-21.94,-42.61,,,,,,,
83811,2016-03-09 0000,-25,-50.85,12.4,12.4,,,,,
83813,2016-03-09 0000,-24.78,-50,11.9,11.9,,,,,
83814,2016-03-09 0000,-24.25,-49.7,,,,,,,
83815,2016-03-09 0000,-22.92,-43.18,,,,,,,
83826,2016-03-09 0000,-25.55,-54.57,,,,,,,
83828,2016-03-09 0000,-24.4,-53.73,,,,,,,
83830,2016-03-09 0000,-24.93,-53.43,,,,,,,
83834,2016-03-09 0000,-25.4,-51.47,,,,,,,
83836,2016-03-09 0000,-25.47,-50.63,2.2,2.2,2.2,34.2,68.9,173.5,386.7
83837,2016-03-09 0000,-25.1,-50.17,,,,,,,
83839,2016-03-09 0000,-25.47,-49.43,,,,,,,
83844,2016-03-09 0000,-25.53,-48.52,0,56,65.7,126,138.8,555.9,1159.3
83858,2016-03-09 0000,-26.85,-52.4,,,,,,,
83860,2016-03-09 0000,-26.48,-51.98,,,,,,,
83862,2016-03-09 0000,-26.73,-53.58,,,,,,,
83864,2016-03-09 0000,-26.23,-51.07,,,,,,,
83865,2016-03-09 0000,-26.25,-50.8,,,,,,,
83867,2016-03-09 0000,-26.1,-49.8,,,,,,,
83869,2016-03-09 0000,-26.13,-49.25,,,,,,,
83870,2016-03-09 0000,-26.82,-49.27,,,,,,,
83871,2016-03-09 0000,-26.92,-49.05,,,,,,,
83872,2016-03-09 0000,-26.9,-49.22,0,0,,,,,
83873,2016-03-09 0000,-27.05,-50.93,,,,,,,
83874,2016-03-09 0000,-26.25,-48.65,,,,,,,
83876,2016-03-09 0000,-27.87,-54.43,,,,,,,
83880,2016-03-09 0000,-27.88,-53.43,,,,,,,
83881,2016-03-09 0000,-27.18,-53.23,,,,,,,
83883,2016-03-09 0000,-27.09,-52.64,0,0,0,62.3,121.7,194.6,661.4
83885,2016-03-09 0000,-27.45,-51.9,,,,,,,
83886,2016-03-09 0000,-27.17,-51.45,,,,,,,
83890,2016-03-09 0000,-27.25,-50.58,,,,,,,
83891,2016-03-09 0000,-27.8,-50.34,3,3,3.5,75.6,115.1,194.1,562.1
83892,2016-03-09 0000,-27.85,-55.02,,,,,,,
83941,2016-03-09 0000,-29.15,-51.52,,,,,,,
83942,2016-03-09 0000,-29.2,-51.19,.3,.3,6.7,59.6,65.5,155.9,545.3
83943,2016-03-09 0000,-29.75,-50.75,,,,,,,
83944,2016-03-09 0000,-29.37,-50.8,,,,,,,
83945,2016-03-09 0000,-29.33,-50.52,,,,,,,
83946,2016-03-09 0000,-29.05,-50.13,,,,,,,
83950,2016-03-09 0000,-29.43,-51.95,,,,,,,
83951,2016-03-09 0000,-29.97,-51.13,,,,,,,
83954,2016-03-09 0000,-29.87,-51.38,,,,,,,
83955,2016-03-09 0000,-29.88,-54.78,,,,,,,
83956,2016-03-09 0000,-30.98,-54.67,,,,,,,
83957,2016-03-09 0000,-30.33,-54.32,,,,,,,
83959,2016-03-09 0000,-30.52,-53.48,,,,,,,
83961,2016-03-09 0000,-29.68,-51.05,,,,,,,
83963,2016-03-09 0000,-30.03,-52.88,,,,,,,
83964,2016-03-09 0000,-30.53,-52.52,1.4,1.4,1.7,57.4,70.5,127.7,472.5
83966,2016-03-09 0000,-30.83,-51.58,,,,,,,
83968,2016-03-09 0000,-30.08,-50.78,,,,,,,
83980,2016-03-09 0000,-31.33,-54.1,1.3,1.3,1.7,2.3,23.2,90.9,346.6
A721,2016-03-09 0000,-22.19,-54.91,0,.2,.2,.2,.2,.6,
83983,2016-03-09 0000,-31.43,-53.1,,,,,,,
83985,2016-03-09 0000,-31.78,-52.42,,,,,,,
83992,2016-03-09 0000,-32.55,-53.38,,,,,,,
83994,2016-03-09 0000,-32.15,-52.1,,,,,,,
83896,2016-03-09 0000,-27.1,-48.93,,,,,,,
83897,2016-03-09 0000,-27.6,-48.62,0,0,0,105.5,139.9,293.1,772.1
83898,2016-03-09 0000,-27,-48.63,,,,,,,
83901,2016-03-09 0000,-28.65,-56,,,,,,,
83904,2016-03-09 0000,-27.17,-51.55,,,,,,,
83907,2016-03-09 0000,-28.4,-55.02,12.5,12.5,17.3,44.2,52.7,207.5,932.5
83910,2016-03-09 0000,-28.28,-53.48,,,,,,,
83912,2016-03-09 0000,-28.63,-53.6,5.9,5.9,,,,,
83914,2016-03-09 0000,-28.22,-52.4,5.2,5.2,5.8,31.4,87.6,230,675.4
83915,2016-03-09 0000,-28.92,-51.9,,,,,,,
83916,2016-03-09 0000,-28.22,-51.5,0,0,0,40,53.2,130.7,398.2
83918,2016-03-09 0000,-28.55,-50.7,,,,,,,
83919,2016-03-09 0000,-28.67,-50.43,0,0,2.8,51,71.8,192.1,573.1
83920,2016-03-09 0000,-28.28,-49.94,0,0,0,47.1,77.8,123,466.2
83921,2016-03-09 0000,-28.88,-49.52,,,,,,,
83922,2016-03-09 0000,-28.33,-49.33,,,,,,,
83923,2016-03-09 0000,-28.52,-49.32,,,,,,,
83924,2016-03-09 0000,-28.48,-48.8,,,,,,,
83929,2016-03-09 0000,-29.12,-56.53,,,,,,,
83931,2016-03-09 0000,-29.68,-55.52,,,,,,,
83933,2016-03-09 0000,-29.18,-54.88,,,,,,,
83936,2016-03-09 0000,-29.7,-53.7,4.5,4.5,6.3,24.6,33.1,110.9,499.3
83938,2016-03-09 0000,-28.83,-52.52,,,,,,,
83939,2016-03-09 0000,-29.72,-52.42,,,,,,,
83940,2016-03-09 0000,-29.8,-51.82,,,,,,,
83645,2016-03-09 0000,-20.76,-41.49,,,,,,,
83646,2016-03-09 0000,-20.85,-41.1,,,,,,,
83647,2016-03-09 0000,-19.93,-40.58,,,,,,,
83653,2016-03-09 0000,-20.27,-42.05,,,,,,,
83657,2016-03-09 0000,-21.32,-46.37,,,,,,,
83660,2016-03-09 0000,-23.05,-43.6,,,,,,,
83661,2016-03-09 0000,-23.15,-50.6,,,,,,,
83671,2016-03-09 0000,-21.98,-47.34,0,31,38.1,69,71.8,,
83682,2016-03-09 0000,-21.37,-46.53,,,,,,,
83684,2016-03-09 0000,-21.7,-45.25,,,,,,,
83685,2016-03-09 0000,-21.85,-45.3,,,,,,,
83686,2016-03-09 0000,-21.97,-44.93,,,,,,,
83687,2016-03-09 0000,-21.75,-45,0,0,22.2,51.5,86.7,158.2,692.9
83688,2016-03-09 0000,-21.3,-44.27,,,,,,,
83689,2016-03-09 0000,-21.24,-43.78,0,14,48.8,87.2,105.4,244.4,
82991,2016-03-09 0000,-9.55,-37.02,,,,,,,
82994,2016-03-09 0000,-9.67,-35.7,0,0,0,,,,
82995,2016-03-09 0000,-9.73,-36.77,,,,,,,
82997,2016-03-09 0000,-9.63,-36.33,,,,,,,
82998,2016-03-09 0000,-9.58,-35.95,,,,,,,
83007,2016-03-09 0000,-22.97,-43.28,,,,,,,
83013,2016-03-09 0000,-20.47,-41.41,,,,,,,
83015,2016-03-09 0000,-22.31,-45.37,,,,,,,
83738,2016-03-09 0000,-22.45,-44.44,0,40.2,47.7,89.4,125.8,287.2,914.4
83739,2016-03-09 0000,-22.48,-44.43,,,,,,,
83741,2016-03-09 0000,-22.8,-43.68,,,,,,,
83742,2016-03-09 0000,-22.4,-43.67,,,,,,,
83743,2016-03-09 0000,-22.9,-43.19,0,.6,.6,57.8,61.8,176.1,420.6
83744,2016-03-09 0000,-22.42,-42.97,,,,,,,
83746,2016-03-09 0000,-22.81,-43.25,0,,,,,,
83747,2016-03-09 0000,-22.87,-42.02,,,,,,,
83748,2016-03-09 0000,-22.88,-43.38,,,,,,,
83750,2016-03-09 0000,-22.42,-44.83,,,,,,,
83752,2016-03-09 0000,-22.45,-44.83,,,,,,,
83753,2016-03-09 0000,-22.52,-44.1,,,,,,,
83754,2016-03-09 0000,-22.52,-44,,,,,,,
83755,2016-03-09 0000,-22.91,-43.16,0,.3,.3,57.6,57.6,,
83756,2016-03-09 0000,-22.9,-48.18,,,,,,,
83757,2016-03-09 0000,-22.63,-43.9,,,,,,,
83758,2016-03-09 0000,-23,-44.03,,,,,,,
83759,2016-03-09 0000,-22.82,-42.1,0,0,0,,,,
83762,2016-03-09 0000,-22.62,-43.47,,,,,,,
83763,2016-03-09 0000,-22.58,-43.35,,,,,,,
83764,2016-03-09 0000,-22.58,-43.5,,,,,,,
83765,2016-03-09 0000,-22.52,-43.18,,,,,,,
83766,2016-03-09 0000,-23.32,-51.13,41,41,41,45.2,126.3,383.1,1062.7
83767,2016-03-09 0000,-23.4,-51.92,0,0,0,19.8,110,364.8,984.6
83769,2016-03-09 0000,-23.15,-49.97,,,,,,,
83775,2016-03-09 0000,-24.08,-54.25,,,,,,,
83780,2016-03-09 0000,-23.63,-46.66,0,5,5,76,89,,
83783,2016-03-09 0000,-24.05,-52.37,1,1,1,6.9,83.3,188.5,636
83787,2016-03-09 0000,-22.77,-43.45,,,,,,,
83789,2016-03-09 0000,-22.92,-43.69,,,,,,,
83790,2016-03-09 0000,-22.87,-43.45,,,,,,,
83791,2016-03-09 0000,-22.82,-43.22,,,,,,,
83792,2016-03-09 0000,-22.88,-43.3,,,,,,,
83793,2016-03-09 0000,-22.99,-43.37,,,,,,,
82690,2016-03-09 0000,-6.47,-37.08,0,0,0,13.7,30.2,109.2,
82695,2016-03-09 0000,-6.55,-35.13,,,,,,,
82277,2016-03-09 0000,-2.27,-43.62,,,,,,,
83499,2016-03-09 0000,-17.97,-38.7,0,0,,,,,
83700,2016-03-09 0000,-22.05,-41.05,,,,,,,
83925,2016-03-09 0000,-28.6,-48.82,,,,,,,
82094,2016-03-09 0000,.77,-50.1,,,,,,,
82099,2016-03-09 0000,.05,-51.07,,,,,,,
82143,2016-03-09 0000,-.62,-47.35,3,,,,,,
82193,2016-03-09 0000,-1.38,-48.48,4,64,84,,,,
A737,2016-03-09 0000,-21.86,-48.67,0,2.4,2.6,36,74,123.8,675.2
82244,2016-03-09 0000,-2.42,-54.79,2,,,,,,
82281,2016-03-09 0000,-2.59,-44.24,17,33.9,,,,,
82288,2016-03-09 0000,-2.89,-41.73,,,,,,,
82332,2016-03-09 0000,-3.15,-59.99,,,,,,,
82398,2016-03-09 0000,-3.78,-38.53,5,5,5.9,,,,
82411,2016-03-09 0000,-4.25,-69.94,,,,,,,
82565,2016-03-09 0000,-5.53,-47.46,,,,,,,
82579,2016-03-09 0000,-5.06,-42.82,22,,,,,,
82595,2016-03-09 0000,-5.17,-35.48,0,,,,,,
82599,2016-03-09 0000,-5.91,-35.25,0,0,0,31.1,,,
82640,2016-03-09 0000,-6.24,-57.78,,,,,,,
82764,2016-03-09 0000,-7.33,-47.43,,,,,,,
82824,2016-03-09 0000,-8.71,-63.9,18,48,,,,,
82899,2016-03-09 0000,-8.13,-34.92,,,,,,,
82917,2016-03-09 0000,-9.87,-67.9,,,,,,,
82965,2016-03-09 0000,-9.87,-56.11,2,38.1,46.1,,,,
A734,2016-03-09 0000,-21.32,-50.93,0,5.6,46.4,64.4,99.2,264.8,733.2
83690,2016-03-09 0000,-21.45,-43.55,,,,,,,
83691,2016-03-09 0000,-21.12,-42.95,,,,,,,
83692,2016-03-09 0000,-21.77,-43.35,0,14.4,,,,,
83693,2016-03-09 0000,-21.53,-42.63,,,,,,,
83694,2016-03-09 0000,-21.13,-42.33,,,,,,,
83695,2016-03-09 0000,-21.2,-41.9,0,0,33.8,105.4,106.4,186.1,481.1
83696,2016-03-09 0000,-21.96,-42.01,,,,,,,
83697,2016-03-09 0000,-21.62,-41.77,,,,,,,
83699,2016-03-09 0000,-21.3,-40.98,,,,,,,
83708,2016-03-09 0000,-22.79,-45.2,,,,,,,
83718,2016-03-09 0000,-22.02,-42.36,0,0,1.7,7.7,75.4,163.9,539.6
83719,2016-03-09 0000,-22.98,-42.03,,,,,,,
83732,2016-03-09 0000,-22.28,-46.37,,,,,,,
83733,2016-03-09 0000,-22.33,-45.08,,,,,,,
83735,2016-03-09 0000,-22.42,-45.45,,,,,,,
83736,2016-03-09 0000,-22.1,-45.02,0,4.6,40.4,88.9,95.1,273.3,814.9
83737,2016-03-09 0000,-22.38,-44.97,,,,,,,
82029,2016-03-09 0000,2.05,-50.8,,,,,,,
82030,2016-03-09 0000,2.07,-50.86,,,,,,,
82068,2016-03-09 0000,.61,-69.2,,,,,,,
82096,2016-03-09 0000,.52,-50.42,0,0,0,,,,
82107,2016-03-09 0000,-.15,-66.99,,,,,,,
83347,2016-03-09 0000,-14.8,-39.3,,,,,,,
83369,2016-03-09 0000,-15.9,-52.23,,,,,,,
83387,2016-03-09 0000,-15.75,-43.03,,,,,,,
83390,2016-03-09 0000,-15.1,-44.1,,,,,,,
82333,2016-03-09 0000,-3.04,-60.05,12,41,41.8,72.7,134.7,,
82335,2016-03-09 0000,-3.13,-58.48,,,,,,,
83411,2016-03-09 0000,-4.25,-69.93,,,,,,,
83436,2016-03-09 0000,-16.69,-43.84,0,,,,,,
83644,2016-03-09 0000,-21.84,-46.57,,,,,,,
83652,2016-03-09 0000,-21.14,-47.78,2,2,29,77,111,,
83422,2016-03-09 0000,-16.47,-49.28,,,,,,,
83978,2016-03-09 0000,-30.8,-51.82,,,,,,,
83972,2016-03-09 0000,-29.45,-51.8,,,,,,,
A853,2016-03-09 0000,-28.6,-53.67,7.2,7.2,7.4,50.8,61.8,128.2,713.6
82318,2016-03-09 0000,-3.38,-64.73,,,,,,,
82705,2016-03-09 0000,-7.6,-72.77,,,,,,,
82808,2016-03-09 0000,-8.16,-70.78,,,,,,,
A408,2016-03-09 0000,-12.52,-40.3,0,0,.6,1.4,1.6,2.4,311.4
A409,2016-03-09 0000,-10.95,-37.05,0,0,0,.6,2.6,5.2,122.6
A412,2016-03-09 0000,-12.12,-40.18,0,0,0,.8,.8,2.4,438.6
83571,2016-03-09 0000,-19.9,-43.98,,,,,,,
A801,2016-03-09 0000,-30.05,-51.17,10.8,10.8,10.8,93.8,96,151.4,333.8
A003,2016-03-09 0000,-17.72,-49.1,0,.6,3.6,40.6,44.6,129,467.8
A006,2016-03-09 0000,-14.53,-49.97,,,,,,,
A005,2016-03-09 0000,-13.43,-49.13,,,,,,,
83905,2016-03-09 0000,-26.22,-48.8,0,,,,,,
A703,2016-03-09 0000,-22.55,-55.72,0,0,.2,48.8,244.8,347.8,790.2
A704,2016-03-09 0000,-20.79,-51.71,0,0,0,40.2,84.4,151.8,590.2
A705,2016-03-09 0000,-22.36,-49.03,.2,1.4,2.8,18.6,53.4,194.8,626.8
A101,2016-03-09 0000,-3.1,-60.02,.6,2.8,3.4,38.4,123.8,208,459.8
83065,2016-03-09 0000,-10.2,-48.35,1,3.4,29.4,38.4,59.4,,
82930,2016-03-09 0000,-9.34,-54.97,,,,,,,
83952,2016-03-09 0000,-29.94,-51.15,,,,,,,
83011,2016-03-09 0000,-25.4,-49.23,10,10,10,48,,,
83926,2016-03-09 0000,-26.88,-48.65,0,.4,19.4,,,,
83984,2016-03-09 0000,-31.72,-52.33,,,,,,,
82796,2016-03-09 0000,-7.27,-35.9,0,0,.6,2.6,4.6,,
82800,2016-03-09 0000,-7.12,-34.95,.2,,,,,,
83460,2016-03-09 0000,-16.44,-39.08,.8,.8,.8,2.2,2.2,,
82592,2016-03-09 0000,-5.2,-37.36,,,,,,,
82894,2016-03-09 0000,-9.4,-38.25,,,,,,,
83345,2016-03-09 0000,-14.86,-40.86,,,,,,,
83115,2016-03-09 0000,-22.93,-43.72,,,,,,,
83103,2016-03-09 0000,-21.7,-41.31,0,0,,,,,
A557,2016-03-09 0000,-21.55,-43.26,0,13,30,49.8,88.6,185.4,780.4
83112,2016-03-09 0000,-21.79,-43.39,,,,,,,
83525,2016-03-09 0000,-18.88,-48.23,0,,,,,,
83118,2016-03-09 0000,-21.26,-43.76,0,,,,,,
83778,2016-03-09 0000,-23.44,-46.47,0,10,20,117,147.1,,
83829,2016-03-09 0000,-23.23,-45.87,8,23,,,,,
83779,2016-03-09 0000,-23.51,-46.63,0,12,12,,,,
83616,2016-03-09 0000,-22.18,-51.42,.4,.4,.4,18.6,,,
83617,2016-03-09 0000,-20.78,-51.56,,,,,,,
82567,2016-03-09 0000,-6.12,-50,,,,,,,
82091,2016-03-09 0000,-.89,-52.6,,,,,,,
82354,2016-03-09 0000,-3.25,-52.25,,,,,,,
82360,2016-03-09 0000,-3.78,-49.72,,,,,,,
82444,2016-03-09 0000,-4.24,-56,,,,,,,
82563,2016-03-09 0000,-5.37,-49.14,,,,,,,
82862,2016-03-09 0000,-8.35,-49.3,,,,,,,
82532,2016-03-09 0000,-5.82,-61.28,,,,,,,
82984,2016-03-09 0000,-9.37,-40.57,,,,,,,
82993,2016-03-09 0000,-9.52,-35.78,1,,,,,,
83055,2016-03-09 0000,-22.47,-43.3,,,,,,,
83063,2016-03-09 0000,-10.72,-48.4,,,,,,,
83095,2016-03-09 0000,-10.99,-37.07,,,,,,,
83248,2016-03-09 0000,-12.91,-38.32,,,,,,,
83289,2016-03-09 0000,-13.26,-43.41,,,,,,,
83349,2016-03-09 0000,-14.8,-39.03,.8,1.2,,,,,
83359,2016-03-09 0000,-15.86,-53.39,,,,,,,
83375,2016-03-09 0000,-15.97,-48.05,,,,,,,
83378,2016-03-09 0000,-15.86,-47.91,,,,,,,
83424,2016-03-09 0000,-16.63,-49.23,6,28,34.4,127.4,127.9,,
83497,2016-03-09 0000,-17.65,-39.25,,,,,,,
83554,2016-03-09 0000,-19.01,-57.67,.1,.1,.6,20.4,,,
83576,2016-03-09 0000,-19.76,-47.97,0,,,,,,
83612,2016-03-09 0000,-20.47,-54.67,.6,2.6,2.6,49.6,66.6,,
83649,2016-03-09 0000,-20.26,-40.29,,,,,,,
83663,2016-03-09 0000,-22.88,-43.03,,,,,,,
83703,2016-03-09 0000,-22.55,-55.7,,,,,,,
83117,2016-03-09 0000,-23.07,-43.15,0,,,,,,
83473,2016-03-09 0000,-17.7,-49.1,,,,,,,
A804,2016-03-09 0000,-30.84,-55.61,,,,,,,
A805,2016-03-09 0000,-27.85,-53.79,,,,,,,
A706,2016-03-09 0000,-22.75,-45.6,23.8,24.2,38,97.2,121.4,272,757
83825,2016-03-09 0000,-25.48,-48.32,0,0,,,,,
83889,2016-03-09 0000,-27.57,-48.57,,,,,,,
82601,2016-03-09 0000,-5.1,-36.65,,,,,,,
A501,2016-03-09 0000,-19.95,-44.08,,,,,,,
A707,2016-03-09 0000,-22.12,-51.4,0,1.8,1.8,40,110.8,300,
A708,2016-03-09 0000,-20.58,-47.38,0,50.4,93.6,194.6,221.4,292,775.8
A602,2016-03-09 0000,-23.05,-43.6,0,4,7.4,87.2,87.2,111.6,396.8
A604,2016-03-09 0000,-21.57,-41.95,0,0,1.6,42.8,96.6,145,298.4
A605,2016-03-09 0000,-22.9,-43.13,,,,,,,
83549,2016-03-09 0000,-18.12,-39.47,,,,,,,
83584,2016-03-09 0000,-19.9,-43.67,,,,,,,
M1_672,2016-03-09 0000,-19.93,-43.93,,,,,,,
A305,2016-03-09 0000,-3.83,-38.54,0,0,0,0,0,4.4,164.8
A303,2016-03-09 0000,-9.55,-35.77,0,3.2,3.4,34.4,36.6,79.8,318.8
A010,2016-03-09 0000,-12.62,-47.87,0,1,56.6,86.4,94,97.2,708.6
A510,2016-03-09 0000,-20.76,-42.86,0,0,11.2,24.6,26.4,82.2,568.6
A511,2016-03-09 0000,-19.57,-42.62,0,0,9.6,9.6,20.8,30.8,474.2
A808,2016-03-09 0000,-29.35,-49.73,0,0,25.6,68.4,71.6,114,339.2
A809,2016-03-09 0000,-29.84,-57.08,0,0,0,27,37.2,119.8,550.6
A513,2016-03-09 0000,-20.55,-43.77,0,.4,2.8,12.6,18.2,32.4,492.4
A514,2016-03-09 0000,-21.23,-44.98,0,56.8,74.6,92.2,149.2,263.4,699.6
A812,2016-03-09 0000,-30.55,-53.47,2.4,2.4,2.6,10,63.4,132.6,566.4
A008,2016-03-09 0000,-15.91,-48.12,,,,,,,
A709,2016-03-09 0000,-22.31,-53.83,.2,.6,.8,2.2,2.8,3.2,
83265,2016-03-09 0000,-13.22,-56.27,,,,,,,
82329,2016-03-09 0000,-3.3,-60.5,,,,,,,
82896,2016-03-09 0000,-8.2,-35.58,,,,,,,
A907,2016-03-09 0000,-16.45,-54.57,0,0,0,11.4,19.2,64,411
83841,2016-03-09 0000,-25.42,-49.28,,,,,,,
A806,2016-03-09 0000,-27.6,-48.62,0,0,0,103,138,284.8,751.8
A807,2016-03-09 0000,-25.43,-49.27,32,32,32,49.4,56,277,728
83727,2016-03-09 0000,-22.62,-47.53,,,,,,,
A502,2016-03-09 0000,-21.23,-43.77,.2,10.4,41.2,73,92,284.6,822.8
A505,2016-03-09 0000,-19.61,-46.95,0,31.4,74.4,91.4,109.8,168.8,
A504,2016-03-09 0000,-21.45,-45.95,,,,,,,
A506,2016-03-09 0000,-16.72,-43.87,0,15.4,19.6,19.6,19.6,26,508.4
A507,2016-03-09 0000,-18.92,-48.26,0,25.8,26.2,69.6,75.4,172.2,743.2
A007,2016-03-09 0000,-15.43,-50.37,,,,,,,
82183,2016-03-09 0000,-1.53,-52.57,,,,,,,
83706,2016-03-09 0000,-22.97,-45.48,,,,,,,
A413,2016-03-09 0000,-12.2,-38.97,0,0,0,0,1.6,23.8,212.8
A334,2016-03-09 0000,-7.89,-37.12,0,,,,,,
A333,2016-03-09 0000,-6.76,-38.23,1.8,15,15,15.2,30.8,34,210.6
A359,2016-03-09 0000,-3.48,-39.59,76.6,76.6,79.2,85.4,104.2,130.8,500.6
A361,2016-03-09 0000,-5.35,-41.51,0,0,.2,.4,.4,.6,291.6
A363,2016-03-09 0000,-6.4,-41.74,2.6,3.2,3.2,3.2,3.2,3.4,108.8
A343,2016-03-09 0000,-7.07,-41.4,2.2,,,,,,
A326,2016-03-09 0000,-9.08,-44.32,0,0,14.6,14.6,22.6,40.4,458.2
A338,2016-03-09 0000,-3.9,-42.24,1.2,1.2,3.6,4.6,109.2,119.6,408.4
A656,2016-03-09 0000,-22.91,-43.23,,,,,,,
A884,2016-03-09 0000,-29.67,-51.06,12.4,13.8,13.8,13.8,26.8,68.2,284.2
A813,2016-03-09 0000,-29.87,-52.38,14.2,14.2,18,110.2,145,187,413.8
A417,2016-03-09 0000,-11.27,-37.79,.4,1.6,1.6,18.8,20,48,299.8
A862,2016-03-09 0000,-26.25,-49.58,0,.4,36.4,67,118.6,160,438.8
A122,2016-03-09 0000,-3.4,-57.67,,,,,,,
A848,2016-03-09 0000,-26.29,-53.63,1.4,1.4,3,32,92.2,212,949
A874,2016-03-09 0000,-25.83,-50.37,0,0,.4,33.6,74.8,221.6,532.8
A606,2016-03-09 0000,-22.98,-42.02,0,0,0,53.8,53.8,82.4,206
A839,2016-03-09 0000,-28.23,-52.4,5.4,5.6,6.2,31,86.8,228.6,680.6
A322,2016-03-09 0000,-8.91,-36.49,4.6,4.6,4.6,23.2,23.2,48.2,204.2
A357,2016-03-09 0000,-8.67,-35.57,0,0,0,0,.2,61,329
A650,2016-03-09 0000,-20.52,-29.31,,,,,,,
A923,2016-03-09 0000,-9.41,-59.02,,,,,,,
A911,2016-03-09 0000,-10.17,-59.45,,,,,,,
A909,2016-03-09 0000,-17.34,-53.22,0,.2,11,27,52.2,127.2,718
A540,2016-03-09 0000,-18.78,-40.99,0,.4,17.8,17.8,17.8,18.4,409.6
A841,2016-03-09 0000,-27.17,-51.58,17.6,17.8,18.2,97,115.8,205.6,586.8
A230,2016-03-09 0000,-6.08,-50.14,,,,,,,
A231,2016-03-09 0000,-4.28,-55.99,0,12.6,14.8,16.2,20.8,75.8,361.4
A235,2016-03-09 0000,-4.23,-49.94,.2,.6,1.2,3,4,31.8,202.6
A227,2016-03-09 0000,-.81,-48.52,18.2,111.8,122.4,141.8,259.2,471.8,848.6
A836,2016-03-09 0000,-32.54,-53.38,0,0,.4,1.2,19,85.2,307.4
A349,2016-03-09 0000,-8.51,-37.71,0,0,1.8,1.8,1.8,90.8,245.6
A323,2016-03-09 0000,-9.77,-37.45,0,0,0,5.4,6.6,12.8,187
A733,2016-03-09 0000,-20.17,-50.59,0,9,28.6,50.6,84.8,110.4,495.4
A341,2016-03-09 0000,-8.24,-35.99,0,0,0,.2,.2,32.6,157
A430,2016-03-09 0000,-13.16,-41.77,0,0,.4,.4,.4,.6,
A016,2016-03-09 0000,-17.92,-51.72,.2,36.2,76.6,170.8,171.2,287,736.4
A014,2016-03-09 0000,-15.94,-50.14,14,34.8,50.8,99.8,100.6,175.2,782.6
A844,2016-03-09 0000,-28.22,-51.51,0,0,.4,49.2,66,147.6,473
A830,2016-03-09 0000,-28.65,-56.02,0,0,0,.2,1.2,24.6,125.4
A815,2016-03-09 0000,-28.28,-49.93,0,.4,.6,47,77.4,124,464.4
A524,2016-03-09 0000,-20.45,-45.45,,,,,,,
A820,2016-03-09 0000,-24.54,-54.02,5.2,5.2,5.4,7,64.8,68.6,610.8
A525,2016-03-09 0000,-19.88,-47.43,.2,53,102,183.2,208.8,259.8,915
A527,2016-03-09 0000,-17.9,-41.52,.4,.4,7.6,7.8,7.8,7.8,
A607,2016-03-09 0000,-21.72,-41.35,0,0,4.4,12.6,13,85.2,317.4
A608,2016-03-09 0000,-22.38,-41.82,0,0,0,28.6,28.6,83.4,379.6
A609,2016-03-09 0000,-22.45,-44.45,0,32.8,37.6,73.6,102.6,235.6,794.4
A614,2016-03-09 0000,-19.36,-40.07,0,0,0,.6,4.4,26,184.8
A718,2016-03-09 0000,-22.37,-50.97,0,,,,,,
A712,2016-03-09 0000,-24.72,-47.55,0,.4,5.8,67,68.8,169.4,668.8
A713,2016-03-09 0000,-23.35,-47.67,.8,13,13,48.2,79.4,225.8,
A519,2016-03-09 0000,-19.54,-49.52,0,2.6,36,80.2,103.2,142.4,703.8
A522,2016-03-09 0000,-17.8,-40.25,.2,.2,1,,,,
A613,2016-03-09 0000,-19.99,-40.58,0,0,18.6,18.6,19.2,34.2,334
A528,2016-03-09 0000,-18.2,-45.46,0,12,39.6,41.8,56.8,69.2,515.8
A908,2016-03-09 0000,-14.02,-52.21,16.6,53.2,115.4,166.6,190.6,243.8,793.2
A910,2016-03-09 0000,-9.56,-57.39,5.4,5.8,70.8,71.6,,,
A914,2016-03-09 0000,-11.28,-57.53,,,,,,,
A920,2016-03-09 0000,-11.37,-58.73,2,2,34,53.4,103.4,153.4,778.8
A921,2016-03-09 0000,-11.62,-50.73,19.6,23.4,72.8,75,79.4,145.6,633.6
A201,2016-03-09 0000,-1.41,-48.44,3.4,55.8,104.8,192.8,333,573,1095.2
A203,2016-03-09 0000,-2.53,-44.21,21.2,39.4,80.8,91,152,213.2,443
A906,2016-03-09 0000,-9.95,-54.88,60,71.8,100.6,138,186.2,187,
A829,2016-03-09 0000,-28.75,-50.06,0,.2,1.2,23.8,53,,
A730,2016-03-09 0000,-18.8,-52.6,0,0,0,28.2,28.2,88.2,655.6
A222,2016-03-09 0000,-6.03,-44.23,.6,4.2,18,18.2,58.6,,
A237,2016-03-09 0000,-4.82,-43.34,12.6,22,22.2,34,39.4,51.8,342.2
A217,2016-03-09 0000,-2.27,-43.62,9.4,44.6,45.2,50,92.6,116,299.6
A878,2016-03-09 0000,-31.25,-50.91,0,0,17.6,38.4,,,
A021,2016-03-09 0000,-7.1,-48.2,.2,9.4,51.8,72,123.6,167.2,600.4
A757,2016-03-09 0000,-22.1,-56.54,3.4,3.6,3.6,19.8,118.8,163,658.8
A038,2016-03-09 0000,-11.59,-46.85,5.4,16,20.8,22.6,22.6,23.8,549.8
A040,2016-03-09 0000,-10.43,-45.92,.2,1,3.2,3.2,3.2,3.2,
A043,2016-03-09 0000,-8.15,-46.64,0,39.4,67.8,67.8,68.2,107.8,649
A033,2016-03-09 0000,-17.3,-48.28,2.8,9.6,44.8,62.2,90.6,132,606.2
A041,2016-03-09 0000,-9.58,-49.72,22.4,24.6,25.6,37.4,65.2,80.8,
A031,2016-03-09 0000,-13.26,-49.95,,,,,,,
A030,2016-03-09 0000,-15.28,-51.29,,,,,,,
A023,2016-03-09 0000,-16.97,-51.82,2.6,2.6,8.2,30.2,45,109.2,673.6
A029,2016-03-09 0000,-18.3,-51.96,,,,,,,
A542,2016-03-09 0000,-16.55,-46.88,4.6,43.2,52.4,67.2,72.8,79.4,530.2
A740,2016-03-09 0000,-23.23,-45.42,4.4,13.8,16.2,37.4,48,82.2,409.2
A025,2016-03-09 0000,-17.79,-50.98,2.4,11.6,20.8,143.4,146.8,284.8,
A548,2016-03-09 0000,-15.31,-45.62,0,72.4,106,112.6,120.4,128.8,555.4
A547,2016-03-09 0000,-16.36,-45.12,.2,.2,1,1.8,2,2.2,331.2
A526,2016-03-09 0000,-15.09,-44.02,.2,6,6.4,6.4,6.4,19.8,626.8
A553,2016-03-09 0000,-17.78,-46.12,0,33.6,52.6,58.4,75.8,99.6,613.8
A651,2016-03-09 0000,-22.91,-43.16,,,,,,,
A653,2016-03-09 0000,-22.97,-43.22,,,,,,,
A827,2016-03-09 0000,-31.35,-54.01,2,2,2,3.2,39.2,117,385.6
A821,2016-03-09 0000,-23.51,-49.95,0,.6,.8,9.4,74.8,207.6,762
A531,2016-03-09 0000,-22.31,-45.37,3,9.6,35.2,107.2,126,293.8,882.8
A533,2016-03-09 0000,-18.79,-42.94,0,0,57.6,93.2,134.4,135,692
A534,2016-03-09 0000,-19.53,-41.09,0,0,53.6,53.6,78.4,96.6,
A535,2016-03-09 0000,-19.89,-44.42,0,7.8,72,91.4,105,140,739.8
A536,2016-03-09 0000,-19.48,-45.59,0,.4,34,35.6,120.8,166.8,515.4
A537,2016-03-09 0000,-18.23,-43.65,0,.2,54.2,61.6,72.2,127.6,620.6
A538,2016-03-09 0000,-18.76,-44.45,0,.4,36.2,50.4,50.4,137,457
83683,2016-03-09 0000,-21.68,-45.94,0,4.4,17.2,93.2,93.2,240.1,787.3
A423,2016-03-09 0000,-9.6,-42.1,0,.4,2.4,2.4,2.4,2.8,134.2
A758,2016-03-09 0000,-21.48,-56.14,.2,.2,.2,93.6,180.6,249,763.6
A250,2016-03-09 0000,-2.5,-54.72,10,14.4,14.4,41.8,62.6,100.8,251.8
A249,2016-03-09 0000,.04,-51.09,.8,53.2,53.2,74.8,141.6,276.2,546.2
A355,2016-03-09 0000,-10.15,-36.29,3.2,4,6.8,12.8,16.2,16.2,
A045,2016-03-09 0000,-15.6,-47.63,.4,3.8,5,9.4,18.8,33.2,639.4
83004,2016-03-09 0000,-23.65,-46.62,,,,,,,
A938,2016-03-09 0000,-12.73,-60.16,0,17.6,44.2,73.6,205.4,272.2,917.8
A624,2016-03-09 0000,-22.33,-42.68,.2,27.8,30.6,118,137.4,278.4,973.8
A352,2016-03-09 0000,-6.56,-35.13,0,.2,1.6,2.4,6.8,43.8,266.6
A532,2016-03-09 0000,-18.83,-41.98,0,0,53,53,63,63.2,441.6
A832,2016-03-09 0000,-30.34,-54.31,.4,.4,1.2,4,11.4,84.4,500.2
A858,2016-03-09 0000,-26.94,-52.42,3.2,3.2,3.8,68,112.2,194.2,633
A879,2016-03-09 0000,-29.37,-50.83,0,0,8.6,70.6,71.6,116.4,510.4
A555,2016-03-09 0000,-20.03,-44.01,0,30.2,47.6,107.8,146.2,215.6,764.6
A620,2016-03-09 0000,-22.04,-41.05,0,0,0,0,0,.6,
A205,2016-03-09 0000,-7.34,-47.46,1.8,21.8,31.8,51,91.2,157,889.6
A750,2016-03-09 0000,-23,-55.33,0,1,1,28.8,89.2,146.2,
A869,2016-03-09 0000,-23.38,-52.93,12.4,12.4,12.4,18.2,79,249.2,502.2
A437,2016-03-09 0000,-15.28,-39.09,2.6,2.6,2.8,16.4,16.4,20.6,148.6
A336,2016-03-09 0000,-8.44,-43.86,,,,,,,
A550,2016-03-09 0000,-16.58,-41.49,0,0,0,0,0,3.2,354.2
A036,2016-03-09 0000,-16.79,-47.61,.2,17.2,34,45.4,76,211.2,748
A863,2016-03-09 0000,-27.42,-49.65,0,.2,5.2,107.8,161.6,202.8,487.2
A864,2016-03-09 0000,-26.39,-50.36,,,,,,,
A027,2016-03-09 0000,-16.95,-50.43,3,7.8,18.6,78,123.6,205.8,740.6
A918,2016-03-09 0000,-10.65,-51.57,55.2,92.8,112,119.4,133.6,239.8,974.2
A840,2016-03-09 0000,-29.17,-51.53,8.8,8.8,9.6,52.6,58.6,156.8,431
A838,2016-03-09 0000,-30.81,-51.83,.6,1.6,10.2,174.6,185.4,214.6,491.8
A314,2016-03-09 0000,-4.26,-38.2,2.8,5.8,14.4,22.6,34,102.4,413.8
A315,2016-03-09 0000,-7.32,-39.3,0,.2,.2,.2,.2,11.4,51.4
A316,2016-03-09 0000,-6.46,-37.09,,,,,,,
A318,2016-03-09 0000,-4.9,-37.37,0,0,0,2,2,7.8,241.6
A020,2016-03-09 0000,-8.97,-48.19,27.4,50,71.6,85.2,90.4,98.4,791
A618,2016-03-09 0000,-22.45,-42.99,36.8,46.4,46.8,103.6,,,
A854,2016-03-09 0000,-27.4,-53.41,0,0,.2,28.6,100.4,224.6,889
A109,2016-03-09 0000,-6.65,-69.87,0,100.2,109.4,188.8,241.2,376,859
A330,2016-03-09 0000,-8.08,-41.08,0,0,12.2,12.2,12.2,14.4,335.2
A331,2016-03-09 0000,-8.36,-42.25,9.6,9.6,9.6,9.6,9.6,56.6,392.4
A214,2016-03-09 0000,-4.78,-48.07,2.8,23.6,28.2,46.4,58.4,58.4,
A234,2016-03-09 0000,-6.74,-51.14,,,,,,,
A655,2016-03-09 0000,-22.89,-43.29,,,,,,,
A515,2016-03-09 0000,-21.57,-45.4,0,17,39.6,100,136.6,223.4,679.8
A747,2016-03-09 0000,-21.34,-48.11,13.2,13.2,14.2,34.4,53.6,263.2,761.6
A939,2016-03-09 0000,-11.45,-61.43,1.4,48.8,109,111,157.2,235.8,752.8
A594,2016-03-09 0000,-21.45,-45.95,,,,,,,
A446,2016-03-09 0000,-15.24,-40.23,0,0,0,0,0,.6,197
S812,2016-03-09 0000,-25.45,-50.58,,,,,,,
S813,2016-03-09 0000,-26.08,-51.65,,,,,,,
S814,2016-03-09 0000,-25.4,-54.62,,,,,,,
S815,2016-03-09 0000,-24.07,-54.25,,,,,,,
S816,2016-03-09 0000,-25.35,-51.5,,,,,,,
S817,2016-03-09 0000,-25.87,-48.57,,,,,,,
S818,2016-03-09 0000,-24.23,-49.68,,,,,,,
S819,2016-03-09 0000,-25.78,-49.77,,,,,,,
S820,2016-03-09 0000,-23.3,-51.15,,,,,,,
A541,2016-03-09 0000,-17.71,-42.39,0,0,43.2,48.6,53.4,181.2,631.2
A549,2016-03-09 0000,-15.75,-41.46,0,.2,,,,,
A354,2016-03-09 0000,-6.97,-42.15,.2,6,14.6,28.8,33.2,92,521.6
A236,2016-03-09 0000,-2.25,-49.49,13,105.2,132,211.8,235.6,424.6,839.6
A348,2016-03-09 0000,-7.48,-36.29,0,0,0,0,24.6,30.8,110
A364,2016-03-09 0000,-9.87,-45.35,21.4,26.4,30.8,30.8,30.8,43.4,
A610,2016-03-09 0000,-22.48,-43.29,,,,,,,
83909,2016-03-09 0000,-28.3,-54.25,,,,,,,
83179,2016-03-09 0000,-11.08,-43.17,,,,,,,
A209,2016-03-09 0000,-3.51,-52.96,2.2,8.4,23.6,107.6,164.2,247.6,532
83393,2016-03-09 0000,-16.01,-41.28,0,0,0,0,0,10.4,444
A207,2016-03-09 0000,-5.82,-46.16,0,0,0,0,0,0,407
A215,2016-03-09 0000,-.62,-47.36,17.8,86.2,93.2,122,182,254.8,
A219,2016-03-09 0000,-1.66,-45.37,119.8,128.6,151.2,158,197,,
A241,2016-03-09 0000,-8.26,-49.27,18.8,55.8,114.6,124.4,144.4,166,741.2
A421,2016-03-09 0000,-10.48,-36.48,.4,.4,1,7.6,9,44.4,167.2
82913,2016-03-09 0000,-9.07,-68.67,,,,,,,
82181,2016-03-09 0000,-2,-54.1,2.6,106,109.3,124.6,146,175.6,272.9
83618,2016-03-09 0000,-20.78,-51.7,,,,,,,
A520,2016-03-09 0000,-19.99,-48.15,0,8.4,19.2,47.6,90.4,236.6,836.8
A447,2016-03-09 0000,-16.09,-39.22,.2,1,1,1.2,1.4,15,204.8
82588,2016-03-09 0000,-5.12,-38.37,0,0,17.9,26.7,42.7,136.2,
83648,2016-03-09 0000,-20.32,-40.32,0,0,24.8,24.8,24.8,36.9,261.4
A701,2016-03-09 0000,-23.48,-46.62,0,14.4,14.8,133.8,165.8,,
A543,2016-03-09 0000,-14.91,-42.83,0,0,.4,.4,.4,.8,478
83597,2016-03-09 0000,-19.42,-40.07,,,,,,,
A802,2016-03-09 0000,-32.03,-52.1,0,0,.2,4.6,51.4,126,317.8
83235,2016-03-09 0000,-12.4,-46.42,0,24,32.7,38.1,46.7,51.9,506
82198,2016-03-09 0000,-1.67,-45.37,127.9,137.5,163.9,171,211.9,326.4,576.9
83410,2016-03-09 0000,-16.45,-54.57,,,,,,,
A229,2016-03-09 0000,-3.82,-49.67,4.6,19,49.4,89.2,145.2,262.2,645.4
A443,2016-03-09 0000,-10.46,-41.21,0,0,0,0,0,40,363.6
A440,2016-03-09 0000,-11.21,-40.47,0,0,0,3,12.2,14.8,
A710,2016-03-09 0000,-19.7,-51.18,0,1.4,3,11.4,37,84.8,
83363,2016-03-09 0000,-15.82,-55.42,20.5,,,,,,
A102,2016-03-09 0000,-9.36,-69.93,0,1.4,1.4,22.4,68.6,128.4,586
83550,2016-03-09 0000,-18.7,-39.85,0,.5,.5,2.5,2.5,10.6,171.1
A881,2016-03-09 0000,-30.99,-53.82,0,0,0,5.8,15.8,83,
S801,2016-03-09 0000,-25.22,-48.8,,,,,,,
S802,2016-03-09 0000,-23.51,-51.54,,,,,,,
S803,2016-03-09 0000,-24.39,-53.54,,,,,,,
S804,2016-03-09 0000,-23,-50.03,,,,,,,
S805,2016-03-09 0000,-24.05,-52.37,,,,,,,
S806,2016-03-09 0000,-24.63,-51.25,,,,,,,
S807,2016-03-09 0000,-24.88,-53.55,,,,,,,
A868,2016-03-09 0000,-26.95,-48.76,0,.2,25.4,132.2,161.8,262.2,632.2
A115,2016-03-09 0000,-3.09,-67.89,,,,,,,
A117,2016-03-09 0000,-4.1,-63.15,18.8,25.4,57,159.6,167.2,216,507.4
A941,2016-03-09 0000,-16.07,-57.69,0,0,.2,.2,.2,.2,2.6
A880,2016-03-09 0000,-28.51,-50.88,1.2,2.2,3.6,12.4,21.8,91.2,537.6
A925,2016-03-09 0000,-8.76,-63.47,11.8,56,131.8,189.6,246.2,317,743
A125,2016-03-09 0000,-2.72,-59.94,.2,19.2,23.8,90.4,156,295.6,495.8
S808,2016-03-09 0000,-24.82,-49.25,,,,,,,
S809,2016-03-09 0000,-23.66,-52.55,,,,,,,
S810,2016-03-09 0000,-25.43,-49.23,,,,,,,
S811,2016-03-09 0000,-25.55,-51.48,,,,,,,
A544,2016-03-09 0000,-15.52,-46.44,0,0,60.8,60.8,82.2,141,436.4
A224,2016-03-09 0000,-6.65,-47.42,,,,,,,
A937,2016-03-09 0000,-15.25,-59.35,.8,2.6,4.4,13.6,30.8,64.2,324.4
A926,2016-03-09 0000,-10.01,-55.79,5.8,27.2,43.8,52,73,92,547
A931,2016-03-09 0000,-14.93,-53.88,0,.2,.6,3.6,4,4.4,83.8
A433,2016-03-09 0000,-14.18,-41.67,0,0,0,0,0,0,486
A243,2016-03-09 0000,1.5,-50.92,0,.2,.2,.6,5,195.8,961.8
A244,2016-03-09 0000,.7,-51.43,,,,,,,
A742,2016-03-09 0000,-19.12,-51.72,0,0,0,.6,1.2,4.2,440.2
A121,2016-03-09 0000,-3.22,-58.81,0,1.8,9.8,13,122.6,228.6,550.2
A133,2016-03-09 0000,-5.81,-61.29,12,25.2,53,132.8,174,297.6,720.6
A127,2016-03-09 0000,-2.63,-60.94,,,,,,,
A846,2016-03-09 0000,-25.6,-54.48,10.2,10.2,10.4,14,39.4,74.6,374.6
A365,2016-03-09 0000,-8.12,-42.01,.6,.6,3.6,3.6,3.6,6.6,575.2
A509,2016-03-09 0000,-22.86,-46.04,4.6,8.6,25,121.4,171.2,361.6,1009.8
A304,2016-03-09 0000,-5.9,-35.2,0,0,0,58.6,61.8,101,211.8
82797,2016-03-09 0000,-7.83,-35.72,0,0,0,1,1.6,31.6,
A337,2016-03-09 0000,-9.29,-43.32,0,0,0,0,0,24.6,343.2
A711,2016-03-09 0000,-21.98,-47.88,0,0,.2,7.4,81.2,184.8,758
82893,2016-03-09 0000,-8.88,-36.52,5,5,5,,,,
A702,2016-03-09 0000,-20.45,-54.6,1.4,1.4,1.4,70.2,97.4,171.2,726.2
A442,2016-03-09 0000,-10.54,-39,0,0,2.6,8.2,8.2,30.6,260.4
82691,2016-03-09 0000,-6.12,-36.82,0,0,0,,,,
83267,2016-03-09 0000,-13.43,-56.72,,,,,,,
A026,2016-03-09 0000,-17.57,-52.6,2.2,3.4,5.4,14.8,18.6,73.6,555.2
A320,2016-03-09 0000,-7.17,-34.82,0,1,2,9.8,15.2,115.4,342.8
83377,2016-03-09 0000,-15.79,-47.93,53.6,62.2,72.5,83.3,102.1,162.5,680.8
A518,2016-03-09 0000,-21.77,-43.36,0,15.8,36.2,74.8,135.4,258.4,720.6
A556,2016-03-09 0000,-20.26,-42.18,0,.2,.2,.8,2,54.4,
A032,2016-03-09 0000,-13.25,-46.89,0,13.2,51.6,54.6,59.6,63,423.2
A339,2016-03-09 0000,-4.85,-37.78,0,0,0,2.4,2.4,3,58.2
83932,2016-03-09 0000,-28.65,-53.12,,,,,,,
A857,2016-03-09 0000,-26.78,-53.5,0,0,0,.2,1.4,55.2,528.6
A530,2016-03-09 0000,-21.92,-46.38,0,12.2,13.4,166.2,183.4,375,952
A435,2016-03-09 0000,-9.83,-39.5,0,0,0,1.4,1.4,37,409
X001,2016-03-09 0000,-31.4,-57.68,,,,,,,
X002,2016-03-09 0000,-32.72,-56.51,,,,,,,
X003,2016-03-09 0000,-34.55,-57.56,,,,,,,
X004,2016-03-09 0000,-34.71,-54.29,,,,,,,
A517,2016-03-09 0000,-21.1,-42.38,0,0,5,69.6,81.4,181.8,556.2
A731,2016-03-09 0000,-21.61,-55.18,0,0,0,,,,
A445,2016-03-09 0000,-14.17,-39.69,.2,1.6,1.8,2,2.2,8.4,213.8
A367,2016-03-09 0000,-6.23,-36.03,0,0,3.8,18.8,28.2,31.8,193.4
82976,2016-03-09 0000,-9.28,-43.33,0,0,0,0,0,24,
A546,2016-03-09 0000,-17.56,-47.2,,,,,,,
A503,2016-03-09 0000,-20.74,-42.02,,,,,,,
83389,2016-03-09 0000,-15.09,-44.02,,,,,,,
83577,2016-03-09 0000,-19.74,-47.95,0,40,61.4,106.4,121.2,190.1,694.4
82915,2016-03-09 0000,-9.95,-67.87,0,14.7,34.5,118.8,126.3,266.3,
A756,2016-03-09 0000,-20.44,-52.88,0,0,0,0,0,0,
A657,2016-03-09 0000,-20.1,-41.11,0,0,31.8,31.8,57.8,135.4,388.6
A044,2016-03-09 0000,-5.64,-48.11,7.8,14.2,22.6,22.6,88,117.4,
82144,2016-03-09 0000,-.65,-47.55,,,,,,,
A521,2016-03-09 0000,-19.88,-43.97,0,6.6,29.6,83.2,175,270.2,735
82103,2016-03-09 0000,.07,-68.23,,,,,,,
A831,2016-03-09 0000,-30.37,-56.44,.4,.4,.4,71,78.2,166.6,716.4
A347,2016-03-09 0000,-7.08,-40.36,0,0,0,0,8,17.8,188.4
82145,2016-03-09 0000,-1.07,-46.9,9.6,32.1,78.3,88.7,181.2,268.2,587.4
82564,2016-03-09 0000,-5.53,-47.48,.7,12.9,33.4,55.6,92.6,176.1,495.6
82568,2016-03-09 0000,-5.82,-46.47,,,,,,,
A226,2016-03-09 0000,-1.05,-46.78,1.2,2.8,10.4,21.4,51.8,129.8,259.4
83927,2016-03-09 0000,-29.75,-57.08,0,0,0,24.4,34.8,115.7,544.7
A924,2016-03-09 0000,-9.85,-56.1,13.6,15,24.4,72,98.6,161.8,636
A017,2016-03-09 0000,-14.09,-46.37,0,47,71.6,71.8,87.8,100,
83481,2016-03-09 0000,-17.74,-46.18,,,,,,,
83492,2016-03-09 0000,-17.85,-41.52,0,0,3.1,6.1,6.1,7.2,462.4
A922,2016-03-09 0000,-15.06,-59.87,.8,2,40.4,56.4,72.2,207.4,691.2
A022,2016-03-09 0000,-15.22,-48.99,11,12,17.8,108.2,110.8,166.6,795
82765,2016-03-09 0000,-7.34,-47.46,1.5,22.6,33.9,,,,
A366,2016-03-09 0000,-7.88,-40.1,0,.2,.4,15.6,22.8,27,
A865,2016-03-09 0000,-27.8,-50.34,3,3.2,4,68.8,106.4,182.4,524.8
A717,2016-03-09 0000,-18.99,-56.62,0,0,6.6,26.2,73.2,143,
82668,2016-03-09 0000,-6.63,-51.97,22.4,32,55,95.6,100.8,,
83788,2016-03-09 0000,-23.02,-44.33,,,,,,,
A302,2016-03-09 0000,.9,-29.32,,,,,,,
A138,2016-03-09 0000,-8.24,-70.58,0,3.8,8.6,14.8,23.6,56.6,410.2
A822,2016-03-09 0000,-24.44,-51.96,0,0,0,1.4,25,62.4,
A432,2016-03-09 0000,-10.72,-43.65,0,0,2,2,2,13.6,268.6
A738,2016-03-09 0000,-21.78,-47.08,.4,4.8,10.4,57.4,62,161.2,438
82996,2016-03-09 0000,-9.18,-35.43,0,0,1.2,12.9,13.4,52,
A912,2016-03-09 0000,-15.53,-55.14,0,.2,.2,.4,.6,2.6,264
82583,2016-03-09 0000,-5.17,-40.67,56.1,56.1,56.1,60.4,74.6,107.2,
A523,2016-03-09 0000,-19,-46.99,.8,7.6,8.2,37.2,51.4,111.6,581.6
A508,2016-03-09 0000,-16.17,-40.69,0,0,.6,.6,.6,.6,318
83637,2016-03-09 0000,-20.68,-44.82,,,,,,,
A936,2016-03-09 0000,-15.14,-58.12,6,23.4,39.6,84.8,122,273.2,756.6
83681,2016-03-09 0000,-21.92,-46.38,,,,,,,
A732,2016-03-09 0000,-19.42,-54.55,.2,.4,1.4,9.8,18.6,120.2,394.2
A855,2016-03-09 0000,-25.72,-53.75,.2,.2,.4,16,116,200.6,851.6
A238,2016-03-09 0000,-4.32,-46.45,2.2,24.6,27.2,28.6,42,79.4,241.8
83773,2016-03-09 0000,-23.08,-48.91,,,,,,,
83446,2016-03-09 0000,-16.73,-39.55,.4,.4,.4,1.2,1.2,1.2,348.8
83184,2016-03-09 0000,-11.22,-41.22,0,0,0,0,0,9.6,382
83745,2016-03-09 0000,-22.25,-42.52,,,,,,,
83749,2016-03-09 0000,-22.34,-41.76,0,0,0,23.1,23.1,,
83698,2016-03-09 0000,-21.74,-41.33,0,0,3.4,3.6,3.6,51.4,209.6
A935,2016-03-09 0000,-15.55,-57.38,0,0,.2,4.2,6.8,,
A529,2016-03-09 0000,-22.4,-44.96,,,,,,,
A928,2016-03-09 0000,-13.07,-57.16,14.8,16.6,57.4,211.8,270.6,390.8,878.8
A202,2016-03-09 0000,-1.3,-47.93,0,0,0,.4,1.8,168.6,
A362,2016-03-09 0000,-5.91,-42.72,41.6,58.6,63.6,69.8,91.2,140.2,473.2
82693,2016-03-09 0000,-6.43,-36.58,0,0,.7,7.2,9.3,131.8,
A759,2016-03-09 0000,-21.75,-52.47,0,1.4,1.4,19.4,50.2,138.4,
A104,2016-03-09 0000,-9.96,-68.17,0,2.6,27.8,56.6,78.8,217.2,638.4
A551,2016-03-09 0000,-15.72,-42.44,0,0,7.8,7.8,7.8,19.4,394.6
A760,2016-03-09 0000,-18.82,-53.27,19,42.6,51.4,63.8,83.2,138.4,762.4
A761,2016-03-09 0000,-17.9,-54.45,0,0,.2,.4,.8,3.6,326
A410,2016-03-09 0000,-14.66,-39.18,0,2.6,4.2,10.6,16.6,45,207
83716,2016-03-09 0000,-22.12,-51.38,,,,,,,
82789,2016-03-09 0000,-7.82,-38.12,0,0,0,0,12.2,29,
82596,2016-03-09 0000,-5.65,-35.65,0,0,9.3,,,,
A654,2016-03-09 0000,-22.99,-43.37,,,,,,,
82989,2016-03-09 0000,-9.28,-37.9,0,0,0,,,,
A715,2016-03-09 0000,-23.85,-48.16,2.2,3,3.2,35.4,39.4,121.8,495.4
A816,2016-03-09 0000,-26.41,-52.85,,,,,,,
A035,2016-03-09 0000,-18.41,-49.19,0,1,7.8,43,53,60.4,268.6
A875,2016-03-09 0000,-26.4,-51.35,,,,,,,
82487,2016-03-09 0000,-4.28,-39,3,5.6,12.6,20.6,29.6,86,
82686,2016-03-09 0000,-6.37,-39.3,61,61,62.2,62.2,62.2,62.2,
82392,2016-03-09 0000,-3.73,-40.33,16.3,16.3,16.3,37.9,41.2,49.1,
82879,2016-03-09 0000,-8.35,-42.25,10.2,10.2,10.2,10.2,10.2,59.6,
82178,2016-03-09 0000,-1.92,-55.52,26,96.8,123.6,163.2,197.5,249.1,522.6
A327,2016-03-09 0000,-9.42,-36.62,0,0,0,3.2,3.2,8.6,85.2
A611,2016-03-09 0000,-22.35,-43.7,,,,,,,
A754,2016-03-09 0000,-20.98,-54.97,1.6,2,2,29.8,94,198.6,
A039,2016-03-09 0000,-11.99,-49.61,7.6,31.2,67.8,69.4,77,133.8,
A113,2016-03-09 0000,-7.22,-59.89,.2,,,,,,
83286,2016-03-09 0000,-13.33,-44.62,,,,,,,
A448,2016-03-09 0000,-9,-39.91,0,0,0,0,0,22.2,338.6
A561,2016-03-09 0000,-20.91,-47.11,0,9.8,46.6,95,165,293.4,1003.8
A560,2016-03-09 0000,-19.24,-45.01,0,4.6,54.4,83,112.4,136.4,606.2
A667,2016-03-09 0000,-22.87,-42.61,,,,,,,
A001,2016-03-09 0000,-15.79,-47.93,48.2,56,65.4,74,90.8,144.6,600.6
A220,2016-03-09 0000,-4.24,-44.79,0,0,0,0,.2,3.2,376.4
83229,2016-03-09 0000,-13.01,-38.51,.7,4.5,6.3,23.2,24.5,59.5,241.9
A913,2016-03-09 0000,-13.71,-59.76,1.4,8,75.4,147.6,210.2,451.4,1095
A204,2016-03-09 0000,-7.46,-46.03,0,6.2,30,30,30.6,52.2,
83470,2016-03-09 0000,-17.8,-50.92,0,15.6,19.5,155.8,158.3,,
A621,2016-03-09 0000,-22.86,-43.41,0,1.6,1.6,52.2,72.8,237.2,554
A601,2016-03-09 0000,-22.8,-43.68,0,1.6,3.6,32.8,34.6,241.4,547.2
83650,2016-03-09 0000,-20.5,-29.32,0,,,,,,
A223,2016-03-09 0000,-9.11,-45.93,12.2,17.4,50.6,50.6,57,72,570
A140,2016-03-09 0000,-11.02,-68.73,0,39.4,117,214,260.8,377.2,1044.8
A009,2016-03-09 0000,-10.18,-48.3,13.4,19.6,26,28.6,29.6,33.6,
A811,2016-03-09 0000,-31.41,-52.7,.2,.2,3.4,50.6,81,100.6,355.6
A930,2016-03-09 0000,-13.18,-53.26,7.6,21.8,83.4,127.6,127.8,128.6,
A233,2016-03-09 0000,-9.34,-50.35,56.4,58.6,75.4,85.4,100.6,176.2,920
A360,2016-03-09 0000,-3.12,-40.09,,,,,,,
A545,2016-03-09 0000,-17.26,-44.84,0,22.4,59.4,71.8,75,117.2,612.8
A108,2016-03-09 0000,-7.61,-72.68,.6,7,16,64.6,79.6,272.4,876
82410,2016-03-09 0000,-4.38,-70.03,11,33,33,42,74,148,
A603,2016-03-09 0000,-22.59,-43.28,0,7.2,7.4,28.2,31.4,333.2,983.4
A714,2016-03-09 0000,-23.98,-48.89,.2,.8,1,19,47.6,138.8,710.2
A210,2016-03-09 0000,-3.84,-50.64,21.4,77.8,130.4,295.2,351.4,377.2,618.2
A403,2016-03-09 0000,-12.76,-38.15,,,,,,,
A516,2016-03-09 0000,-20.74,-46.63,0,33,53,100.8,110.2,201.4,598.2
83288,2016-03-09 0000,-13.25,-43.41,0,0,0,0,0,2.4,378.1
A206,2016-03-09 0000,-3.74,-43.35,3,3,4.6,20.6,89,89,223.2
A850,2016-03-09 0000,-22.49,-52.13,5.8,5.8,6,15.6,106.6,276.8,574.8
A438,2016-03-09 0000,-13.91,-38.97,.2,.2,.2,2.4,8.8,44.2,238.4
A436,2016-03-09 0000,-10.98,-39.62,0,0,0,.2,.4,11.4,266.4
A425,2016-03-09 0000,-12.56,-41.39,0,0,.4,.4,.4,.4,605.6
A824,2016-03-09 0000,-23.39,-53.63,0,1,1,2.8,116.8,206.4,
A919,2016-03-09 0000,-9.91,-58.57,0,,,,,,
F501,2016-03-09 0000,-19.98,-43.96,0,12.4,42.6,55.4,158.4,241.6,655.8
A429,2016-03-09 0000,-11.08,-43.14,0,10,23.8,23.8,23.8,37.6,545.2
A024,2016-03-09 0000,-14.13,-47.52,0,10.8,32,44.4,44.4,72.6,380.2
A344,2016-03-09 0000,-5.16,-35.45,0,0,6.2,8.8,,,
A110,2016-03-09 0000,-8.78,-67.33,.2,10.6,66.4,173.6,232.6,392,772.4
83408,2016-03-09 0000,-14.28,-43.77,0,.3,.3,.3,.3,5.6,666.8
82780,2016-03-09 0000,-7.03,-41.48,1.6,1.6,1.9,5.5,6.9,44.1,
A882,2016-03-09 0000,-29.45,-51.82,20.4,20.6,23.8,82.2,108.8,153.8,
A011,2016-03-09 0000,-18.97,-50.62,,,,,,,
82397,2016-03-09 0000,-3.77,-38.55,2.8,2.8,2.8,5.2,9.1,102.4,
83635,2016-03-09 0000,-20.17,-44.87,0,4.5,63.1,,,,
A137,2016-03-09 0000,-8.95,-72.79,.2,3.4,20.6,24.6,116.2,289.6,848.2
A554,2016-03-09 0000,-19.74,-42.15,0,13.2,90.4,97.8,103.8,109.2,458.6
A905,2016-03-09 0000,-13.78,-57.83,3.2,5.4,83.2,91.2,101.8,149.2,598
83538,2016-03-09 0000,-18.24,-43.62,0,11.4,68.6,90,,,
A746,2016-03-09 0000,-24.96,-48.42,0,29.6,31,68.4,72,291.2,882.8
83032,2016-03-09 0000,-21.94,-45.32,,,,,,,
82900,2016-03-09 0000,-8.05,-34.95,0,.4,.6,54.8,,,
82983,2016-03-09 0000,-9.38,-40.48,0,0,.4,.4,.4,12.6,
A414,2016-03-09 0000,-14.89,-40.8,0,.2,.2,3.8,3.8,6.8,224
A422,2016-03-09 0000,-17.96,-38.7,0,2.2,3.6,9,9,11.6,217.4
A426,2016-03-09 0000,-14.21,-42.75,0,0,1,1,1,10.6,456
A325,2016-03-09 0000,-5.17,-39.29,0,0,0,.2,.6,2.6,
A834,2016-03-09 0000,-30.01,-50.14,0,2.4,2.4,84.2,90.6,137.2,
A353,2016-03-09 0000,-9.8,-36.62,0,0,0,0,.2,16.2,106.6
A120,2016-03-09 0000,-3.97,-59.2,,,,,,,
A851,2016-03-09 0000,-26.08,-48.64,0,61.6,70.6,139.2,195.8,364.8,960.4
A847,2016-03-09 0000,-25.49,-48.33,0,5.8,30.2,152.4,172.4,612.4,1183.8
A932,2016-03-09 0000,-16.34,-53.77,10.2,58.2,68.6,84.6,103.2,171,566.8
A623,2016-03-09 0000,-18.7,-40.41,0,1.4,5.8,5.8,6.2,77.8,320.2
A351,2016-03-09 0000,-8.59,-38.58,0,0,0,0,0,17.2,237
A833,2016-03-09 0000,-29.19,-54.89,12.4,12.4,12.4,52.8,68.6,162.6,638.4
A406,2016-03-09 0000,-12.65,-39.15,6,6.2,6.2,14,18.4,56.4,235
82986,2016-03-09 0000,-9.37,-38.22,,,,,,,
83967,2016-03-09 0000,-30.02,-51.22,8.5,8.5,8.5,91.4,93.5,148.9,404.5
A814,2016-03-09 0000,-28.53,-49.32,0,.2,.8,74.6,107.2,288.6,612.8
82723,2016-03-09 0000,-7.25,-64.83,15,,,,,,
83589,2016-03-09 0000,-19.02,-43.43,0,0,38.2,38.6,58.1,88.6,651.1
A345,2016-03-09 0000,-9.03,-42.7,0,0,1.8,1.8,1.8,3.6,263.6
A904,2016-03-09 0000,-12.55,-55.72,0,0,0,0,0,0,
A340,2016-03-09 0000,-5.63,-37.82,0,0,10.6,27,30.2,44.2,369.8
A917,2016-03-09 0000,-11.98,-55.57,36.8,42.4,45.8,122.8,193,235.2,695.4
83676,2016-03-09 0000,-21.12,-48.93,0,3.1,,,,,
A735,2016-03-09 0000,-21.09,-49.92,0,5.4,34.4,58.6,112.6,195.2,544.6
A246,2016-03-09 0000,-6.32,-55.79,.2,.4,1.4,3.8,5.4,8.4,174.6
A332,2016-03-09 0000,-5.14,-38.36,0,0,17.2,23.6,37,105.8,257.8
A828,2016-03-09 0000,-27.66,-52.31,0,0,0,0,.4,4.2,
A818,2016-03-09 0000,-25.01,-50.87,12.8,12.8,13,64,100.8,233.6,587.8
83338,2016-03-09 0000,-14.91,-42.81,0,0,,,,,
83498,2016-03-09 0000,-17.74,-39.26,0,0,1,2.5,2.9,2.9,186.9
83566,2016-03-09 0000,-19.62,-43.97,0,0,18,18.9,,,
A358,2016-03-09 0000,-5.91,-38.63,0,0,.6,.6,6,6.8,124
82042,2016-03-09 0000,1.83,-61.13,0,0,0,4,10,41.2,
A852,2016-03-09 0000,-28.42,-54.96,13.4,13.4,18,44.8,52.6,197.6,902
A306,2016-03-09 0000,-3.73,-40.35,0,0,0,0,0,.2,70.8
83374,2016-03-09 0000,-15.92,-50.13,14.8,34.5,49.3,96.1,96.6,171.7,789.3
A128,2016-03-09 0000,-.99,-62.92,,,,,,,
82024,2016-03-09 0000,2.82,-60.65,0,0,0,0,1,27.8,
A856,2016-03-09 0000,-27.92,-53.32,27.6,27.6,27.6,60.6,95.4,214.8,509.4
A034,2016-03-09 0000,-18.16,-47.93,0,.2,11.2,74.8,95.2,237.8,727.6
A119,2016-03-09 0000,-3.29,-60.63,1.4,3.2,3.2,55.2,105,164.2,555.6
A112,2016-03-09 0000,-7.92,-63.12,,,,,,,
A126,2016-03-09 0000,-2.08,-60.05,,,,,,,
82586,2016-03-09 0000,-5.17,-39.28,5.6,5.6,5.6,6.6,8.2,15.6,
82990,2016-03-09 0000,-9.75,-37.43,0,0,0,5.4,6.6,,
A328,2016-03-09 0000,-7.84,-35.8,0,0,.4,3.8,4.8,32.6,171.6
83887,2016-03-09 0000,-27.38,-51.22,28.7,28.7,33.7,115.7,142.2,253.2,703.4
A221,2016-03-09 0000,-5.51,-45.24,11.2,18.6,59.4,59.4,65.4,79.2,327.6
82784,2016-03-09 0000,-7.32,-39.3,0,.8,.8,.8,5.2,17.7,
82594,2016-03-09 0000,-5.12,-36.77,0,0,0,,,,
83623,2016-03-09 0000,-20.42,-49.98,0,3,,,,,
83405,2016-03-09 0000,-16.05,-57.68,,,,,,,
A416,2016-03-09 0000,-13.33,-44.62,0,.2,12.4,12.4,12.4,13.8,483.8
83244,2016-03-09 0000,-12.52,-40.28,0,0,.5,1,1,1.8,583.5
82493,2016-03-09 0000,-4.78,-37.77,3.1,3.1,3.7,18.6,18.6,27,
A450,2016-03-09 0000,-10.08,-38.35,0,0,.2,3.4,3.8,34.4,338.6
A239,2016-03-09 0000,-2,-54.08,3,106.8,110.6,127.8,151.2,183.8,292.8
A933,2016-03-09 0000,-17.3,-54.84,0,0,0,0,0,0,
A741,2016-03-09 0000,-22.37,-48.56,.2,8.2,8.2,24.4,90.4,190.6,660.6
83851,2016-03-09 0000,-23.48,-47.43,13,13.4,13.4,61.6,97.4,173.3,
A002,2016-03-09 0000,-16.64,-49.22,11.8,19.6,22.4,123.4,123.6,204.8,750
82425,2016-03-09 0000,-4.08,-63.13,,,,,,,
A849,2016-03-09 0000,-22.63,-52.86,0,0,0,.4,.6,9.6,
A028,2016-03-09 0000,-16.42,-51.15,.4,43.4,49.8,55,71.4,148.4,779
A136,2016-03-09 0000,-8.27,-72.75,0,0,0,0,0,0,
A716,2016-03-09 0000,-22.95,-49.89,0,0,0,1.8,112.8,289.4,892.8
A240,2016-03-09 0000,-5.17,-49.38,0,132.6,132.8,144.8,174.4,213,
A208,2016-03-09 0000,-7.56,-49.7,,,,,,,
A123,2016-03-09 0000,-2.64,-56.75,11,69.2,146,199.4,255.2,283.4,620.4
83842,2016-03-09 0000,-25.43,-49.27,32,32,32,47.7,54,261.8,691.9
A046,2016-03-09 0000,-15.94,-48.14,3,31,48.4,82.4,114,201,653.4
A727,2016-03-09 0000,-21.67,-49.73,0,7,12,22.8,104.4,282.2,811.8
A434,2016-03-09 0000,-13.01,-39.62,1.2,2.2,2.2,4.4,7.8,19.2,181.8
A317,2016-03-09 0000,-5.15,-36.57,0,0,37.8,75.8,75.8,119.4,268.8
A310,2016-03-09 0000,-6.97,-35.68,0,0,3.6,24.6,33.8,50.2,342
S828,2016-03-09 0000,-25.65,-51.96,,,,,,,
A311,2016-03-09 0000,-6.77,-43.02,0,0,.2,.2,.4,.6,
A736,2016-03-09 0000,-21.13,-48.84,0,0,19.2,131.4,158,220.8,
A739,2016-03-09 0000,-22.42,-46.81,1.6,18,33.8,84.6,112.2,230.2,736.2
A428,2016-03-09 0000,-10.44,-40.15,0,0,5.2,5.2,5.2,,
A916,2016-03-09 0000,-12.6,-52.19,0,136.8,145.2,173.6,181.4,245.2,976.8
A242,2016-03-09 0000,3.81,-51.86,7.8,9.6,12.6,15.2,131.6,326.6,763.6
A427,2016-03-09 0000,-16.39,-39.18,1.6,1.6,1.6,2.2,2.2,3.8,241.4
82598,2016-03-09 0000,-5.92,-35.2,0,0,.5,67.4,71.5,118.9,
A867,2016-03-09 0000,-28.93,-49.5,0,1,1,1,1.4,56,202.4
A866,2016-03-09 0000,-28.6,-48.81,0,0,.4,58.4,84.6,,
A751,2016-03-09 0000,-23.97,-55.02,4.8,4.8,5,25.6,71.8,193.8,710
A743,2016-03-09 0000,-21.77,-54.53,4.8,5,5.2,161,244.8,311.6,452.6
A431,2016-03-09 0000,-11.8,-37.6,0,0,.4,1.2,6.8,39,
83948,2016-03-09 0000,-29.35,-49.72,0,0,24.4,63.8,65.4,104.8,309.9
82480,2016-03-09 0000,-4.27,-41.78,10.7,10.7,18.8,20.2,83.7,118.3,
82892,2016-03-09 0000,-8.4,-36.77,,,,,,,
A212,2016-03-09 0000,-3.01,-47.34,.2,.4,1.2,57.4,86.6,130.8,265.4
A826,2016-03-09 0000,-29.71,-55.53,0,0,0,32.8,54.2,191.4,669.2
A873,2016-03-09 0000,-25.51,-48.81,0,0,0,0,0,.2,
83236,2016-03-09 0000,-12.16,-45.01,0,0,58.4,58.4,58.4,68.1,682.8
A111,2016-03-09 0000,-7.44,-64.79,18.2,36.8,119.2,260.2,326.2,547.6,1077
A745,2016-03-09 0000,-24.05,-46.26,,,,,,,
A819,2016-03-09 0000,-24.79,-50,0,0,0,0,0,0,
A729,2016-03-09 0000,-20.4,-49.97,0,1.2,70.2,115.4,146.8,289,972.2
A755,2016-03-09 0000,-23.52,-46.87,.6,6,6,67,90.6,173.4,544.2
A309,2016-03-09 0000,-8.42,-37.08,0,0,0,0,0,0,83.4
A803,2016-03-09 0000,-29.71,-53.7,5,5.4,8.2,29.8,39,124,551.6
A444,2016-03-09 0000,-13.34,-39.13,8,10.8,11.2,18.4,32.4,73.6,380.4
A225,2016-03-09 0000,-5.56,-47.46,2,19.2,49.6,51.2,87.2,172.2,
A411,2016-03-09 0000,-9.37,-38.22,0,0,0,0,0,1.6,280
A232,2016-03-09 0000,-5.37,-49.13,,,,,,,
A346,2016-03-09 0000,-7.47,-44.34,0,0,6.6,6.6,6.6,35.2,170.6
A915,2016-03-09 0000,-14.42,-54.04,2.6,35.6,53.6,78.2,90.2,158.2,525.8
A211,2016-03-09 0000,-3.88,-54.25,0,14.4,28.2,115.4,154,209,378.4
A037,2016-03-09 0000,-16.68,-48.62,0,23.6,56.2,102,103.6,184.6,670
82240,2016-03-09 0000,-2.63,-56.73,,,,,,,
82113,2016-03-09 0000,-.97,-60.92,14.2,32.6,32.6,35,49.2,56.1,86.1
A054,2016-03-09 0000,-12.59,-49.53,10.8,53.6,115.6,147,147,172.8,914
83582,2016-03-09 0000,-20.03,-46.01,0,.6,,,,,
A902,2016-03-09 0000,-14.65,-57.42,0,32.6,52.4,117.8,,,
A901,2016-03-09 0000,-15.56,-56.73,11.8,34,35,,,,
83704,2016-03-09 0000,-22.3,-53.82,,,,,,,
83552,2016-03-09 0000,-19.02,-57.67,,,,,,,
A817,2016-03-09 0000,-26.91,-49.27,0,0,8.8,94.4,153,200.4,462.4
A872,2016-03-09 0000,-24.24,-50.25,0,0,0,6,46.2,249.2,594.6
A319,2016-03-09 0000,-6.4,-39.27,48,48,49,49,49,,
A312,2016-03-09 0000,-5.07,-42.81,11.8,62.2,65.6,71.6,105.4,120.2,438.2
A903,2016-03-09 0000,-13.45,-56.67,.8,34.4,38,42.8,81.8,160,562.4
A013,2016-03-09 0000,-15.91,-52.24,0,10.8,19.2,47.4,85,179.8,
A019,2016-03-09 0000,-11.75,-49.05,5.4,14.2,34.4,39.4,54.2,62.8,
A018,2016-03-09 0000,-12.02,-48.55,7.2,14.8,16.4,30.8,35.8,95.4,585.8
82795,2016-03-09 0000,-7.22,-35.88,0,0,1.9,8.6,10.2,,
A419,2016-03-09 0000,-10.74,-38.11,0,4.6,4.6,7.4,9,12.4,154
A927,2016-03-09 0000,-12.87,-58.39,1.4,27.2,69.2,112,125.4,202.6,798.8
A124,2016-03-09 0000,-2.53,-57.76,9.8,28.4,33.8,118.4,162.2,207.4,439
A248,2016-03-09 0000,-1.73,-47.06,0,.4,8.2,111,206.6,,
A622,2016-03-09 0000,-21.1,-41.04,0,0,16.4,16.6,16.6,24.2,159.4
A652,2016-03-09 0000,-22.99,-43.19,0,1,1,111.6,112.2,272.2,489.4
82704,2016-03-09 0000,-7.6,-72.67,,,,,,,
A052,2016-03-09 0000,-11.05,-48.19,12.8,18.2,22.6,59.6,59.6,117,530.2
82791,2016-03-09 0000,-7.02,-37.27,.5,.5,4.2,17.2,42.7,56.2,
A725,2016-03-09 0000,-23.1,-48.95,.2,.2,.2,35.4,84.8,184.8,668.2
A415,2016-03-09 0000,-11.02,-44.52,0,,,,,,
A439,2016-03-09 0000,-12.19,-43.21,0,0,13.2,13.2,13.2,,
82678,2016-03-09 0000,-6.77,-43.02,0,11.2,23.6,34.8,35.3,72.4,
83953,2016-03-09 0000,-30.83,-55.6,,,,,,,
A321,2016-03-09 0000,-7.08,-37.27,0,0,2.4,2.4,2.4,11.6,
A134,2016-03-09 0000,-.12,-67.06,65.4,65.4,69.4,103.6,117.6,204.4,638.4
83997,2016-03-09 0000,-33.52,-53.35,0,0,1.8,6,43,104.1,212.4
A335,2016-03-09 0000,-4.26,-41.78,10.2,10.2,18.6,20,84,119,342.8
A659,2016-03-09 0000,-22.65,-42.42,0,25.2,25.4,305.4,328.6,492.4,901.4
82317,2016-03-09 0000,-3.83,-64.7,1.2,21.9,85.4,166.8,191.1,318.9,685.3
A940,2016-03-09 0000,-9.95,-62.96,.2,48.2,59.8,122.6,152,310.6,778
83362,2016-03-09 0000,-15.65,-56.12,11,,,,,,
A329,2016-03-09 0000,-8.5,-39.31,0,0,0,0,0,36.2,256.6
83096,2016-03-09 0000,-10.95,-37.05,0,0,0,1.8,3.2,47.1,159.8
83565,2016-03-09 0000,-19.75,-51.18,0,0,0,11.6,55.6,94.8,581
83295,2016-03-09 0000,-13.53,-40.12,,,,,,,
A405,2016-03-09 0000,-17.73,-39.27,0,0,.8,2.6,3.6,3.8,198.6
83781,2016-03-09 0000,-23.5,-46.62,0,14.2,14.2,138,170.8,355.3,828.3
82298,2016-03-09 0000,-3.9,-42.25,,,,,,,
A301,2016-03-09 0000,-8.06,-34.96,0,.6,1,50.8,53.8,95,306.6
82777,2016-03-09 0000,-7,-40.38,0,0,0,0,7.6,27.4,
A899,2016-03-09 0000,-33.74,-53.37,0,0,2,2,46,100,183
A842,2016-03-09 0000,-23.41,-50.58,.4,1,1,5.8,,,
A004,2016-03-09 0000,-14.45,-48.45,12.8,17,25.4,56.8,61.4,161.8,857
A753,2016-03-09 0000,-20.36,-47.77,.4,15.8,42.4,93.2,102.8,142.4,837.4
83995,2016-03-09 0000,-32.08,-52.17,,,,,,,
82807,2016-03-09 0000,-8.17,-70.77,0,28.6,40,54.4,81.2,229.6,
82992,2016-03-09 0000,-9.45,-36.7,0,0,0,3,3,,
A424,2016-03-09 0000,-11.33,-41.86,0,.4,3.6,3.6,3.6,4.6,264.6
83222,2016-03-09 0000,-12.67,-39.08,6.6,6.6,6.6,,,,
A213,2016-03-09 0000,-2.6,-48.37,0,0,2.4,15.8,27.4,49,227.4
A748,2016-03-09 0000,-20.56,-48.54,18.6,18.6,29.2,52.6,85.4,155.4,750.2
A876,2016-03-09 0000,-26.42,-52.35,0,.2,.4,26.4,106.2,201.4,676.6
A418,2016-03-09 0000,-13.42,-43.18,0,0,0,0,0,1.8,366.8
A749,2016-03-09 0000,-22.86,-54.61,0,0,0,0,0,0,
A313,2016-03-09 0000,-7.24,-35.89,0,.2,1.8,7.8,9.2,34,207.2
A342,2016-03-09 0000,-5.19,-40.67,58.2,58.4,58.6,61.8,77.8,111,372.8
A324,2016-03-09 0000,-6.02,-40.28,21,21,21,21,21,45,318.2
A350,2016-03-09 0000,-7.95,-38.29,0,0,0,0,.2,26.8,242
A420,2016-03-09 0000,-10.4,-37.75,0,0,.8,18.4,,,
A843,2016-03-09 0000,-25.69,-53.09,0,0,.4,17.8,95.2,157.2,661.2
A929,2016-03-09 0000,-13.69,-54.96,22,32,43.6,,,,
83186,2016-03-09 0000,-11.17,-40.53,0,0,0,.4,18.7,22.7,379.6
A845,2016-03-09 0000,-28.13,-49.48,.2,2,10.6,132,202.2,294,
83398,2016-03-09 0000,-15.67,-38.95,7.9,7.9,7.9,13.3,13.3,64.7,384.4
A883,2016-03-09 0000,-28.65,-53.11,10.8,10.8,14.6,94.2,104.8,207.2,710.8
A837,2016-03-09 0000,-28.85,-52.56,23.6,23.6,23.6,89.6,114,266.8,629
A308,2016-03-09 0000,-3.09,-41.78,.2,.2,1,11.8,38.6,67,264.6
A728,2016-03-09 0000,-23.04,-45.52,3,43.4,46.2,106,129.8,252.4,584.4
A723,2016-03-09 0000,-21.71,-57.89,0,0,0,11.2,107.8,126.6,
A135,2016-03-09 0000,2.82,-60.69,0,0,0,1.8,4.4,32.6,40.8
A356,2016-03-09 0000,-9.29,-35.57,2,2.8,2.8,19.6,20.6,79.2,410
A401,2016-03-09 0000,-13.02,-38.52,.6,4.8,6.6,24.6,26.4,60.8,248.4
A404,2016-03-09 0000,-12.15,-45.83,0,.4,.8,.8,.8,24.8,408.4
